<?xml version="1.0" standalone="no"?>
<!DOCTYPE svg PUBLIC "-//W3C//DTD SVG 1.1//EN" "http://www.w3.org/Graphics/SVG/1.1/DTD/svg11.dtd" >
<svg xmlns="http://www.w3.org/2000/svg">
<metadata></metadata>
<defs>
<font id="museo_sans_cyrl300" horiz-adv-x="1163" >
<font-face units-per-em="2048" ascent="1536" descent="-512" />
<missing-glyph horiz-adv-x="512" />
<glyph horiz-adv-x="2048" />
<glyph horiz-adv-x="2048" />
<glyph unicode="&#xd;" horiz-adv-x="2048" />
<glyph unicode=" "  horiz-adv-x="512" />
<glyph unicode="&#x09;" horiz-adv-x="512" />
<glyph unicode="&#xa0;" horiz-adv-x="512" />
<glyph unicode="!" horiz-adv-x="536" d="M188 0v162h160v-162h-160zM195 1440h143l-6 -1063h-131z" />
<glyph unicode="&#x22;" horiz-adv-x="692" d="M162 1116v344h121v-344h-121zM410 1116v344h120v-344h-120z" />
<glyph unicode="#" horiz-adv-x="1486" d="M96 399l21 115h291l71 401h-291l21 115h289l71 410h125l-71 -410h354l72 410h125l-72 -410h287l-19 -115h-287l-71 -401h286l-20 -115h-287l-69 -399h-125l69 399h-354l-70 -399h-125l70 399h-291zM532 514h355l71 401h-356z" />
<glyph unicode="$" d="M135 160l84 108q69 -70 171.5 -113.5t205.5 -43.5q122 0 204.5 67.5t82.5 181.5q0 71 -40 126.5t-104 93t-141 71t-154.5 71t-141.5 82.5t-104 114.5t-40 158.5q0 143 104.5 251.5t272.5 129.5v195h114v-193q205 -10 342 -135l-69 -119q-60 55 -145.5 89t-170.5 34 q-133 0 -218 -74.5t-85 -173.5q0 -53 25 -96.5t67 -74.5t96 -58.5t114.5 -53t120.5 -52.5t114 -62.5t96 -78.5t67 -104.5t25 -135.5q0 -153 -102 -260.5t-277 -124.5v-191h-114v191q-112 8 -219 54.5t-181 125.5z" />
<glyph unicode="%" horiz-adv-x="1490" d="M113 1180q0 118 83.5 201t202.5 83t204 -83.5t85 -200.5q0 -118 -85 -201.5t-204 -83.5q-120 0 -203 83t-83 202zM125 0l1096 1440h147l-1096 -1440h-147zM233 1180q0 -71 48 -120.5t118 -49.5t118 49.5t48 120.5q0 70 -48 120t-118 50t-118 -50t-48 -120zM805 258 q0 119 83.5 203t203.5 84t204 -84t84 -203q0 -117 -84 -200t-204 -83t-203.5 83t-83.5 200zM926 260q0 -71 48 -120.5t118 -49.5t119 49.5t49 120.5q0 70 -49 120t-119 50t-118 -50t-48 -120z" />
<glyph unicode="&#x26;" horiz-adv-x="1361" d="M123 397q0 129 70 235.5t192 143.5v4q-90 38 -144.5 118t-54.5 202q0 166 117 265t313 99q81 0 164 -22l-39 -117q-58 14 -118 14q-127 0 -209 -66.5t-82 -180.5q0 -33 6 -64.5t26 -68.5t52 -64t90 -45.5t135 -18.5h303v203h141v-203h197v-126h-197v-211 q0 -253 -127 -386t-350 -133q-213 0 -349 120t-136 302zM270 406q0 -127 92 -212t246 -85q159 0 247.5 94.5t88.5 294.5v207h-303q-182 0 -276.5 -80t-94.5 -219z" />
<glyph unicode="'" horiz-adv-x="444" d="M162 1116v344h121v-344h-121z" />
<glyph unicode="(" horiz-adv-x="569" d="M119 690q0 426 229 805h131q-231 -385 -231 -807q0 -474 231 -883h-131q-108 188 -168.5 417.5t-60.5 467.5z" />
<glyph unicode=")" horiz-adv-x="569" d="M90 -195q232 416 232 883q0 412 -232 807h129q232 -379 232 -805q0 -239 -61.5 -468t-170.5 -417h-129z" />
<glyph unicode="*" horiz-adv-x="1015" d="M115 1104l39 129l297 -109l-13 316h137l-12 -316l297 107l43 -125l-303 -88v-4l193 -246l-109 -80l-174 260h-4l-176 -258l-109 78l195 246v4z" />
<glyph unicode="+" d="M47 522v119h473v522h125v-522h471v-119h-471v-522h-125v522h-473z" />
<glyph unicode="," horiz-adv-x="536" d="M90 -199l117 367h160l-156 -367h-121z" />
<glyph unicode="-" horiz-adv-x="884" d="M152 518v127h581v-127h-581z" />
<glyph unicode="." horiz-adv-x="471" d="M152 0v170h167v-170h-167z" />
<glyph unicode="/" horiz-adv-x="823" d="M86 -86l520 1606h131l-520 -1606h-131z" />
<glyph unicode="0" horiz-adv-x="1263" d="M135 721q0 129 15.5 237t52 203t92.5 161t141.5 104t194.5 38q110 0 195.5 -38t141.5 -104t92.5 -161t52 -203t15.5 -237t-15.5 -237.5t-52 -204.5t-92.5 -162t-141.5 -104t-195.5 -38q-109 0 -194.5 38t-141.5 104.5t-92.5 162t-52 204t-15.5 237.5zM283 721 q0 -109 10 -197t34.5 -167t63.5 -132.5t99.5 -84.5t140.5 -31t141.5 31t100.5 84.5t63.5 132.5t34.5 167t10 197q0 108 -10 195.5t-34.5 166t-63.5 131.5t-100.5 84t-141.5 31t-140.5 -31t-99.5 -84t-63.5 -131.5t-34.5 -166t-10 -195.5z" />
<glyph unicode="1" horiz-adv-x="966" d="M117 0v127h323v1057l2 80h-4q-14 -29 -71 -86l-154 -152l-90 90l326 324h131v-1313h317v-127h-780z" />
<glyph unicode="2" horiz-adv-x="1155" d="M119 92q0 103 41 191.5t106 153t143.5 123t157.5 112t144 108.5t106 124.5t41 148.5q0 120 -83 198t-216 78q-98 0 -183 -54t-140 -142l-105 71q63 114 179 187t257 73q199 0 319 -115t120 -288q0 -77 -25 -146t-67 -122.5t-97 -102.5t-115 -91.5t-121 -83t-115.5 -83.5 t-97 -88t-68 -100.5t-26.5 -116.5h754v-127h-901q-8 66 -8 92z" />
<glyph unicode="3" horiz-adv-x="1150" d="M100 172l88 109q65 -71 164 -119.5t205 -48.5q133 0 230.5 87.5t97.5 221.5q0 97 -52 168.5t-132.5 105t-176.5 33.5h-100l-35 84l361 422l75 80v4q-40 -6 -116 -6h-541v127h842v-94l-428 -496q58 -3 116 -17t119 -46.5t107.5 -79t76 -119.5t29.5 -162q0 -122 -61 -225 t-170 -164.5t-242 -61.5q-126 0 -247 52.5t-210 144.5z" />
<glyph unicode="4" horiz-adv-x="1230" d="M78 399v93l706 948h154v-918h205v-123h-205v-399h-141v399h-719zM248 522h549v604q0 27 2 61.5t4 55.5l2 21h-4q-35 -60 -72 -111l-481 -627v-4z" />
<glyph unicode="5" horiz-adv-x="1136" d="M111 178l92 101q48 -70 130 -118t193 -48q151 0 255 95t104 241q0 147 -104.5 243t-260.5 96q-66 0 -137 -21t-125 -58l-90 32l78 699h696v-127h-571l-43 -369l-13 -82h4q32 21 95.5 38.5t122.5 17.5q214 0 354.5 -136.5t140.5 -332.5q0 -131 -66 -240t-181 -171.5 t-253 -62.5q-126 0 -238 53.5t-183 149.5z" />
<glyph unicode="6" horiz-adv-x="1206" d="M127 649q0 112 22.5 224t72.5 219t121.5 189.5t179 132.5t235.5 50q148 0 266 -59l-53 -125q-84 49 -213 49q-107 0 -195 -50t-145 -133.5t-91 -183.5t-44 -208h4q52 76 151.5 122t212.5 46q197 0 322 -130.5t125 -340.5q0 -214 -129 -345t-322 -131q-154 0 -273 88 t-183 241t-64 345zM281 532q0 -46 14.5 -100.5t46 -112t74.5 -104t105.5 -76.5t133.5 -30q134 0 216.5 97.5t82.5 248.5q0 155 -88.5 247.5t-236.5 92.5q-137 0 -242.5 -75t-105.5 -188z" />
<glyph unicode="7" horiz-adv-x="1079" d="M90 1313v127h936v-99l-668 -1341h-147l582 1180q17 35 36.5 68t30.5 49l10 16v4q-34 -4 -106 -4h-674z" />
<glyph unicode="8" horiz-adv-x="1218" d="M121 406q0 66 21 128t48.5 104.5t65.5 81t62 56.5t47 33q-175 115 -175 287q0 74 28 139.5t81 117t137.5 81.5t190.5 30q199 0 319.5 -103t120.5 -269q0 -68 -22 -136t-56 -120.5t-59.5 -84t-48.5 -53.5q97 -56 150.5 -129t53.5 -178q0 -172 -135 -294t-342 -122 q-97 0 -185 31t-155 86t-107 136.5t-40 177.5zM268 416q0 -134 102.5 -222t235.5 -88q132 0 233 81t101 202q0 47 -21 88t-51 69t-81.5 57t-94 47t-108 46t-105.5 47q-22 -14 -41.5 -28.5t-53 -46.5t-57 -65.5t-41.5 -83.5t-18 -103zM334 1098q0 -46 19.5 -85.5t46 -66.5 t76.5 -56.5t86.5 -45.5t102.5 -44.5t99 -43.5q160 160 160 325q0 116 -83 184t-216 68q-134 0 -212.5 -67.5t-78.5 -167.5z" />
<glyph unicode="9" horiz-adv-x="1206" d="M109 985q0 109 35 200t96.5 151.5t144 94t176.5 33.5q153 0 271.5 -87.5t182.5 -241.5t64 -347q0 -92 -16.5 -185.5t-48.5 -185t-84.5 -171t-120.5 -140.5t-161.5 -96t-201.5 -35q-141 0 -264 60l56 125q92 -51 208 -51q108 0 197 50t146.5 134t91.5 183.5t45 209.5h-4 q-54 -76 -154 -122t-211 -46q-198 0 -323 130.5t-125 336.5zM252 985q0 -154 89 -247t237 -93q142 0 246 77.5t104 168.5q0 73 -27.5 150t-74 141.5t-116.5 105.5t-147 41q-145 0 -228 -95.5t-83 -248.5z" />
<glyph unicode=":" horiz-adv-x="464" d="M152 0v164h159v-164h-159zM152 866v164h159v-164h-159z" />
<glyph unicode=";" horiz-adv-x="575" d="M135 -199l101 367h153l-135 -367h-119zM238 866v164h157v-164h-157z" />
<glyph unicode="&#x3c;" d="M92 530v103l926 414v-138l-754 -325v-4l754 -326v-137z" />
<glyph unicode="=" d="M104 344v119h955v-119h-955zM104 700v119h955v-119h-955z" />
<glyph unicode="&#x3e;" d="M145 117v137l752 326v4l-752 325v138l924 -414v-103z" />
<glyph unicode="?" horiz-adv-x="921" d="M86 1350q57 51 147 83.5t183 32.5q176 0 292.5 -101.5t116.5 -260.5q0 -69 -20 -128t-52.5 -101t-71.5 -80t-78 -73t-71.5 -71t-52.5 -83.5t-20 -102.5v-88h-137v92q0 66 19.5 122.5t51 97.5t69.5 78t76 72t69.5 71.5t51 84.5t19.5 103q0 100 -75.5 167.5t-192.5 67.5 q-131 0 -246 -86zM309 0v162h162v-162h-162z" />
<glyph unicode="@" horiz-adv-x="1593" d="M123 496q0 205 97.5 378.5t265 274t364.5 100.5q108 0 195 -21.5t143.5 -58t94 -87t53.5 -105.5t16 -117v-645h145v-115h-551q-174 0 -290.5 116t-116.5 278t116 277.5t291 115.5h266q-3 103 -92 172t-260 69q-165 0 -302.5 -86t-215.5 -231t-78 -315q0 -172 77.5 -315.5 t217 -227.5t311.5 -84v-123q-209 0 -381 100t-269 271.5t-97 378.5zM682 496q0 -118 79 -199.5t197 -81.5h254v563h-249q-120 0 -200.5 -82.5t-80.5 -199.5z" />
<glyph unicode="A" horiz-adv-x="1294" d="M43 0l528 1440h152l528 -1440h-149l-166 459h-580l-163 -459h-150zM399 582h494l-188 522q-11 30 -25 77t-22 79l-9 32h-4q-30 -120 -55 -188z" />
<glyph unicode="B" horiz-adv-x="1261" d="M207 0v1440h491q172 0 280.5 -98.5t108.5 -264.5q0 -110 -48.5 -190.5t-133.5 -122.5v-4q110 -31 176 -129t66 -228q0 -187 -122.5 -295t-309.5 -108h-508zM348 127h369q130 0 206 76t76 205q0 128 -78.5 206t-205.5 78h-367v-565zM348 815h350q109 0 176.5 70t67.5 182 q0 111 -67 178.5t-181 67.5h-346v-498z" />
<glyph unicode="C" horiz-adv-x="1470" d="M113 729q0 207 92 375t258 264t373 96q146 0 284 -46t236 -140l-76 -104q-84 73 -203 115t-237 42q-171 0 -304.5 -79.5t-204.5 -215.5t-71 -305q0 -171 71 -312t206.5 -225.5t308.5 -84.5q128 0 250.5 50t214.5 140l82 -100q-228 -224 -551 -224q-214 0 -381.5 101 t-257.5 272t-90 381z" />
<glyph unicode="D" horiz-adv-x="1511" d="M207 0v1440h463q330 0 526.5 -191t196.5 -528q0 -338 -196.5 -529.5t-526.5 -191.5h-463zM348 127h307q271 0 430.5 154.5t159.5 439.5q0 282 -159.5 437t-430.5 155h-307v-1186z" />
<glyph unicode="E" horiz-adv-x="1146" d="M207 0v1440h809v-127h-668v-525h547v-126h-547v-535h707v-127h-848z" />
<glyph unicode="F" horiz-adv-x="1036" d="M207 0v1440h756v-127h-615v-541h529v-127h-529v-645h-141z" />
<glyph unicode="G" horiz-adv-x="1552" d="M113 721q0 205 94.5 375.5t262 269t370.5 98.5q141 0 275.5 -42.5t236.5 -125.5l-78 -108q-75 63 -194 103t-234 40q-171 0 -306 -81t-207.5 -219.5t-72.5 -307.5q0 -131 43.5 -245t119.5 -195t182.5 -127.5t228.5 -46.5q127 0 246.5 55.5t205.5 152.5v244h-246v127h379 v-688h-129v109l2 61h-4q-79 -87 -204.5 -141t-264.5 -54q-146 0 -276.5 57t-225 155t-149.5 237t-55 297z" />
<glyph unicode="H" horiz-adv-x="1529" d="M207 0v1440h141v-656h834v656h143v-1440h-143v657h-834v-657h-141z" />
<glyph unicode="I" horiz-adv-x="555" d="M207 0v1440h141v-1440h-141z" />
<glyph unicode="J" horiz-adv-x="1064" d="M66 403v58h141v-53q0 -128 65.5 -213.5t194.5 -85.5q112 0 188 71t76 223v910h-352v127h493v-1037q0 -112 -34.5 -197.5t-93 -134t-128 -72.5t-147.5 -24q-62 0 -118.5 14.5t-109 47.5t-91 81.5t-61.5 121.5t-23 163z" />
<glyph unicode="K" horiz-adv-x="1210" d="M207 0v1440h141v-625h242l389 625h162l-432 -680v-4l460 -756h-165l-414 688h-242v-688h-141z" />
<glyph unicode="L" horiz-adv-x="1058" d="M207 0v1440h141v-1313h668v-127h-809z" />
<glyph unicode="M" horiz-adv-x="1724" d="M152 0l114 1440h146l379 -846q15 -33 32 -77t27 -71l10 -28h4q37 102 70 176l379 846h145l115 -1440h-141l-80 1008q-3 35 -4 85v46v37v32h-5q-42 -126 -75 -200l-340 -740h-131l-338 740q-15 32 -34.5 83t-31.5 86l-12 35h-4q1 -32 1 -60q0 -86 -5 -144l-80 -1008h-141z " />
<glyph unicode="N" horiz-adv-x="1538" d="M207 0v1440h137l735 -1037q22 -32 51.5 -80.5t48.5 -80.5l19 -33h4q-12 118 -12 194v1037h141v-1440h-137l-735 1036q-22 32 -51.5 81t-48.5 81l-19 33h-4q12 -119 12 -195v-1036h-141z" />
<glyph unicode="O" horiz-adv-x="1689" d="M111 731q0 204 95 371.5t263.5 264.5t374.5 97q207 0 375.5 -97t263 -264.5t94.5 -371.5q0 -210 -94.5 -383t-263 -273t-375.5 -100q-206 0 -374.5 100t-263.5 273t-95 383zM258 731q0 -174 76 -316.5t210.5 -224t299.5 -81.5q166 0 300.5 81.5t210 224t75.5 316.5 q0 168 -75.5 305.5t-210 216t-300.5 78.5q-165 0 -299.5 -78.5t-210.5 -216t-76 -305.5z" />
<glyph unicode="P" horiz-adv-x="1222" d="M207 0v1440h498q195 0 319.5 -118.5t124.5 -315.5q0 -199 -125 -320t-319 -121h-357v-565h-141zM348 692h338q146 0 232 83.5t86 230.5q0 144 -86 225.5t-230 81.5h-340v-621z" />
<glyph unicode="Q" horiz-adv-x="1689" d="M113 729q0 204 95 372.5t262.5 265.5t373.5 97q157 0 294 -57t233.5 -155t152 -234t55.5 -289q0 -142 -47 -270.5t-133 -225.5l178 -178l-86 -90l-174 180q-201 -170 -473 -170q-207 0 -375 100.5t-262 273t-94 380.5zM260 729q0 -172 76.5 -314t211 -224t296.5 -82 q104 0 201.5 34.5t171.5 98.5l-179 180l86 88l174 -178q64 79 99 182t35 215q0 169 -77 307.5t-211.5 216.5t-299.5 78q-122 0 -230 -46t-186 -125.5t-123 -191.5t-45 -239z" />
<glyph unicode="R" horiz-adv-x="1263" d="M207 0v1440h436q174 0 264 -41q99 -47 156 -140t57 -221q0 -146 -75.5 -254.5t-198.5 -142.5v-4q16 -18 39 -57l313 -580h-164l-323 606h-363v-606h-141zM348 733h342q130 0 207.5 82.5t77.5 218.5q0 86 -40 153t-112 99q-62 27 -188 27h-287v-580z" />
<glyph unicode="S" horiz-adv-x="1093" d="M96 160l84 108q71 -69 170.5 -113t202.5 -44q129 0 210 67t81 178q0 73 -39.5 130t-103 94.5t-139.5 71t-152.5 70.5t-140 81.5t-103 115t-39.5 160.5q0 115 60.5 203.5t163 135t229.5 46.5q105 0 207.5 -36t173.5 -103l-70 -119q-59 56 -145.5 89.5t-172.5 33.5 q-128 0 -214.5 -65.5t-86.5 -176.5q0 -70 39.5 -123.5t103 -89t139.5 -68t152.5 -69t140 -82t103 -118t39.5 -166.5q0 -171 -118.5 -283.5t-321.5 -112.5q-126 0 -245.5 48.5t-207.5 136.5z" />
<glyph unicode="T" horiz-adv-x="1243" d="M35 1313v127h1175v-127h-518v-1313h-141v1313h-516z" />
<glyph unicode="U" horiz-adv-x="1480" d="M190 502v938h142v-936q0 -184 110.5 -289.5t296.5 -105.5q188 0 299 106t111 293v932h143v-938q0 -238 -152.5 -382.5t-398.5 -144.5t-398.5 144.5t-152.5 382.5z" />
<glyph unicode="V" horiz-adv-x="1294" d="M39 1440h151l400 -1094l55 -184h4q29 110 56 184l399 1094h151l-532 -1440h-152z" />
<glyph unicode="W" horiz-adv-x="1898" d="M72 1440h149l279 -1118l32 -154h5q13 78 36 154l308 1118h135l307 -1118l35 -154h4q13 80 31 154l293 1118h147l-385 -1440h-168l-279 1014q-12 41 -25 94.5t-20 87.5l-6 33h-6q-24 -123 -51 -215l-279 -1014h-170z" />
<glyph unicode="X" horiz-adv-x="1179" d="M39 0l459 752l-420 688h166l252 -426l94 -166h4q43 92 88 166l254 426h166l-422 -688l461 -752h-162l-301 498l-90 159h-4q-43 -85 -88 -161l-295 -496h-162z" />
<glyph unicode="Y" horiz-adv-x="1185" d="M35 1440h162l305 -522q19 -34 41 -77t35 -69l12 -27h4q45 97 88 173l305 522h162l-485 -822v-618h-142v618z" />
<glyph unicode="Z" horiz-adv-x="1185" d="M72 0v100l745 1082q23 35 48 67.5t39 48.5l14 15v4q-35 -4 -107 -4h-698v127h981v-101l-746 -1081q-23 -35 -48 -67.5t-38 -48.5l-14 -15v-4q34 4 106 4h746v-127h-1028z" />
<glyph unicode="[" horiz-adv-x="577" d="M188 -195v1690h279v-115h-150v-1460h150v-115h-279z" />
<glyph unicode="\" horiz-adv-x="823" d="M86 1520h131l520 -1606h-131z" />
<glyph unicode="]" horiz-adv-x="577" d="M111 -80h149v1460h-149v115h278v-1690h-278v115z" />
<glyph unicode="^" horiz-adv-x="1241" d="M150 512l407 928h94l408 -928h-135l-320 758l-319 -758h-135z" />
<glyph unicode="_" horiz-adv-x="1206" d="M76 0h1057v-119h-1057v119z" />
<glyph unicode="`" horiz-adv-x="1032" d="M365 1784h161l142 -244h-127z" />
<glyph unicode="a" horiz-adv-x="1058" d="M76 276q0 359 626 359h62v29q0 266 -254 266q-157 0 -293 -99l-63 107q62 53 161.5 85t202.5 32q187 0 286 -101.5t99 -294.5v-659h-133v121q0 23 1.5 44.5t2.5 31.5l2 10h-4q-42 -99 -135.5 -165.5t-212.5 -66.5q-66 0 -127.5 19.5t-111.5 56t-79.5 95t-29.5 130.5z M217 289q0 -79 61.5 -138t170.5 -59q58 0 109 22.5t88 61t64 88t40.5 104.5t13.5 109v47h-59q-45 0 -78 -1t-87.5 -6t-94.5 -13.5t-85.5 -26t-74.5 -41.5t-48.5 -62t-19.5 -85z" />
<glyph unicode="b" horiz-adv-x="1206" d="M166 0v1440h139v-508q0 -22 -1.5 -43.5t-3.5 -32.5l-1 -10h4q46 96 140 152.5t212 56.5q207 0 328 -149t121 -390q0 -244 -129.5 -392.5t-335.5 -148.5q-108 0 -200 57t-142 154h-4q6 -35 6 -84v-102h-133zM301 512q0 -107 35 -198.5t111.5 -152.5t181.5 -61 q142 0 238 112t96 302q0 188 -91 301t-237 113q-67 0 -125.5 -24.5t-106 -73t-75 -130.5t-27.5 -188z" />
<glyph unicode="c" horiz-adv-x="1110" d="M96 514q0 155 72 279.5t195.5 193t273.5 68.5q106 0 208.5 -38t168.5 -110l-72 -104q-55 57 -136 92t-165 35q-171 0 -286 -117t-115 -299q0 -180 116 -296t289 -116q91 0 180 38t150 104l63 -105q-68 -75 -175.5 -119.5t-225.5 -44.5q-152 0 -275 67.5t-194.5 191.5 t-71.5 280z" />
<glyph unicode="d" horiz-adv-x="1206" d="M100 516q0 243 129.5 391t335.5 148q108 0 199.5 -55t138.5 -148h4q-6 35 -6 78v510h139v-1440h-135v117q0 20 1.5 38t3.5 27l1 8h-4q-46 -94 -138.5 -154.5t-219.5 -60.5q-204 0 -326.5 150t-122.5 391zM244 516q0 -189 90.5 -302.5t236.5 -113.5q67 0 125 24.5 t105 73.5t74.5 131t27.5 189q0 108 -34.5 198.5t-110 151t-180.5 60.5q-142 0 -238 -111t-96 -301z" />
<glyph unicode="e" horiz-adv-x="1132" d="M96 514q0 124 40.5 227t110 171t162 105.5t197.5 37.5q137 0 236.5 -66t146.5 -172t47 -237q0 -24 -4 -70h-790q3 -127 58.5 -221t144 -140.5t196.5 -46.5q84 0 166.5 33t146.5 90l64 -106q-72 -66 -175.5 -105t-205.5 -39q-152 0 -275.5 68t-194.5 191.5t-71 279.5z M248 621h647q-6 154 -88.5 236.5t-204.5 82.5q-134 0 -232 -84t-122 -235z" />
<glyph unicode="f" horiz-adv-x="659" d="M76 905v117h129v47q0 70 14 127.5t36.5 96t54 68t63 46t68 27t64.5 13.5t56 3q34 0 64 -6v-123q-16 4 -50 4q-29 0 -55 -4.5t-59.5 -20.5t-57.5 -42.5t-40.5 -76t-16.5 -114.5v-45h262v-117h-262v-905h-141v905h-129z" />
<glyph unicode="g" horiz-adv-x="1191" d="M102 535q0 234 121 377t326 143q110 0 203.5 -45.5t138.5 -135.5h4q-4 12 -4 35v121h135v-1005q0 -95 -27.5 -172.5t-74 -129.5t-110.5 -87t-135 -50.5t-149 -15.5q-177 0 -335 84l51 113q137 -70 280 -70q161 0 260 79t99 242v103q0 17 2 36t4 29l2 11h-4 q-100 -191 -328 -191q-206 0 -332.5 148t-126.5 381zM244 537q0 -185 92.5 -295.5t245.5 -110.5q64 0 117.5 21t97 66.5t68 126t24.5 190.5q0 395 -326 395q-151 0 -235 -104t-84 -289z" />
<glyph unicode="h" horiz-adv-x="1216" d="M166 0v1440h139v-566q0 -21 -1.5 -41.5t-3.5 -30.5l-1 -11h4q16 40 49 82.5t83 85t124 69.5t156 27q185 0 265.5 -100.5t80.5 -299.5v-655h-139v618q0 54 -4 94.5t-18 82.5t-38 68.5t-66 43.5t-100 17q-165 0 -278 -121t-113 -305v-498h-139z" />
<glyph unicode="i" horiz-adv-x="471" d="M160 1266v174h151v-174h-151zM166 0v1030h139v-1030h-139z" />
<glyph unicode="j" horiz-adv-x="471" d="M-113 -293q16 -4 45 -4q28 0 54.5 4.5t61 21t59 43.5t42 77.5t17.5 117.5v1063h139v-1067q0 -98 -26.5 -171.5t-65 -113t-91 -63.5t-93 -30.5t-82.5 -6.5q-30 0 -60 6v123zM160 1266v174h151v-174h-151z" />
<glyph unicode="k" horiz-adv-x="1015" d="M166 0v1440h139v-803h166l307 393h168l-358 -448v-4l395 -578h-168l-342 514h-168v-514h-139z" />
<glyph unicode="l" horiz-adv-x="503" d="M166 244v1196h139v-1166q0 -48 10.5 -80.5t29 -48t36.5 -21t41 -5.5q21 0 33 2v-125q-24 -4 -52 -4q-30 0 -57.5 4.5t-62 20t-59 41.5t-41.5 74t-17 112z" />
<glyph unicode="m" horiz-adv-x="1875" d="M166 0v1030h137v-162q0 -20 -2 -40.5t-4 -31.5l-2 -10h4q39 107 149.5 188t229.5 81q140 0 217.5 -65t99.5 -193h4q46 105 151 181.5t228 76.5q181 0 261.5 -101t80.5 -299v-655h-139v621q0 55 -5 97.5t-19.5 83t-38.5 66.5t-64 42t-94 16q-100 0 -180.5 -63t-123 -160 t-42.5 -205v-498h-140v621q0 53 -3.5 92t-16.5 82t-36 69.5t-63.5 44t-97.5 17.5q-100 0 -182.5 -63.5t-126 -161t-43.5 -203.5v-498h-139z" />
<glyph unicode="n" horiz-adv-x="1216" d="M166 0v1030h137v-162q0 -20 -2 -40.5t-4 -31.5l-2 -10h4q13 31 35 64.5t59 71t82 66.5t108 48t132 19q185 0 265.5 -100.5t80.5 -299.5v-655h-139v618q0 54 -4 94.5t-18 82.5t-38 68.5t-66 43.5t-100 17q-165 0 -278 -120.5t-113 -299.5v-504h-139z" />
<glyph unicode="o" horiz-adv-x="1277" d="M96 520q0 150 72.5 273t197 192.5t273.5 69.5t274 -69.5t198 -192.5t73 -273q0 -114 -43 -216t-116.5 -173.5t-174 -113.5t-211.5 -42t-211.5 42t-173 113.5t-115.5 173.5t-43 216zM240 520q0 -180 115.5 -299t283.5 -119t284.5 119.5t116.5 298.5q0 174 -117 292 t-284 118t-283 -118t-116 -292z" />
<glyph unicode="p" horiz-adv-x="1206" d="M166 -410v1440h133v-108l-6 -80h4q47 100 142.5 156.5t215.5 56.5q207 0 328 -149t121 -390q0 -244 -129 -392.5t-332 -148.5q-109 0 -199 54t-141 151h-4q6 -37 6 -90v-500h-139zM301 512q0 -106 37 -198.5t113.5 -153t177.5 -60.5q142 0 238 112t96 302q0 188 -91 301 t-237 113q-67 0 -125.5 -24.5t-106 -73t-75 -130.5t-27.5 -188z" />
<glyph unicode="q" horiz-adv-x="1206" d="M100 516q0 243 129.5 391t335.5 148q109 0 201 -55.5t141 -151.5h4q-6 33 -6 78v104h135v-1440h-139v504q0 24 1.5 46.5t3.5 33.5l1 10h-4q-45 -87 -134 -148t-220 -61q-204 0 -326.5 150t-122.5 391zM244 516q0 -189 90.5 -302.5t236.5 -113.5q67 0 125 24.5t105 73.5 t74.5 131t27.5 189q0 108 -34.5 198.5t-110 151t-180.5 60.5q-142 0 -238 -111t-96 -301z" />
<glyph unicode="r" horiz-adv-x="731" d="M166 0v1030h137v-190q0 -20 -2 -40.5t-4 -31.5l-2 -10h4q40 123 127.5 202.5t202.5 79.5q31 0 55 -6v-137q-12 4 -51 4q-83 0 -148 -43t-103 -113t-57.5 -149t-19.5 -160v-436h-139z" />
<glyph unicode="s" horiz-adv-x="897" d="M76 125l74 98q58 -59 141.5 -92t169.5 -33q90 0 148.5 43.5t58.5 122.5q0 46 -30.5 81.5t-78.5 59.5t-106.5 46.5t-117.5 49t-107 59.5t-78.5 86t-30.5 122q0 135 100.5 211t249.5 76q198 0 317 -113l-65 -104q-43 43 -115 68.5t-143 25.5q-89 0 -148 -40t-59 -120 q0 -48 30.5 -84t79 -60.5t107 -46.5t117.5 -48t107.5 -59t79 -86t30.5 -122q0 -127 -98 -209t-250 -82q-108 0 -210 38t-173 112z" />
<glyph unicode="t" horiz-adv-x="665" d="M68 905v117h137v293h137v-293h260v-117h-260v-516q0 -68 17 -120t41.5 -80t58.5 -45t61 -22t55 -5q30 0 48 4v-125q-24 -4 -60 -4q-43 0 -83.5 6.5t-93.5 30t-91 62.5t-65 112.5t-27 171.5v530h-135z" />
<glyph unicode="u" horiz-adv-x="1204" d="M154 375v655h141v-618q0 -55 4 -95t17.5 -82t37 -68.5t65 -43.5t99.5 -17q114 0 202.5 61.5t133.5 159t45 210.5v493h139v-1030h-137v162q0 20 2 40.5t4 31.5l2 10h-4q-13 -32 -35.5 -66.5t-59 -71.5t-81 -65.5t-104.5 -47t-125 -18.5q-181 0 -263.5 98t-82.5 302z" />
<glyph unicode="v" horiz-adv-x="1046" d="M51 1030h150l284 -756q8 -23 16.5 -54t13.5 -50l5 -20h4q19 73 37 124l285 756h147l-393 -1030h-151z" />
<glyph unicode="w" horiz-adv-x="1689" d="M59 1030h150l248 -766l30 -110h5q16 59 32 110l252 762h139l252 -762l33 -110h4q13 57 31 110l248 766h147l-346 -1030h-154l-251 733l-31 113h-4q-17 -62 -33 -113l-250 -733h-153z" />
<glyph unicode="x" horiz-adv-x="980" d="M41 0l360 537l-331 493h163l222 -346l34 -59h5q18 32 34 59l222 346h161l-331 -493l362 -537h-164l-250 387l-34 57h-5q-16 -28 -34 -57l-252 -387h-162z" />
<glyph unicode="y" horiz-adv-x="1077" d="M39 -369l53 111q6 -5 17.5 -13t44 -21t61.5 -13q64 0 114 46t83 122l61 147l-428 1020h154l301 -751l39 -109h4q15 58 35 109l296 751h150l-508 -1245q-41 -100 -117.5 -157.5t-177.5 -57.5q-47 0 -92.5 15t-67.5 31z" />
<glyph unicode="z" horiz-adv-x="1019" d="M76 0v90l575 723q17 22 37.5 45.5t32.5 35.5l12 13v4q-34 -4 -102 -4h-531v123h822v-92l-576 -721q-17 -23 -38 -46.5t-34 -35.5l-12 -12v-4q35 4 103 4h577v-123h-866z" />
<glyph unicode="{" horiz-adv-x="696" d="M90 598v127q83 17 128.5 79t45.5 157v167q0 70 13 126.5t33 94t48.5 65.5t55.5 43t58.5 24t53.5 11.5t43 2.5h31v-115h-18q-20 0 -39.5 -3.5t-48.5 -18.5t-49.5 -40.5t-36 -75.5t-15.5 -118v-200q0 -87 -43.5 -157t-120.5 -103v-5q75 -29 119.5 -95.5t44.5 -164.5v-225 q0 -68 15.5 -118t36 -75.5t49.5 -40.5t48.5 -18.5t39.5 -3.5h18v-115q-13 -2 -31 -2q-32 0 -64 5t-78 27.5t-80 59.5t-58.5 109t-24.5 168v195q0 92 -44.5 154t-129.5 79z" />
<glyph unicode="|" horiz-adv-x="499" d="M184 -322v1936h129v-1936h-129z" />
<glyph unicode="}" horiz-adv-x="696" d="M96 -82h19q20 0 39 3.5t48 18.5t49.5 40.5t36 76t15.5 117.5v225q0 93 42.5 162t121.5 98v5q-71 28 -117.5 97.5t-46.5 162.5v200q0 67 -15.5 117.5t-36 76t-49.5 40.5t-48 18.5t-39 3.5h-19v115h31q21 0 43 -2.5t53.5 -11.5t58.5 -24t55.5 -43t48.5 -65.5t33 -94 t13 -126.5v-167q0 -93 44.5 -157t129.5 -79v-127q-83 -13 -128.5 -77.5t-45.5 -155.5v-195q0 -96 -24.5 -168t-58.5 -109t-80 -59.5t-78 -27.5t-64 -5l-31 2v115z" />
<glyph unicode="~" horiz-adv-x="1232" d="M152 428q0 162 68.5 239.5t189.5 77.5q62 0 111 -22t81 -53.5t61.5 -62.5t68.5 -53t87 -22q43 0 74 20.5t45.5 54.5t20.5 65.5t6 64.5h118q0 -161 -68.5 -239t-189.5 -78q-62 0 -111 22t-80.5 53t-61 62.5t-69 53.5t-87.5 22q-43 0 -73 -20.5t-44.5 -54t-20.5 -65.5 t-6 -65h-120z" />
<glyph unicode="&#xa2;" d="M117 721q0 231 113 389.5t317 181.5v172h115v-172q130 -15 226.5 -94.5t153.5 -208.5l-129 -49q-100 219 -305 219q-115 0 -195 -59t-116.5 -156t-36.5 -223q0 -197 88.5 -318.5t259.5 -121.5q205 0 305 219l129 -49q-58 -128 -153.5 -210.5t-226.5 -93.5v-174h-115v174 q-204 23 -317 182t-113 392z" />
<glyph unicode="&#xa3;" d="M100 0v127h129v541h-90v112h90v305q0 162 119.5 270.5t302.5 108.5q88 0 172.5 -30.5t149.5 -85.5l-88 -103q-43 37 -108 61.5t-124 24.5q-130 0 -205 -73t-75 -181v-297h391v-112h-391v-541h694v-127h-967z" />
<glyph unicode="&#xa5;" d="M35 1440h162l295 -512q19 -36 41 -82t35 -74l12 -27h4q43 101 88 183l295 512h161l-360 -619h215v-104h-272l-58 -99v-81h330v-105h-330v-432h-143v432h-334v105h334v81l-57 99h-277v104h219z" />
<glyph unicode="&#xa8;" horiz-adv-x="1032" d="M299 1608v176h125v-176h-125zM608 1608v176h127v-176h-127z" />
<glyph unicode="&#xa9;" horiz-adv-x="1697" d="M123 721q0 152 57.5 290t154 237t230.5 157.5t281 58.5q150 0 285.5 -58.5t233 -157.5t155 -236.5t57.5 -290.5t-57.5 -291.5t-155 -238t-233 -158t-285.5 -58.5q-197 0 -363 99t-263 271t-97 376zM242 721q0 -176 79.5 -322t218.5 -229.5t306 -83.5q170 0 310.5 83.5 t221 229.5t80.5 322q0 175 -80 320t-221 229t-311 84q-167 0 -306 -84t-218.5 -229.5t-79.5 -319.5zM444 717q0 111 48 205.5t146 155.5t228 61q102 0 191.5 -52t142.5 -139l-94 -63q-37 60 -101.5 100.5t-134.5 40.5q-142 0 -223.5 -90.5t-81.5 -216.5q0 -127 81 -217 t224 -90q70 0 133.5 39t102.5 102l94 -64q-48 -80 -140 -135t-194 -55q-131 0 -229 60.5t-145.5 154t-47.5 203.5z" />
<glyph unicode="&#xab;" horiz-adv-x="1077" d="M102 578l336 421h152l-336 -421l336 -420h-152zM471 578l336 421h151l-335 -421l335 -420h-151z" />
<glyph unicode="&#xad;" horiz-adv-x="884" d="M152 518v127h581v-127h-581z" />
<glyph unicode="&#xae;" horiz-adv-x="1697" d="M123 721q0 152 57.5 290t154 237t230.5 157.5t281 58.5q150 0 285.5 -58.5t233 -157.5t155 -236.5t57.5 -290.5t-57.5 -291.5t-155 -238t-233 -158t-285.5 -58.5q-197 0 -363 99t-263 271t-97 376zM242 721q0 -176 79.5 -322t218.5 -229.5t306 -83.5q170 0 310.5 83.5 t221 229.5t80.5 322q0 175 -80 320t-221 229t-311 84q-167 0 -306 -84t-218.5 -229.5t-79.5 -319.5zM602 322v798h285q108 0 174.5 -65t66.5 -172q0 -84 -44.5 -140t-106.5 -71v-4q9 -10 27 -45l155 -301h-129l-158 323h-153v-323h-117zM719 735h149q65 0 103.5 40.5 t38.5 107.5t-38.5 104t-103.5 37h-149v-289z" />
<glyph unicode="&#xb4;" horiz-adv-x="1032" d="M365 1540l141 244h162l-179 -244h-124z" />
<glyph unicode="&#xb8;" horiz-adv-x="1032" d="M367 -311q33 -13 86 -13q104 0 104 70q0 33 -31 51.5t-86 18.5l-30 -2l53 227l82 -14v-17l-23 -123q65 -9 104.5 -47t39.5 -98q0 -83 -56.5 -122.5t-140.5 -39.5q-61 0 -102 10v99z" />
<glyph unicode="&#xbb;" horiz-adv-x="1077" d="M119 158l336 420l-336 421h151l336 -421l-336 -420h-151zM485 158l336 420l-336 421h152l336 -421l-336 -420h-152z" />
<glyph unicode="&#x2c6;" horiz-adv-x="1032" d="M268 1540l170 244h154l172 -244h-135l-111 164h-4l-111 -164h-135z" />
<glyph unicode="&#x2da;" horiz-adv-x="1034" d="M362 1663q0 63 45 104t111 41q63 0 108.5 -41t45.5 -104t-45.5 -103t-108.5 -40q-66 0 -111 40t-45 103zM451 1663q0 -30 18.5 -49t48.5 -19q29 0 47.5 19.5t18.5 48.5q0 31 -18.5 50.5t-47.5 19.5q-30 0 -48.5 -19.5t-18.5 -50.5z" />
<glyph unicode="&#x2dc;" horiz-adv-x="1032" d="M197 1546q0 238 188 238q46 0 85 -23t61 -50t52 -50t60 -23q24 0 41 14t25.5 37t12 45t3.5 44h111q0 -238 -189 -238q-46 0 -85 23t-61 50t-52 50t-60 23q-24 0 -41 -14t-25 -37t-11 -44.5t-3 -44.5h-112z" />
<glyph unicode="&#x2000;" horiz-adv-x="904" />
<glyph unicode="&#x2001;" horiz-adv-x="1808" />
<glyph unicode="&#x2002;" horiz-adv-x="904" />
<glyph unicode="&#x2003;" horiz-adv-x="1808" />
<glyph unicode="&#x2004;" horiz-adv-x="602" />
<glyph unicode="&#x2005;" horiz-adv-x="452" />
<glyph unicode="&#x2006;" horiz-adv-x="301" />
<glyph unicode="&#x2007;" horiz-adv-x="301" />
<glyph unicode="&#x2008;" horiz-adv-x="226" />
<glyph unicode="&#x2009;" horiz-adv-x="361" />
<glyph unicode="&#x200a;" horiz-adv-x="100" />
<glyph unicode="&#x2010;" horiz-adv-x="884" d="M152 518v127h581v-127h-581z" />
<glyph unicode="&#x2011;" horiz-adv-x="884" d="M152 518v127h581v-127h-581z" />
<glyph unicode="&#x2012;" horiz-adv-x="884" d="M152 518v127h581v-127h-581z" />
<glyph unicode="&#x2013;" horiz-adv-x="1329" d="M154 522v119h1024v-119h-1024z" />
<glyph unicode="&#x2014;" horiz-adv-x="1738" d="M154 522v119h1433v-119h-1433z" />
<glyph unicode="&#x2018;" horiz-adv-x="487" d="M137 1108l117 350h111l-80 -350h-148z" />
<glyph unicode="&#x2019;" horiz-adv-x="479" d="M143 1108l80 350h148l-115 -350h-113z" />
<glyph unicode="&#x201a;" horiz-adv-x="512" d="M121 -184l80 352h143l-115 -352h-108z" />
<glyph unicode="&#x201c;" horiz-adv-x="733" d="M137 1108l117 350h111l-80 -350h-148zM383 1108l115 350h112l-80 -350h-147z" />
<glyph unicode="&#x201d;" horiz-adv-x="722" d="M143 1108l80 350h148l-115 -350h-113zM389 1108l78 350h147l-114 -350h-111z" />
<glyph unicode="&#x201e;" horiz-adv-x="755" d="M121 -184l80 352h143l-115 -352h-108zM362 -184l80 352h146l-115 -352h-111z" />
<glyph unicode="&#x2022;" horiz-adv-x="940" d="M178 596q0 122 86 207.5t207 85.5t206 -85.5t85 -207.5t-85 -207.5t-206 -85.5t-207 85.5t-86 207.5z" />
<glyph unicode="&#x2026;" horiz-adv-x="1431" d="M152 0v170h163v-170h-163zM633 0v170h164v-170h-164zM1114 0v170h166v-170h-166z" />
<glyph unicode="&#x202f;" horiz-adv-x="361" />
<glyph unicode="&#x2039;" horiz-adv-x="708" d="M102 578l336 421h152l-336 -421l336 -420h-152z" />
<glyph unicode="&#x203a;" horiz-adv-x="708" d="M119 158l336 420l-336 421h151l336 -421l-336 -420h-151z" />
<glyph unicode="&#x205f;" horiz-adv-x="452" />
<glyph unicode="&#x20ac;" d="M55 545v104h111q-5 27 -4.5 78.5t6.5 87.5h-113v105h131q61 241 249.5 392.5t438.5 151.5q99 0 193 -24l-33 -133q-74 22 -162 22q-195 0 -338 -111.5t-196 -297.5h627l-23 -105h-627q-12 -77 -2 -166h598l-18 -104h-557q46 -194 192.5 -313t345.5 -119q104 0 183 26 l33 -133q-98 -31 -216 -31q-260 0 -448.5 158.5t-243.5 411.5h-127z" />
<glyph unicode="&#x2122;" horiz-adv-x="2007" d="M131 1333v107h756v-107h-322v-790h-114v790h-320zM963 543l71 897h105l237 -514l29 -84h4q11 45 27 84l237 514h105l71 -897h-114l-49 608l2 59h-5l-229 -499h-96l-230 499h-4l2 -59l-49 -608h-114z" />
<glyph unicode="&#x25fc;" horiz-adv-x="1034" d="M0 0v1034h1034v-1034h-1034z" />
<hkern u1="&#x20;" u2="v" k="53" />
<hkern u1="&#x20;" u2="X" k="20" />
<hkern u1="&#x20;" u2="V" k="66" />
<hkern u1="&#x23;" u2="&#x37;" k="33" />
<hkern u1="&#x23;" u2="&#x33;" k="35" />
<hkern u1="&#x26;" u2="X" k="43" />
<hkern u1="&#x26;" u2="V" k="29" />
<hkern u1="&#x28;" u2="&#x7b;" k="35" />
<hkern u1="&#x28;" u2="v" k="33" />
<hkern u1="&#x28;" u2="j" k="-23" />
<hkern u1="&#x28;" u2="&#x38;" k="23" />
<hkern u1="&#x28;" u2="&#x36;" k="35" />
<hkern u1="&#x28;" u2="&#x34;" k="37" />
<hkern u1="&#x28;" u2="&#x30;" k="27" />
<hkern u1="&#x2a;" u2="v" k="-10" />
<hkern u1="&#x2f;" u2="&#x36;" k="20" />
<hkern u1="&#x2f;" u2="&#x34;" k="55" />
<hkern u1="&#x2f;" u2="&#x2f;" k="238" />
<hkern u1="&#x30;" u2="&#x7d;" k="27" />
<hkern u1="&#x30;" u2="V" k="20" />
<hkern u1="&#x30;" u2="&#x29;" k="27" />
<hkern u1="&#x31;" u2="\" k="57" />
<hkern u1="&#x31;" u2="V" k="63" />
<hkern u1="&#x31;" u2="&#x34;" k="35" />
<hkern u1="&#x31;" u2="&#x23;" k="27" />
<hkern u1="&#x32;" u2="&#x34;" k="37" />
<hkern u1="&#x34;" u2="&#x7d;" k="20" />
<hkern u1="&#x34;" u2="\" k="20" />
<hkern u1="&#x34;" u2="V" k="31" />
<hkern u1="&#x34;" u2="&#x29;" k="23" />
<hkern u1="&#x37;" u2="&#x36;" k="23" />
<hkern u1="&#x37;" u2="&#x34;" k="80" />
<hkern u1="&#x37;" u2="&#x2f;" k="84" />
<hkern u1="&#x37;" u2="&#x23;" k="35" />
<hkern u1="&#x39;" u2="&#x7d;" k="35" />
<hkern u1="&#x39;" u2="V" k="20" />
<hkern u1="&#x39;" u2="&#x2f;" k="20" />
<hkern u1="&#x39;" u2="&#x29;" k="33" />
<hkern u1="&#x40;" u2="V" k="61" />
<hkern u1="B" u2="&#x2122;" k="20" />
<hkern u1="B" u2="&#x7d;" k="25" />
<hkern u1="B" u2="x" k="20" />
<hkern u1="B" u2="v" k="16" />
<hkern u1="B" u2="X" k="14" />
<hkern u1="B" u2="V" k="25" />
<hkern u1="B" u2="&#x37;" k="25" />
<hkern u1="B" u2="&#x29;" k="20" />
<hkern u1="F" u2="x" k="53" />
<hkern u1="F" u2="v" k="29" />
<hkern u1="F" u2="&#x2f;" k="45" />
<hkern u1="F" u2="&#x20;" k="43" />
<hkern u1="M" u2="v" k="20" />
<hkern u1="M" u2="V" k="16" />
<hkern u1="P" u2="X" k="25" />
<hkern u1="P" u2="&#x34;" k="33" />
<hkern u1="P" u2="&#x2f;" k="51" />
<hkern u1="P" u2="&#x20;" k="53" />
<hkern u1="V" u2="&#x2122;" k="-10" />
<hkern u1="V" u2="&#xae;" k="27" />
<hkern u1="V" u2="&#xa9;" k="27" />
<hkern u1="V" u2="x" k="35" />
<hkern u1="V" u2="v" k="20" />
<hkern u1="V" u2="M" k="16" />
<hkern u1="V" u2="&#x40;" k="57" />
<hkern u1="V" u2="&#x38;" k="20" />
<hkern u1="V" u2="&#x36;" k="27" />
<hkern u1="V" u2="&#x34;" k="66" />
<hkern u1="V" u2="&#x30;" k="20" />
<hkern u1="V" u2="&#x2f;" k="78" />
<hkern u1="V" u2="&#x26;" k="20" />
<hkern u1="V" u2="&#x20;" k="66" />
<hkern u1="X" u2="&#xae;" k="27" />
<hkern u1="X" u2="&#xa9;" k="27" />
<hkern u1="X" u2="v" k="72" />
<hkern u1="X" u2="&#x20;" k="20" />
<hkern u1="[" u2="j" k="-18" />
<hkern u1="[" u2="&#x36;" k="20" />
<hkern u1="[" u2="&#x34;" k="20" />
<hkern u1="\" u2="v" k="43" />
<hkern u1="\" u2="V" k="78" />
<hkern u1="v" u2="&#x2122;" k="37" />
<hkern u1="v" u2="&#x7d;" k="37" />
<hkern u1="v" u2="X" k="74" />
<hkern u1="v" u2="V" k="20" />
<hkern u1="v" u2="M" k="20" />
<hkern u1="v" u2="&#x2f;" k="43" />
<hkern u1="v" u2="&#x29;" k="33" />
<hkern u1="v" u2="&#x20;" k="53" />
<hkern u1="x" u2="&#x2122;" k="39" />
<hkern u1="x" u2="V" k="35" />
<hkern u1="&#x7b;" u2="&#x7b;" k="33" />
<hkern u1="&#x7b;" u2="v" k="37" />
<hkern u1="&#x7b;" u2="j" k="-20" />
<hkern u1="&#x7b;" u2="&#x38;" k="20" />
<hkern u1="&#x7b;" u2="&#x36;" k="39" />
<hkern u1="&#x7b;" u2="&#x34;" k="39" />
<hkern u1="&#x7b;" u2="&#x30;" k="27" />
<hkern u1="&#x7d;" u2="&#x7d;" k="33" />
<hkern u1="&#x7d;" u2="&#x29;" k="35" />
<hkern g1="ampersand" 	g2="quotedbl,quotesingle" 	k="49" />
<hkern g1="ampersand" 	g2="A" 	k="35" />
<hkern g1="ampersand" 	g2="T" 	k="94" />
<hkern g1="ampersand" 	g2="Y" 	k="70" />
<hkern g1="ampersand" 	g2="quoteright,quotedblright" 	k="45" />
<hkern g1="ampersand" 	g2="Z" 	k="43" />
<hkern g1="quotedbl,quotesingle" 	g2="A" 	k="104" />
<hkern g1="quotedbl,quotesingle" 	g2="J" 	k="61" />
<hkern g1="quotedbl,quotesingle" 	g2="space" 	k="49" />
<hkern g1="quotedbl,quotesingle" 	g2="comma,period,quotesinglbase,quotedblbase,ellipsis" 	k="274" />
<hkern g1="quotedbl,quotesingle" 	g2="slash" 	k="90" />
<hkern g1="quotedbl,quotesingle" 	g2="four" 	k="119" />
<hkern g1="quotedbl,quotesingle" 	g2="at" 	k="61" />
<hkern g1="quotedbl,quotesingle" 	g2="d,g,q" 	k="63" />
<hkern g1="quotedbl,quotesingle" 	g2="e" 	k="33" />
<hkern g1="quotedbl,quotesingle" 	g2="c,o" 	k="37" />
<hkern g1="quotedbl,quotesingle" 	g2="guillemotleft,guilsinglleft" 	k="47" />
<hkern g1="asterisk" 	g2="A" 	k="78" />
<hkern g1="asterisk" 	g2="J" 	k="68" />
<hkern g1="asterisk" 	g2="y" 	k="-14" />
<hkern g1="asterisk" 	g2="d,g,q" 	k="23" />
<hkern g1="asterisk" 	g2="e" 	k="16" />
<hkern g1="asterisk" 	g2="c,o" 	k="18" />
<hkern g1="asterisk" 	g2="a" 	k="18" />
<hkern g1="hyphen,endash,emdash" 	g2="A" 	k="20" />
<hkern g1="hyphen,endash,emdash" 	g2="T" 	k="131" />
<hkern g1="hyphen,endash,emdash" 	g2="W" 	k="35" />
<hkern g1="hyphen,endash,emdash" 	g2="Y" 	k="133" />
<hkern g1="hyphen,endash,emdash" 	g2="w" 	k="23" />
<hkern g1="hyphen,endash,emdash" 	g2="y" 	k="33" />
<hkern g1="hyphen,endash,emdash" 	g2="Z" 	k="39" />
<hkern g1="hyphen,endash,emdash" 	g2="one" 	k="47" />
<hkern g1="hyphen,endash,emdash" 	g2="two" 	k="35" />
<hkern g1="hyphen,endash,emdash" 	g2="three" 	k="37" />
<hkern g1="hyphen,endash,emdash" 	g2="seven" 	k="82" />
<hkern g1="hyphen,endash,emdash" 	g2="S" 	k="25" />
<hkern g1="hyphen,endash,emdash" 	g2="V" 	k="61" />
<hkern g1="hyphen,endash,emdash" 	g2="X" 	k="49" />
<hkern g1="hyphen,endash,emdash" 	g2="v" 	k="29" />
<hkern g1="hyphen,endash,emdash" 	g2="x" 	k="51" />
<hkern g1="hyphen,endash,emdash" 	g2="z" 	k="57" />
<hkern g1="comma,period,quotesinglbase,quotedblbase" 	g2="quotedbl,quotesingle" 	k="274" />
<hkern g1="comma,period,quotesinglbase,quotedblbase" 	g2="T" 	k="129" />
<hkern g1="comma,period,quotesinglbase,quotedblbase" 	g2="W" 	k="76" />
<hkern g1="comma,period,quotesinglbase,quotedblbase" 	g2="Y" 	k="137" />
<hkern g1="comma,period,quotesinglbase,quotedblbase" 	g2="t" 	k="25" />
<hkern g1="comma,period,quotesinglbase,quotedblbase" 	g2="w" 	k="66" />
<hkern g1="comma,period,quotesinglbase,quotedblbase" 	g2="y" 	k="88" />
<hkern g1="comma,period,quotesinglbase,quotedblbase" 	g2="quoteright,quotedblright" 	k="270" />
<hkern g1="comma,period,quotesinglbase,quotedblbase" 	g2="V" 	k="121" />
<hkern g1="comma,period,quotesinglbase,quotedblbase" 	g2="v" 	k="80" />
<hkern g1="comma,period,quotesinglbase,quotedblbase" 	g2="C,G" 	k="41" />
<hkern g1="comma,period,quotesinglbase,quotedblbase" 	g2="O,Q" 	k="43" />
<hkern g1="comma,period,quotesinglbase,quotedblbase" 	g2="U" 	k="23" />
<hkern g1="comma,period,quotesinglbase,quotedblbase" 	g2="quoteleft,quotedblleft" 	k="268" />
<hkern g1="slash" 	g2="A" 	k="76" />
<hkern g1="slash" 	g2="J" 	k="39" />
<hkern g1="slash" 	g2="d,g,q" 	k="53" />
<hkern g1="slash" 	g2="e" 	k="55" />
<hkern g1="slash" 	g2="c,o" 	k="55" />
<hkern g1="slash" 	g2="a" 	k="43" />
<hkern g1="slash" 	g2="m,n,p,r" 	k="29" />
<hkern g1="slash" 	g2="s" 	k="43" />
<hkern g1="slash" 	g2="u" 	k="27" />
<hkern g1="colon,semicolon" 	g2="T" 	k="92" />
<hkern g1="colon,semicolon" 	g2="Y" 	k="43" />
<hkern g1="at" 	g2="quotedbl,quotesingle" 	k="43" />
<hkern g1="at" 	g2="T" 	k="96" />
<hkern g1="at" 	g2="W" 	k="43" />
<hkern g1="at" 	g2="Y" 	k="94" />
<hkern g1="at" 	g2="quoteright,quotedblright" 	k="39" />
<hkern g1="backslash" 	g2="quotedbl,quotesingle" 	k="90" />
<hkern g1="backslash" 	g2="T" 	k="78" />
<hkern g1="backslash" 	g2="W" 	k="55" />
<hkern g1="backslash" 	g2="Y" 	k="98" />
<hkern g1="backslash" 	g2="t" 	k="20" />
<hkern g1="backslash" 	g2="w" 	k="39" />
<hkern g1="backslash" 	g2="y" 	k="43" />
<hkern g1="backslash" 	g2="quoteright,quotedblright" 	k="90" />
<hkern g1="backslash" 	g2="C,G" 	k="20" />
<hkern g1="backslash" 	g2="O,Q" 	k="20" />
<hkern g1="quoteleft,quotedblleft" 	g2="A" 	k="111" />
<hkern g1="quoteleft,quotedblleft" 	g2="J" 	k="61" />
<hkern g1="quoteleft,quotedblleft" 	g2="comma,period,quotesinglbase,quotedblbase,ellipsis" 	k="283" />
<hkern g1="quoteleft,quotedblleft" 	g2="d,g,q" 	k="70" />
<hkern g1="quoteleft,quotedblleft" 	g2="e" 	k="39" />
<hkern g1="quoteleft,quotedblleft" 	g2="c,o" 	k="41" />
<hkern g1="quoteleft,quotedblleft" 	g2="a" 	k="16" />
<hkern g1="quoteleft,quotedblleft" 	g2="C,G" 	k="18" />
<hkern g1="quoteleft,quotedblleft" 	g2="O,Q" 	k="20" />
<hkern g1="quoteleft,quotedblleft" 	g2="s" 	k="20" />
<hkern g1="quoteright,quotedblright" 	g2="A" 	k="115" />
<hkern g1="quoteright,quotedblright" 	g2="J" 	k="59" />
<hkern g1="quoteright,quotedblright" 	g2="space" 	k="61" />
<hkern g1="quoteright,quotedblright" 	g2="comma,period,quotesinglbase,quotedblbase,ellipsis" 	k="287" />
<hkern g1="quoteright,quotedblright" 	g2="slash" 	k="98" />
<hkern g1="quoteright,quotedblright" 	g2="at" 	k="78" />
<hkern g1="quoteright,quotedblright" 	g2="d,g,q" 	k="74" />
<hkern g1="quoteright,quotedblright" 	g2="e" 	k="43" />
<hkern g1="quoteright,quotedblright" 	g2="c,o" 	k="47" />
<hkern g1="quoteright,quotedblright" 	g2="guillemotleft,guilsinglleft" 	k="63" />
<hkern g1="quoteright,quotedblright" 	g2="a" 	k="20" />
<hkern g1="quoteright,quotedblright" 	g2="C,G" 	k="23" />
<hkern g1="quoteright,quotedblright" 	g2="O,Q" 	k="25" />
<hkern g1="quoteright,quotedblright" 	g2="s" 	k="25" />
<hkern g1="guillemotleft,guilsinglleft" 	g2="T" 	k="121" />
<hkern g1="guillemotleft,guilsinglleft" 	g2="Y" 	k="55" />
<hkern g1="guillemotleft,guilsinglleft" 	g2="V" 	k="20" />
<hkern g1="guillemotright,guilsinglright" 	g2="quotedbl,quotesingle" 	k="47" />
<hkern g1="guillemotright,guilsinglright" 	g2="A" 	k="31" />
<hkern g1="guillemotright,guilsinglright" 	g2="T" 	k="145" />
<hkern g1="guillemotright,guilsinglright" 	g2="W" 	k="45" />
<hkern g1="guillemotright,guilsinglright" 	g2="Y" 	k="121" />
<hkern g1="guillemotright,guilsinglright" 	g2="w" 	k="27" />
<hkern g1="guillemotright,guilsinglright" 	g2="y" 	k="37" />
<hkern g1="guillemotright,guilsinglright" 	g2="quoteright,quotedblright" 	k="41" />
<hkern g1="guillemotright,guilsinglright" 	g2="Z" 	k="31" />
<hkern g1="guillemotright,guilsinglright" 	g2="S" 	k="25" />
<hkern g1="guillemotright,guilsinglright" 	g2="V" 	k="70" />
<hkern g1="guillemotright,guilsinglright" 	g2="X" 	k="45" />
<hkern g1="guillemotright,guilsinglright" 	g2="v" 	k="33" />
<hkern g1="guillemotright,guilsinglright" 	g2="x" 	k="49" />
<hkern g1="guillemotright,guilsinglright" 	g2="z" 	k="45" />
<hkern g1="parenleft" 	g2="t" 	k="25" />
<hkern g1="parenleft" 	g2="w" 	k="33" />
<hkern g1="parenleft" 	g2="y" 	k="25" />
<hkern g1="parenleft" 	g2="d,g,q" 	k="43" />
<hkern g1="parenleft" 	g2="e" 	k="45" />
<hkern g1="parenleft" 	g2="c,o" 	k="45" />
<hkern g1="parenleft" 	g2="a" 	k="25" />
<hkern g1="parenleft" 	g2="C,G" 	k="37" />
<hkern g1="parenleft" 	g2="O,Q" 	k="37" />
<hkern g1="parenleft" 	g2="m,n,p,r" 	k="20" />
<hkern g1="parenleft" 	g2="u" 	k="33" />
<hkern g1="parenleft" 	g2="f" 	k="23" />
<hkern g1="bracketleft" 	g2="d,g,q" 	k="27" />
<hkern g1="bracketleft" 	g2="e" 	k="27" />
<hkern g1="bracketleft" 	g2="c,o" 	k="29" />
<hkern g1="bracketleft" 	g2="C,G" 	k="23" />
<hkern g1="bracketleft" 	g2="O,Q" 	k="23" />
<hkern g1="bracketleft" 	g2="u" 	k="23" />
<hkern g1="braceleft" 	g2="J" 	k="20" />
<hkern g1="braceleft" 	g2="t" 	k="20" />
<hkern g1="braceleft" 	g2="w" 	k="35" />
<hkern g1="braceleft" 	g2="y" 	k="31" />
<hkern g1="braceleft" 	g2="d,g,q" 	k="43" />
<hkern g1="braceleft" 	g2="e" 	k="45" />
<hkern g1="braceleft" 	g2="c,o" 	k="45" />
<hkern g1="braceleft" 	g2="a" 	k="29" />
<hkern g1="braceleft" 	g2="C,G" 	k="39" />
<hkern g1="braceleft" 	g2="O,Q" 	k="39" />
<hkern g1="braceleft" 	g2="m,n,p,r" 	k="23" />
<hkern g1="braceleft" 	g2="s" 	k="27" />
<hkern g1="braceleft" 	g2="u" 	k="33" />
<hkern g1="braceleft" 	g2="f" 	k="20" />
<hkern g1="A" 	g2="quotedbl,quotesingle" 	k="104" />
<hkern g1="A" 	g2="T" 	k="125" />
<hkern g1="A" 	g2="W" 	k="57" />
<hkern g1="A" 	g2="Y" 	k="111" />
<hkern g1="A" 	g2="t" 	k="43" />
<hkern g1="A" 	g2="w" 	k="43" />
<hkern g1="A" 	g2="y" 	k="55" />
<hkern g1="A" 	g2="quoteright,quotedblright" 	k="100" />
<hkern g1="A" 	g2="space" 	k="61" />
<hkern g1="A" 	g2="d,g,q" 	k="20" />
<hkern g1="A" 	g2="e" 	k="23" />
<hkern g1="A" 	g2="c,o" 	k="25" />
<hkern g1="A" 	g2="guillemotleft,guilsinglleft" 	k="31" />
<hkern g1="A" 	g2="seven" 	k="20" />
<hkern g1="A" 	g2="V" 	k="76" />
<hkern g1="A" 	g2="v" 	k="49" />
<hkern g1="A" 	g2="C,G" 	k="35" />
<hkern g1="A" 	g2="O,Q" 	k="35" />
<hkern g1="A" 	g2="U" 	k="25" />
<hkern g1="A" 	g2="quoteleft,quotedblleft" 	k="98" />
<hkern g1="A" 	g2="u" 	k="14" />
<hkern g1="A" 	g2="l" 	k="10" />
<hkern g1="A" 	g2="f" 	k="20" />
<hkern g1="A" 	g2="asterisk" 	k="78" />
<hkern g1="A" 	g2="hyphen,endash,emdash" 	k="20" />
<hkern g1="A" 	g2="zero" 	k="23" />
<hkern g1="A" 	g2="six" 	k="23" />
<hkern g1="A" 	g2="question" 	k="35" />
<hkern g1="A" 	g2="backslash" 	k="76" />
<hkern g1="A" 	g2="copyright" 	k="29" />
<hkern g1="A" 	g2="registered" 	k="29" />
<hkern g1="A" 	g2="trademark" 	k="102" />
<hkern g1="B" 	g2="A" 	k="18" />
<hkern g1="B" 	g2="T" 	k="55" />
<hkern g1="B" 	g2="W" 	k="16" />
<hkern g1="B" 	g2="Y" 	k="49" />
<hkern g1="B" 	g2="t" 	k="14" />
<hkern g1="B" 	g2="w" 	k="16" />
<hkern g1="B" 	g2="y" 	k="18" />
<hkern g1="B" 	g2="z" 	k="12" />
<hkern g1="B" 	g2="m,n,p,r" 	k="10" />
<hkern g1="B" 	g2="s" 	k="16" />
<hkern g1="B" 	g2="u" 	k="10" />
<hkern g1="B" 	g2="f" 	k="16" />
<hkern g1="B" 	g2="i,j" 	k="10" />
<hkern g1="C" 	g2="t" 	k="14" />
<hkern g1="C" 	g2="w" 	k="35" />
<hkern g1="C" 	g2="y" 	k="41" />
<hkern g1="C" 	g2="d,g,q" 	k="16" />
<hkern g1="C" 	g2="e" 	k="18" />
<hkern g1="C" 	g2="c,o" 	k="20" />
<hkern g1="C" 	g2="guillemotleft,guilsinglleft" 	k="27" />
<hkern g1="C" 	g2="v" 	k="37" />
<hkern g1="C" 	g2="C,G" 	k="37" />
<hkern g1="C" 	g2="O,Q" 	k="39" />
<hkern g1="C" 	g2="m,n,p,r" 	k="10" />
<hkern g1="C" 	g2="u" 	k="14" />
<hkern g1="C" 	g2="f" 	k="16" />
<hkern g1="C" 	g2="hyphen,endash,emdash" 	k="29" />
<hkern g1="D" 	g2="A" 	k="35" />
<hkern g1="D" 	g2="T" 	k="74" />
<hkern g1="D" 	g2="W" 	k="20" />
<hkern g1="D" 	g2="Y" 	k="72" />
<hkern g1="D" 	g2="Z" 	k="31" />
<hkern g1="D" 	g2="comma,period,quotesinglbase,quotedblbase,ellipsis" 	k="35" />
<hkern g1="D" 	g2="a" 	k="14" />
<hkern g1="D" 	g2="seven" 	k="35" />
<hkern g1="D" 	g2="V" 	k="33" />
<hkern g1="D" 	g2="X" 	k="39" />
<hkern g1="D" 	g2="x" 	k="20" />
<hkern g1="D" 	g2="z" 	k="10" />
<hkern g1="D" 	g2="m,n,p,r" 	k="12" />
<hkern g1="D" 	g2="s" 	k="10" />
<hkern g1="D" 	g2="u" 	k="10" />
<hkern g1="D" 	g2="b,h,k" 	k="10" />
<hkern g1="D" 	g2="i,j" 	k="10" />
<hkern g1="D" 	g2="question" 	k="27" />
<hkern g1="D" 	g2="trademark" 	k="37" />
<hkern g1="D" 	g2="parenright" 	k="37" />
<hkern g1="D" 	g2="bracketright" 	k="20" />
<hkern g1="D" 	g2="braceright" 	k="39" />
<hkern g1="E" 	g2="J" 	k="12" />
<hkern g1="E" 	g2="t" 	k="27" />
<hkern g1="E" 	g2="w" 	k="45" />
<hkern g1="E" 	g2="y" 	k="51" />
<hkern g1="E" 	g2="four" 	k="31" />
<hkern g1="E" 	g2="d,g,q" 	k="25" />
<hkern g1="E" 	g2="e" 	k="29" />
<hkern g1="E" 	g2="c,o" 	k="31" />
<hkern g1="E" 	g2="guillemotleft,guilsinglleft" 	k="27" />
<hkern g1="E" 	g2="v" 	k="49" />
<hkern g1="E" 	g2="C,G" 	k="29" />
<hkern g1="E" 	g2="O,Q" 	k="31" />
<hkern g1="E" 	g2="m,n,p,r" 	k="12" />
<hkern g1="E" 	g2="u" 	k="25" />
<hkern g1="E" 	g2="f" 	k="25" />
<hkern g1="E" 	g2="hyphen,endash,emdash" 	k="31" />
<hkern g1="F" 	g2="A" 	k="78" />
<hkern g1="F" 	g2="J" 	k="72" />
<hkern g1="F" 	g2="t" 	k="14" />
<hkern g1="F" 	g2="w" 	k="29" />
<hkern g1="F" 	g2="y" 	k="29" />
<hkern g1="F" 	g2="comma,period,quotesinglbase,quotedblbase,ellipsis" 	k="145" />
<hkern g1="F" 	g2="d,g,q" 	k="41" />
<hkern g1="F" 	g2="e" 	k="41" />
<hkern g1="F" 	g2="c,o" 	k="41" />
<hkern g1="F" 	g2="a" 	k="80" />
<hkern g1="F" 	g2="S" 	k="29" />
<hkern g1="F" 	g2="z" 	k="41" />
<hkern g1="F" 	g2="C,G" 	k="23" />
<hkern g1="F" 	g2="O,Q" 	k="23" />
<hkern g1="F" 	g2="m,n,p,r" 	k="47" />
<hkern g1="F" 	g2="s" 	k="49" />
<hkern g1="F" 	g2="u" 	k="41" />
<hkern g1="F" 	g2="f" 	k="25" />
<hkern g1="G" 	g2="T" 	k="23" />
<hkern g1="G" 	g2="W" 	k="16" />
<hkern g1="G" 	g2="Y" 	k="43" />
<hkern g1="G" 	g2="t" 	k="14" />
<hkern g1="G" 	g2="w" 	k="25" />
<hkern g1="G" 	g2="y" 	k="33" />
<hkern g1="G" 	g2="V" 	k="25" />
<hkern g1="G" 	g2="v" 	k="29" />
<hkern g1="G" 	g2="f" 	k="14" />
<hkern g1="H,I,N" 	g2="t" 	k="10" />
<hkern g1="H,I,N" 	g2="d,g,q" 	k="16" />
<hkern g1="H,I,N" 	g2="e" 	k="18" />
<hkern g1="H,I,N" 	g2="c,o" 	k="20" />
<hkern g1="H,I,N" 	g2="a" 	k="14" />
<hkern g1="H,I,N" 	g2="z" 	k="10" />
<hkern g1="H,I,N" 	g2="m,n,p,r" 	k="12" />
<hkern g1="H,I,N" 	g2="s" 	k="14" />
<hkern g1="H,I,N" 	g2="u" 	k="12" />
<hkern g1="H,I,N" 	g2="l" 	k="10" />
<hkern g1="H,I,N" 	g2="f" 	k="16" />
<hkern g1="H,I,N" 	g2="b,h,k" 	k="12" />
<hkern g1="H,I,N" 	g2="i,j" 	k="10" />
<hkern g1="J" 	g2="A" 	k="12" />
<hkern g1="J" 	g2="d,g,q" 	k="18" />
<hkern g1="J" 	g2="e" 	k="18" />
<hkern g1="J" 	g2="c,o" 	k="20" />
<hkern g1="J" 	g2="a" 	k="16" />
<hkern g1="J" 	g2="x" 	k="14" />
<hkern g1="J" 	g2="z" 	k="14" />
<hkern g1="J" 	g2="m,n,p,r" 	k="12" />
<hkern g1="J" 	g2="s" 	k="20" />
<hkern g1="J" 	g2="u" 	k="14" />
<hkern g1="J" 	g2="l" 	k="10" />
<hkern g1="J" 	g2="f" 	k="14" />
<hkern g1="J" 	g2="b,h,k" 	k="10" />
<hkern g1="J" 	g2="i,j" 	k="10" />
<hkern g1="K" 	g2="t" 	k="35" />
<hkern g1="K" 	g2="w" 	k="66" />
<hkern g1="K" 	g2="y" 	k="72" />
<hkern g1="K" 	g2="d,g,q" 	k="45" />
<hkern g1="K" 	g2="e" 	k="51" />
<hkern g1="K" 	g2="c,o" 	k="53" />
<hkern g1="K" 	g2="guillemotleft,guilsinglleft" 	k="45" />
<hkern g1="K" 	g2="v" 	k="72" />
<hkern g1="K" 	g2="C,G" 	k="41" />
<hkern g1="K" 	g2="O,Q" 	k="41" />
<hkern g1="K" 	g2="m,n,p,r" 	k="14" />
<hkern g1="K" 	g2="u" 	k="37" />
<hkern g1="K" 	g2="l" 	k="10" />
<hkern g1="K" 	g2="f" 	k="31" />
<hkern g1="K" 	g2="hyphen,endash,emdash" 	k="51" />
<hkern g1="K" 	g2="copyright" 	k="25" />
<hkern g1="K" 	g2="registered" 	k="25" />
<hkern g1="L" 	g2="quotedbl,quotesingle" 	k="174" />
<hkern g1="L" 	g2="T" 	k="201" />
<hkern g1="L" 	g2="W" 	k="94" />
<hkern g1="L" 	g2="Y" 	k="174" />
<hkern g1="L" 	g2="t" 	k="68" />
<hkern g1="L" 	g2="w" 	k="113" />
<hkern g1="L" 	g2="y" 	k="158" />
<hkern g1="L" 	g2="quoteright,quotedblright" 	k="174" />
<hkern g1="L" 	g2="space" 	k="57" />
<hkern g1="L" 	g2="four" 	k="55" />
<hkern g1="L" 	g2="d,g,q" 	k="35" />
<hkern g1="L" 	g2="e" 	k="53" />
<hkern g1="L" 	g2="c,o" 	k="55" />
<hkern g1="L" 	g2="guillemotleft,guilsinglleft" 	k="68" />
<hkern g1="L" 	g2="V" 	k="150" />
<hkern g1="L" 	g2="v" 	k="143" />
<hkern g1="L" 	g2="C,G" 	k="70" />
<hkern g1="L" 	g2="O,Q" 	k="70" />
<hkern g1="L" 	g2="U" 	k="51" />
<hkern g1="L" 	g2="quoteleft,quotedblleft" 	k="174" />
<hkern g1="L" 	g2="u" 	k="23" />
<hkern g1="L" 	g2="l" 	k="12" />
<hkern g1="L" 	g2="f" 	k="23" />
<hkern g1="L" 	g2="asterisk" 	k="174" />
<hkern g1="L" 	g2="hyphen,endash,emdash" 	k="152" />
<hkern g1="L" 	g2="question" 	k="23" />
<hkern g1="L" 	g2="backslash" 	k="86" />
<hkern g1="L" 	g2="copyright" 	k="41" />
<hkern g1="L" 	g2="registered" 	k="41" />
<hkern g1="L" 	g2="trademark" 	k="172" />
<hkern g1="M" 	g2="T" 	k="12" />
<hkern g1="M" 	g2="W" 	k="12" />
<hkern g1="M" 	g2="Y" 	k="29" />
<hkern g1="M" 	g2="t" 	k="14" />
<hkern g1="M" 	g2="w" 	k="18" />
<hkern g1="M" 	g2="y" 	k="18" />
<hkern g1="M" 	g2="d,g,q" 	k="14" />
<hkern g1="M" 	g2="e" 	k="14" />
<hkern g1="M" 	g2="c,o" 	k="14" />
<hkern g1="M" 	g2="m,n,p,r" 	k="10" />
<hkern g1="M" 	g2="u" 	k="10" />
<hkern g1="M" 	g2="l" 	k="10" />
<hkern g1="M" 	g2="f" 	k="18" />
<hkern g1="M" 	g2="b,h,k" 	k="10" />
<hkern g1="M" 	g2="i,j" 	k="10" />
<hkern g1="O,Q" 	g2="A" 	k="35" />
<hkern g1="O,Q" 	g2="T" 	k="74" />
<hkern g1="O,Q" 	g2="W" 	k="18" />
<hkern g1="O,Q" 	g2="Y" 	k="72" />
<hkern g1="O,Q" 	g2="Z" 	k="31" />
<hkern g1="O,Q" 	g2="comma,period,quotesinglbase,quotedblbase,ellipsis" 	k="43" />
<hkern g1="O,Q" 	g2="a" 	k="16" />
<hkern g1="O,Q" 	g2="three" 	k="20" />
<hkern g1="O,Q" 	g2="seven" 	k="35" />
<hkern g1="O,Q" 	g2="V" 	k="33" />
<hkern g1="O,Q" 	g2="X" 	k="41" />
<hkern g1="O,Q" 	g2="x" 	k="20" />
<hkern g1="O,Q" 	g2="z" 	k="10" />
<hkern g1="O,Q" 	g2="m,n,p,r" 	k="12" />
<hkern g1="O,Q" 	g2="s" 	k="10" />
<hkern g1="O,Q" 	g2="b,h,k" 	k="10" />
<hkern g1="O,Q" 	g2="i,j" 	k="10" />
<hkern g1="O,Q" 	g2="question" 	k="29" />
<hkern g1="O,Q" 	g2="trademark" 	k="37" />
<hkern g1="O,Q" 	g2="parenright" 	k="37" />
<hkern g1="O,Q" 	g2="bracketright" 	k="20" />
<hkern g1="O,Q" 	g2="braceright" 	k="39" />
<hkern g1="P" 	g2="A" 	k="82" />
<hkern g1="P" 	g2="J" 	k="74" />
<hkern g1="P" 	g2="Y" 	k="25" />
<hkern g1="P" 	g2="Z" 	k="18" />
<hkern g1="P" 	g2="comma,period,quotesinglbase,quotedblbase,ellipsis" 	k="164" />
<hkern g1="P" 	g2="d,g,q" 	k="31" />
<hkern g1="P" 	g2="e" 	k="33" />
<hkern g1="P" 	g2="c,o" 	k="35" />
<hkern g1="P" 	g2="guillemotleft,guilsinglleft" 	k="20" />
<hkern g1="P" 	g2="a" 	k="25" />
<hkern g1="P" 	g2="m,n,p,r" 	k="10" />
<hkern g1="P" 	g2="s" 	k="14" />
<hkern g1="P" 	g2="hyphen,endash,emdash" 	k="16" />
<hkern g1="R" 	g2="T" 	k="18" />
<hkern g1="R" 	g2="W" 	k="14" />
<hkern g1="R" 	g2="Y" 	k="39" />
<hkern g1="R" 	g2="d,g,q" 	k="29" />
<hkern g1="R" 	g2="e" 	k="35" />
<hkern g1="R" 	g2="c,o" 	k="37" />
<hkern g1="R" 	g2="guillemotleft,guilsinglleft" 	k="43" />
<hkern g1="R" 	g2="V" 	k="23" />
<hkern g1="R" 	g2="m,n,p,r" 	k="10" />
<hkern g1="R" 	g2="u" 	k="16" />
<hkern g1="R" 	g2="l" 	k="10" />
<hkern g1="R" 	g2="i,j" 	k="10" />
<hkern g1="R" 	g2="hyphen,endash,emdash" 	k="18" />
<hkern g1="S" 	g2="A" 	k="16" />
<hkern g1="S" 	g2="W" 	k="10" />
<hkern g1="S" 	g2="Y" 	k="18" />
<hkern g1="S" 	g2="t" 	k="20" />
<hkern g1="S" 	g2="w" 	k="35" />
<hkern g1="S" 	g2="y" 	k="43" />
<hkern g1="S" 	g2="V" 	k="14" />
<hkern g1="S" 	g2="v" 	k="39" />
<hkern g1="S" 	g2="x" 	k="16" />
<hkern g1="S" 	g2="z" 	k="14" />
<hkern g1="S" 	g2="m,n,p,r" 	k="14" />
<hkern g1="S" 	g2="s" 	k="12" />
<hkern g1="S" 	g2="u" 	k="12" />
<hkern g1="S" 	g2="f" 	k="23" />
<hkern g1="S" 	g2="b,h,k" 	k="10" />
<hkern g1="T" 	g2="A" 	k="125" />
<hkern g1="T" 	g2="J" 	k="100" />
<hkern g1="T" 	g2="t" 	k="74" />
<hkern g1="T" 	g2="w" 	k="156" />
<hkern g1="T" 	g2="y" 	k="164" />
<hkern g1="T" 	g2="space" 	k="63" />
<hkern g1="T" 	g2="comma,period,quotesinglbase,quotedblbase,ellipsis" 	k="129" />
<hkern g1="T" 	g2="slash" 	k="78" />
<hkern g1="T" 	g2="four" 	k="111" />
<hkern g1="T" 	g2="at" 	k="115" />
<hkern g1="T" 	g2="d,g,q" 	k="205" />
<hkern g1="T" 	g2="e" 	k="207" />
<hkern g1="T" 	g2="c,o" 	k="209" />
<hkern g1="T" 	g2="guillemotleft,guilsinglleft" 	k="145" />
<hkern g1="T" 	g2="a" 	k="197" />
<hkern g1="T" 	g2="v" 	k="162" />
<hkern g1="T" 	g2="x" 	k="152" />
<hkern g1="T" 	g2="z" 	k="178" />
<hkern g1="T" 	g2="C,G" 	k="72" />
<hkern g1="T" 	g2="O,Q" 	k="74" />
<hkern g1="T" 	g2="m,n,p,r" 	k="199" />
<hkern g1="T" 	g2="s" 	k="197" />
<hkern g1="T" 	g2="u" 	k="197" />
<hkern g1="T" 	g2="f" 	k="74" />
<hkern g1="T" 	g2="hyphen,endash,emdash" 	k="131" />
<hkern g1="T" 	g2="six" 	k="29" />
<hkern g1="T" 	g2="copyright" 	k="39" />
<hkern g1="T" 	g2="registered" 	k="39" />
<hkern g1="U" 	g2="A" 	k="25" />
<hkern g1="U" 	g2="comma,period,quotesinglbase,quotedblbase,ellipsis" 	k="23" />
<hkern g1="U" 	g2="d,g,q" 	k="20" />
<hkern g1="U" 	g2="e" 	k="18" />
<hkern g1="U" 	g2="c,o" 	k="20" />
<hkern g1="U" 	g2="a" 	k="20" />
<hkern g1="U" 	g2="x" 	k="16" />
<hkern g1="U" 	g2="z" 	k="18" />
<hkern g1="U" 	g2="m,n,p,r" 	k="14" />
<hkern g1="U" 	g2="s" 	k="27" />
<hkern g1="U" 	g2="u" 	k="16" />
<hkern g1="U" 	g2="l" 	k="12" />
<hkern g1="U" 	g2="f" 	k="14" />
<hkern g1="U" 	g2="b,h,k" 	k="10" />
<hkern g1="U" 	g2="i,j" 	k="10" />
<hkern g1="V" 	g2="A" 	k="74" />
<hkern g1="V" 	g2="J" 	k="76" />
<hkern g1="V" 	g2="t" 	k="14" />
<hkern g1="V" 	g2="w" 	k="23" />
<hkern g1="V" 	g2="y" 	k="16" />
<hkern g1="V" 	g2="comma,period,quotesinglbase,quotedblbase,ellipsis" 	k="121" />
<hkern g1="V" 	g2="d,g,q" 	k="98" />
<hkern g1="V" 	g2="e" 	k="100" />
<hkern g1="V" 	g2="c,o" 	k="102" />
<hkern g1="V" 	g2="guillemotleft,guilsinglleft" 	k="68" />
<hkern g1="V" 	g2="a" 	k="90" />
<hkern g1="V" 	g2="S" 	k="18" />
<hkern g1="V" 	g2="z" 	k="41" />
<hkern g1="V" 	g2="C,G" 	k="31" />
<hkern g1="V" 	g2="O,Q" 	k="33" />
<hkern g1="V" 	g2="m,n,p,r" 	k="74" />
<hkern g1="V" 	g2="s" 	k="90" />
<hkern g1="V" 	g2="u" 	k="76" />
<hkern g1="V" 	g2="f" 	k="27" />
<hkern g1="V" 	g2="hyphen,endash,emdash" 	k="61" />
<hkern g1="W" 	g2="A" 	k="57" />
<hkern g1="W" 	g2="J" 	k="45" />
<hkern g1="W" 	g2="space" 	k="59" />
<hkern g1="W" 	g2="comma,period,quotesinglbase,quotedblbase,ellipsis" 	k="78" />
<hkern g1="W" 	g2="slash" 	k="55" />
<hkern g1="W" 	g2="four" 	k="35" />
<hkern g1="W" 	g2="at" 	k="33" />
<hkern g1="W" 	g2="d,g,q" 	k="66" />
<hkern g1="W" 	g2="e" 	k="72" />
<hkern g1="W" 	g2="c,o" 	k="74" />
<hkern g1="W" 	g2="guillemotleft,guilsinglleft" 	k="47" />
<hkern g1="W" 	g2="a" 	k="68" />
<hkern g1="W" 	g2="S" 	k="12" />
<hkern g1="W" 	g2="x" 	k="18" />
<hkern g1="W" 	g2="z" 	k="23" />
<hkern g1="W" 	g2="C,G" 	k="18" />
<hkern g1="W" 	g2="O,Q" 	k="18" />
<hkern g1="W" 	g2="m,n,p,r" 	k="49" />
<hkern g1="W" 	g2="s" 	k="63" />
<hkern g1="W" 	g2="u" 	k="49" />
<hkern g1="W" 	g2="f" 	k="16" />
<hkern g1="W" 	g2="hyphen,endash,emdash" 	k="33" />
<hkern g1="X" 	g2="t" 	k="37" />
<hkern g1="X" 	g2="w" 	k="68" />
<hkern g1="X" 	g2="y" 	k="74" />
<hkern g1="X" 	g2="d,g,q" 	k="43" />
<hkern g1="X" 	g2="e" 	k="49" />
<hkern g1="X" 	g2="c,o" 	k="51" />
<hkern g1="X" 	g2="guillemotleft,guilsinglleft" 	k="43" />
<hkern g1="X" 	g2="C,G" 	k="39" />
<hkern g1="X" 	g2="O,Q" 	k="41" />
<hkern g1="X" 	g2="m,n,p,r" 	k="14" />
<hkern g1="X" 	g2="u" 	k="35" />
<hkern g1="X" 	g2="l" 	k="10" />
<hkern g1="X" 	g2="f" 	k="29" />
<hkern g1="X" 	g2="hyphen,endash,emdash" 	k="49" />
<hkern g1="Y" 	g2="A" 	k="109" />
<hkern g1="Y" 	g2="J" 	k="86" />
<hkern g1="Y" 	g2="t" 	k="43" />
<hkern g1="Y" 	g2="w" 	k="76" />
<hkern g1="Y" 	g2="y" 	k="72" />
<hkern g1="Y" 	g2="space" 	k="74" />
<hkern g1="Y" 	g2="comma,period,quotesinglbase,quotedblbase,ellipsis" 	k="137" />
<hkern g1="Y" 	g2="slash" 	k="98" />
<hkern g1="Y" 	g2="four" 	k="113" />
<hkern g1="Y" 	g2="at" 	k="102" />
<hkern g1="Y" 	g2="d,g,q" 	k="147" />
<hkern g1="Y" 	g2="e" 	k="152" />
<hkern g1="Y" 	g2="c,o" 	k="156" />
<hkern g1="Y" 	g2="guillemotleft,guilsinglleft" 	k="121" />
<hkern g1="Y" 	g2="a" 	k="152" />
<hkern g1="Y" 	g2="one" 	k="35" />
<hkern g1="Y" 	g2="two" 	k="20" />
<hkern g1="Y" 	g2="S" 	k="29" />
<hkern g1="Y" 	g2="v" 	k="74" />
<hkern g1="Y" 	g2="x" 	k="84" />
<hkern g1="Y" 	g2="z" 	k="92" />
<hkern g1="Y" 	g2="C,G" 	k="72" />
<hkern g1="Y" 	g2="O,Q" 	k="72" />
<hkern g1="Y" 	g2="m,n,p,r" 	k="125" />
<hkern g1="Y" 	g2="s" 	k="156" />
<hkern g1="Y" 	g2="u" 	k="119" />
<hkern g1="Y" 	g2="f" 	k="66" />
<hkern g1="Y" 	g2="hyphen,endash,emdash" 	k="133" />
<hkern g1="Y" 	g2="zero" 	k="41" />
<hkern g1="Y" 	g2="six" 	k="59" />
<hkern g1="Y" 	g2="copyright" 	k="59" />
<hkern g1="Y" 	g2="registered" 	k="59" />
<hkern g1="Y" 	g2="trademark" 	k="-10" />
<hkern g1="Z" 	g2="t" 	k="23" />
<hkern g1="Z" 	g2="w" 	k="45" />
<hkern g1="Z" 	g2="y" 	k="49" />
<hkern g1="Z" 	g2="four" 	k="35" />
<hkern g1="Z" 	g2="d,g,q" 	k="29" />
<hkern g1="Z" 	g2="e" 	k="31" />
<hkern g1="Z" 	g2="c,o" 	k="31" />
<hkern g1="Z" 	g2="guillemotleft,guilsinglleft" 	k="29" />
<hkern g1="Z" 	g2="v" 	k="47" />
<hkern g1="Z" 	g2="C,G" 	k="31" />
<hkern g1="Z" 	g2="O,Q" 	k="31" />
<hkern g1="Z" 	g2="m,n,p,r" 	k="16" />
<hkern g1="Z" 	g2="u" 	k="27" />
<hkern g1="Z" 	g2="f" 	k="23" />
<hkern g1="Z" 	g2="hyphen,endash,emdash" 	k="39" />
<hkern g1="Z" 	g2="copyright" 	k="25" />
<hkern g1="Z" 	g2="registered" 	k="25" />
<hkern g1="a" 	g2="quotedbl,quotesingle" 	k="20" />
<hkern g1="a" 	g2="T" 	k="211" />
<hkern g1="a" 	g2="W" 	k="53" />
<hkern g1="a" 	g2="Y" 	k="143" />
<hkern g1="a" 	g2="w" 	k="14" />
<hkern g1="a" 	g2="y" 	k="20" />
<hkern g1="a" 	g2="quoteright,quotedblright" 	k="18" />
<hkern g1="a" 	g2="Z" 	k="14" />
<hkern g1="a" 	g2="S" 	k="14" />
<hkern g1="a" 	g2="V" 	k="84" />
<hkern g1="a" 	g2="X" 	k="10" />
<hkern g1="a" 	g2="v" 	k="18" />
<hkern g1="a" 	g2="C,G" 	k="12" />
<hkern g1="a" 	g2="O,Q" 	k="12" />
<hkern g1="a" 	g2="U" 	k="14" />
<hkern g1="a" 	g2="quoteleft,quotedblleft" 	k="16" />
<hkern g1="a" 	g2="B,D,E,F,H,I,K,L,N,P,R" 	k="12" />
<hkern g1="a" 	g2="question" 	k="37" />
<hkern g1="a" 	g2="backslash" 	k="49" />
<hkern g1="a" 	g2="trademark" 	k="47" />
<hkern g1="a" 	g2="parenright" 	k="23" />
<hkern g1="a" 	g2="braceright" 	k="25" />
<hkern g1="b,p" 	g2="quotedbl,quotesingle" 	k="61" />
<hkern g1="b,p" 	g2="A" 	k="20" />
<hkern g1="b,p" 	g2="T" 	k="203" />
<hkern g1="b,p" 	g2="W" 	k="66" />
<hkern g1="b,p" 	g2="Y" 	k="145" />
<hkern g1="b,p" 	g2="t" 	k="10" />
<hkern g1="b,p" 	g2="w" 	k="25" />
<hkern g1="b,p" 	g2="y" 	k="31" />
<hkern g1="b,p" 	g2="quoteright,quotedblright" 	k="57" />
<hkern g1="b,p" 	g2="Z" 	k="33" />
<hkern g1="b,p" 	g2="S" 	k="20" />
<hkern g1="b,p" 	g2="V" 	k="96" />
<hkern g1="b,p" 	g2="X" 	k="43" />
<hkern g1="b,p" 	g2="v" 	k="29" />
<hkern g1="b,p" 	g2="x" 	k="27" />
<hkern g1="b,p" 	g2="z" 	k="16" />
<hkern g1="b,p" 	g2="U" 	k="18" />
<hkern g1="b,p" 	g2="quoteleft,quotedblleft" 	k="55" />
<hkern g1="b,p" 	g2="B,D,E,F,H,I,K,L,N,P,R" 	k="16" />
<hkern g1="b,p" 	g2="f" 	k="10" />
<hkern g1="b,p" 	g2="asterisk" 	k="20" />
<hkern g1="b,p" 	g2="question" 	k="45" />
<hkern g1="b,p" 	g2="backslash" 	k="51" />
<hkern g1="b,p" 	g2="trademark" 	k="49" />
<hkern g1="b,p" 	g2="parenright" 	k="43" />
<hkern g1="b,p" 	g2="bracketright" 	k="27" />
<hkern g1="b,p" 	g2="braceright" 	k="43" />
<hkern g1="c" 	g2="T" 	k="219" />
<hkern g1="c" 	g2="W" 	k="41" />
<hkern g1="c" 	g2="Y" 	k="143" />
<hkern g1="c" 	g2="y" 	k="10" />
<hkern g1="c" 	g2="d,g,q" 	k="18" />
<hkern g1="c" 	g2="e" 	k="23" />
<hkern g1="c" 	g2="c,o" 	k="25" />
<hkern g1="c" 	g2="guillemotleft,guilsinglleft" 	k="41" />
<hkern g1="c" 	g2="S" 	k="12" />
<hkern g1="c" 	g2="V" 	k="74" />
<hkern g1="c" 	g2="v" 	k="8" />
<hkern g1="c" 	g2="C,G" 	k="16" />
<hkern g1="c" 	g2="O,Q" 	k="18" />
<hkern g1="c" 	g2="U" 	k="18" />
<hkern g1="c" 	g2="hyphen,endash,emdash" 	k="53" />
<hkern g1="c" 	g2="question" 	k="27" />
<hkern g1="c" 	g2="backslash" 	k="29" />
<hkern g1="c" 	g2="trademark" 	k="45" />
<hkern g1="c" 	g2="braceright" 	k="25" />
<hkern g1="d" 	g2="Z" 	k="12" />
<hkern g1="d" 	g2="C,G" 	k="10" />
<hkern g1="d" 	g2="O,Q" 	k="10" />
<hkern g1="d" 	g2="U" 	k="10" />
<hkern g1="d" 	g2="B,D,E,F,H,I,K,L,N,P,R" 	k="12" />
<hkern g1="e" 	g2="quotedbl,quotesingle" 	k="25" />
<hkern g1="e" 	g2="T" 	k="197" />
<hkern g1="e" 	g2="W" 	k="68" />
<hkern g1="e" 	g2="Y" 	k="174" />
<hkern g1="e" 	g2="t" 	k="8" />
<hkern g1="e" 	g2="w" 	k="18" />
<hkern g1="e" 	g2="y" 	k="27" />
<hkern g1="e" 	g2="quoteright,quotedblright" 	k="20" />
<hkern g1="e" 	g2="Z" 	k="12" />
<hkern g1="e" 	g2="S" 	k="12" />
<hkern g1="e" 	g2="V" 	k="92" />
<hkern g1="e" 	g2="X" 	k="10" />
<hkern g1="e" 	g2="v" 	k="23" />
<hkern g1="e" 	g2="x" 	k="8" />
<hkern g1="e" 	g2="U" 	k="18" />
<hkern g1="e" 	g2="quoteleft,quotedblleft" 	k="18" />
<hkern g1="e" 	g2="B,D,E,F,H,I,K,L,N,P,R" 	k="14" />
<hkern g1="e" 	g2="question" 	k="35" />
<hkern g1="e" 	g2="backslash" 	k="45" />
<hkern g1="e" 	g2="trademark" 	k="47" />
<hkern g1="e" 	g2="parenright" 	k="27" />
<hkern g1="e" 	g2="braceright" 	k="33" />
<hkern g1="f" 	g2="A" 	k="66" />
<hkern g1="f" 	g2="J" 	k="66" />
<hkern g1="f" 	g2="space" 	k="43" />
<hkern g1="f" 	g2="comma,period,quotesinglbase,quotedblbase,ellipsis" 	k="45" />
<hkern g1="f" 	g2="slash" 	k="31" />
<hkern g1="f" 	g2="d,g,q" 	k="25" />
<hkern g1="f" 	g2="e" 	k="29" />
<hkern g1="f" 	g2="c,o" 	k="35" />
<hkern g1="f" 	g2="guillemotleft,guilsinglleft" 	k="37" />
<hkern g1="f" 	g2="a" 	k="8" />
<hkern g1="f" 	g2="hyphen,endash,emdash" 	k="47" />
<hkern g1="i,j" 	g2="Z" 	k="14" />
<hkern g1="i,j" 	g2="C,G" 	k="10" />
<hkern g1="i,j" 	g2="O,Q" 	k="10" />
<hkern g1="i,j" 	g2="U" 	k="10" />
<hkern g1="i,j" 	g2="B,D,E,F,H,I,K,L,N,P,R" 	k="10" />
<hkern g1="k" 	g2="T" 	k="150" />
<hkern g1="k" 	g2="W" 	k="14" />
<hkern g1="k" 	g2="Y" 	k="82" />
<hkern g1="k" 	g2="d,g,q" 	k="37" />
<hkern g1="k" 	g2="e" 	k="41" />
<hkern g1="k" 	g2="c,o" 	k="43" />
<hkern g1="k" 	g2="guillemotleft,guilsinglleft" 	k="55" />
<hkern g1="k" 	g2="a" 	k="12" />
<hkern g1="k" 	g2="V" 	k="31" />
<hkern g1="k" 	g2="C,G" 	k="27" />
<hkern g1="k" 	g2="O,Q" 	k="27" />
<hkern g1="k" 	g2="U" 	k="14" />
<hkern g1="k" 	g2="hyphen,endash,emdash" 	k="61" />
<hkern g1="k" 	g2="trademark" 	k="41" />
<hkern g1="l" 	g2="T" 	k="20" />
<hkern g1="l" 	g2="W" 	k="18" />
<hkern g1="l" 	g2="Y" 	k="29" />
<hkern g1="l" 	g2="w" 	k="12" />
<hkern g1="l" 	g2="y" 	k="18" />
<hkern g1="l" 	g2="guillemotleft,guilsinglleft" 	k="23" />
<hkern g1="l" 	g2="V" 	k="18" />
<hkern g1="l" 	g2="v" 	k="16" />
<hkern g1="l" 	g2="C,G" 	k="16" />
<hkern g1="l" 	g2="O,Q" 	k="16" />
<hkern g1="l" 	g2="U" 	k="16" />
<hkern g1="h,m,n" 	g2="quotedbl,quotesingle" 	k="18" />
<hkern g1="h,m,n" 	g2="T" 	k="207" />
<hkern g1="h,m,n" 	g2="W" 	k="51" />
<hkern g1="h,m,n" 	g2="Y" 	k="135" />
<hkern g1="h,m,n" 	g2="w" 	k="10" />
<hkern g1="h,m,n" 	g2="y" 	k="16" />
<hkern g1="h,m,n" 	g2="Z" 	k="14" />
<hkern g1="h,m,n" 	g2="S" 	k="14" />
<hkern g1="h,m,n" 	g2="V" 	k="84" />
<hkern g1="h,m,n" 	g2="X" 	k="10" />
<hkern g1="h,m,n" 	g2="v" 	k="14" />
<hkern g1="h,m,n" 	g2="C,G" 	k="12" />
<hkern g1="h,m,n" 	g2="O,Q" 	k="12" />
<hkern g1="h,m,n" 	g2="U" 	k="14" />
<hkern g1="h,m,n" 	g2="B,D,E,F,H,I,K,L,N,P,R" 	k="12" />
<hkern g1="h,m,n" 	g2="question" 	k="37" />
<hkern g1="h,m,n" 	g2="backslash" 	k="47" />
<hkern g1="h,m,n" 	g2="trademark" 	k="47" />
<hkern g1="h,m,n" 	g2="parenright" 	k="23" />
<hkern g1="h,m,n" 	g2="braceright" 	k="25" />
<hkern g1="o" 	g2="quotedbl,quotesingle" 	k="37" />
<hkern g1="o" 	g2="A" 	k="25" />
<hkern g1="o" 	g2="T" 	k="209" />
<hkern g1="o" 	g2="W" 	k="72" />
<hkern g1="o" 	g2="Y" 	k="156" />
<hkern g1="o" 	g2="t" 	k="12" />
<hkern g1="o" 	g2="w" 	k="27" />
<hkern g1="o" 	g2="y" 	k="35" />
<hkern g1="o" 	g2="quoteright,quotedblright" 	k="33" />
<hkern g1="o" 	g2="Z" 	k="35" />
<hkern g1="o" 	g2="S" 	k="23" />
<hkern g1="o" 	g2="V" 	k="102" />
<hkern g1="o" 	g2="X" 	k="51" />
<hkern g1="o" 	g2="v" 	k="33" />
<hkern g1="o" 	g2="x" 	k="35" />
<hkern g1="o" 	g2="z" 	k="25" />
<hkern g1="o" 	g2="U" 	k="20" />
<hkern g1="o" 	g2="quoteleft,quotedblleft" 	k="31" />
<hkern g1="o" 	g2="B,D,E,F,H,I,K,L,N,P,R" 	k="20" />
<hkern g1="o" 	g2="f" 	k="12" />
<hkern g1="o" 	g2="asterisk" 	k="16" />
<hkern g1="o" 	g2="question" 	k="43" />
<hkern g1="o" 	g2="backslash" 	k="55" />
<hkern g1="o" 	g2="trademark" 	k="47" />
<hkern g1="o" 	g2="parenright" 	k="45" />
<hkern g1="o" 	g2="bracketright" 	k="29" />
<hkern g1="o" 	g2="braceright" 	k="45" />
<hkern g1="r" 	g2="A" 	k="82" />
<hkern g1="r" 	g2="J" 	k="82" />
<hkern g1="r" 	g2="T" 	k="152" />
<hkern g1="r" 	g2="Y" 	k="63" />
<hkern g1="r" 	g2="Z" 	k="57" />
<hkern g1="r" 	g2="space" 	k="45" />
<hkern g1="r" 	g2="comma,period,quotesinglbase,quotedblbase,ellipsis" 	k="86" />
<hkern g1="r" 	g2="slash" 	k="45" />
<hkern g1="r" 	g2="d,g,q" 	k="31" />
<hkern g1="r" 	g2="e" 	k="35" />
<hkern g1="r" 	g2="c,o" 	k="43" />
<hkern g1="r" 	g2="guillemotleft,guilsinglleft" 	k="39" />
<hkern g1="r" 	g2="a" 	k="10" />
<hkern g1="r" 	g2="V" 	k="16" />
<hkern g1="r" 	g2="X" 	k="76" />
<hkern g1="r" 	g2="hyphen,endash,emdash" 	k="70" />
<hkern g1="r" 	g2="trademark" 	k="29" />
<hkern g1="r" 	g2="parenright" 	k="27" />
<hkern g1="r" 	g2="braceright" 	k="31" />
<hkern g1="s" 	g2="A" 	k="10" />
<hkern g1="s" 	g2="T" 	k="195" />
<hkern g1="s" 	g2="W" 	k="47" />
<hkern g1="s" 	g2="Y" 	k="117" />
<hkern g1="s" 	g2="w" 	k="12" />
<hkern g1="s" 	g2="y" 	k="16" />
<hkern g1="s" 	g2="guillemotleft,guilsinglleft" 	k="23" />
<hkern g1="s" 	g2="V" 	k="78" />
<hkern g1="s" 	g2="X" 	k="10" />
<hkern g1="s" 	g2="v" 	k="14" />
<hkern g1="s" 	g2="C,G" 	k="12" />
<hkern g1="s" 	g2="O,Q" 	k="12" />
<hkern g1="s" 	g2="U" 	k="18" />
<hkern g1="s" 	g2="B,D,E,F,H,I,K,L,N,P,R" 	k="14" />
<hkern g1="s" 	g2="hyphen,endash,emdash" 	k="27" />
<hkern g1="s" 	g2="question" 	k="23" />
<hkern g1="s" 	g2="backslash" 	k="29" />
<hkern g1="s" 	g2="trademark" 	k="45" />
<hkern g1="s" 	g2="parenright" 	k="25" />
<hkern g1="s" 	g2="braceright" 	k="27" />
<hkern g1="t" 	g2="T" 	k="135" />
<hkern g1="t" 	g2="W" 	k="10" />
<hkern g1="t" 	g2="Y" 	k="66" />
<hkern g1="t" 	g2="e" 	k="10" />
<hkern g1="t" 	g2="c,o" 	k="12" />
<hkern g1="t" 	g2="guillemotleft,guilsinglleft" 	k="31" />
<hkern g1="t" 	g2="V" 	k="23" />
<hkern g1="t" 	g2="trademark" 	k="27" />
<hkern g1="g,q,u" 	g2="T" 	k="199" />
<hkern g1="g,q,u" 	g2="W" 	k="49" />
<hkern g1="g,q,u" 	g2="Y" 	k="125" />
<hkern g1="g,q,u" 	g2="Z" 	k="14" />
<hkern g1="g,q,u" 	g2="S" 	k="10" />
<hkern g1="g,q,u" 	g2="V" 	k="74" />
<hkern g1="g,q,u" 	g2="X" 	k="14" />
<hkern g1="g,q,u" 	g2="C,G" 	k="12" />
<hkern g1="g,q,u" 	g2="O,Q" 	k="10" />
<hkern g1="g,q,u" 	g2="U" 	k="14" />
<hkern g1="g,q,u" 	g2="B,D,E,F,H,I,K,L,N,P,R" 	k="12" />
<hkern g1="g,q,u" 	g2="question" 	k="27" />
<hkern g1="g,q,u" 	g2="backslash" 	k="29" />
<hkern g1="g,q,u" 	g2="trademark" 	k="43" />
<hkern g1="g,q,u" 	g2="parenright" 	k="20" />
<hkern g1="g,q,u" 	g2="braceright" 	k="23" />
<hkern g1="v" 	g2="A" 	k="49" />
<hkern g1="v" 	g2="J" 	k="45" />
<hkern g1="v" 	g2="T" 	k="162" />
<hkern g1="v" 	g2="Y" 	k="76" />
<hkern g1="v" 	g2="Z" 	k="51" />
<hkern g1="v" 	g2="comma,period,quotesinglbase,quotedblbase,ellipsis" 	k="80" />
<hkern g1="v" 	g2="d,g,q" 	k="29" />
<hkern g1="v" 	g2="e" 	k="31" />
<hkern g1="v" 	g2="c,o" 	k="31" />
<hkern g1="v" 	g2="guillemotleft,guilsinglleft" 	k="33" />
<hkern g1="v" 	g2="a" 	k="23" />
<hkern g1="v" 	g2="s" 	k="20" />
<hkern g1="v" 	g2="hyphen,endash,emdash" 	k="29" />
<hkern g1="w" 	g2="A" 	k="43" />
<hkern g1="w" 	g2="J" 	k="35" />
<hkern g1="w" 	g2="T" 	k="156" />
<hkern g1="w" 	g2="Y" 	k="76" />
<hkern g1="w" 	g2="Z" 	k="47" />
<hkern g1="w" 	g2="space" 	k="49" />
<hkern g1="w" 	g2="comma,period,quotesinglbase,quotedblbase,ellipsis" 	k="66" />
<hkern g1="w" 	g2="slash" 	k="39" />
<hkern g1="w" 	g2="d,g,q" 	k="25" />
<hkern g1="w" 	g2="e" 	k="25" />
<hkern g1="w" 	g2="c,o" 	k="27" />
<hkern g1="w" 	g2="guillemotleft,guilsinglleft" 	k="27" />
<hkern g1="w" 	g2="a" 	k="20" />
<hkern g1="w" 	g2="V" 	k="23" />
<hkern g1="w" 	g2="X" 	k="68" />
<hkern g1="w" 	g2="s" 	k="16" />
<hkern g1="w" 	g2="hyphen,endash,emdash" 	k="23" />
<hkern g1="w" 	g2="trademark" 	k="37" />
<hkern g1="w" 	g2="parenright" 	k="33" />
<hkern g1="w" 	g2="braceright" 	k="35" />
<hkern g1="x" 	g2="T" 	k="152" />
<hkern g1="x" 	g2="W" 	k="18" />
<hkern g1="x" 	g2="Y" 	k="86" />
<hkern g1="x" 	g2="d,g,q" 	k="27" />
<hkern g1="x" 	g2="e" 	k="33" />
<hkern g1="x" 	g2="c,o" 	k="35" />
<hkern g1="x" 	g2="guillemotleft,guilsinglleft" 	k="49" />
<hkern g1="x" 	g2="C,G" 	k="18" />
<hkern g1="x" 	g2="O,Q" 	k="20" />
<hkern g1="x" 	g2="U" 	k="16" />
<hkern g1="x" 	g2="hyphen,endash,emdash" 	k="51" />
<hkern g1="y" 	g2="A" 	k="55" />
<hkern g1="y" 	g2="J" 	k="53" />
<hkern g1="y" 	g2="T" 	k="164" />
<hkern g1="y" 	g2="Y" 	k="76" />
<hkern g1="y" 	g2="Z" 	k="53" />
<hkern g1="y" 	g2="space" 	k="55" />
<hkern g1="y" 	g2="comma,period,quotesinglbase,quotedblbase,ellipsis" 	k="86" />
<hkern g1="y" 	g2="slash" 	k="45" />
<hkern g1="y" 	g2="d,g,q" 	k="33" />
<hkern g1="y" 	g2="e" 	k="35" />
<hkern g1="y" 	g2="c,o" 	k="37" />
<hkern g1="y" 	g2="guillemotleft,guilsinglleft" 	k="39" />
<hkern g1="y" 	g2="a" 	k="25" />
<hkern g1="y" 	g2="V" 	k="18" />
<hkern g1="y" 	g2="X" 	k="78" />
<hkern g1="y" 	g2="s" 	k="23" />
<hkern g1="y" 	g2="B,D,E,F,H,I,K,L,N,P,R" 	k="10" />
<hkern g1="y" 	g2="hyphen,endash,emdash" 	k="33" />
<hkern g1="y" 	g2="question" 	k="20" />
<hkern g1="y" 	g2="trademark" 	k="37" />
<hkern g1="y" 	g2="parenright" 	k="33" />
<hkern g1="y" 	g2="bracketright" 	k="20" />
<hkern g1="y" 	g2="braceright" 	k="37" />
<hkern g1="z" 	g2="T" 	k="182" />
<hkern g1="z" 	g2="W" 	k="27" />
<hkern g1="z" 	g2="Y" 	k="102" />
<hkern g1="z" 	g2="d,g,q" 	k="16" />
<hkern g1="z" 	g2="e" 	k="20" />
<hkern g1="z" 	g2="c,o" 	k="25" />
<hkern g1="z" 	g2="guillemotleft,guilsinglleft" 	k="47" />
<hkern g1="z" 	g2="V" 	k="47" />
<hkern g1="z" 	g2="C,G" 	k="10" />
<hkern g1="z" 	g2="O,Q" 	k="10" />
<hkern g1="z" 	g2="U" 	k="18" />
<hkern g1="z" 	g2="B,D,E,F,H,I,K,L,N,P,R" 	k="10" />
<hkern g1="z" 	g2="hyphen,endash,emdash" 	k="53" />
<hkern g1="z" 	g2="trademark" 	k="43" />
<hkern g1="zero" 	g2="A" 	k="23" />
<hkern g1="zero" 	g2="Y" 	k="43" />
<hkern g1="one" 	g2="quotedbl,quotesingle" 	k="61" />
<hkern g1="one" 	g2="T" 	k="47" />
<hkern g1="one" 	g2="W" 	k="51" />
<hkern g1="one" 	g2="Y" 	k="80" />
<hkern g1="one" 	g2="C,G" 	k="35" />
<hkern g1="one" 	g2="O,Q" 	k="37" />
<hkern g1="one" 	g2="U" 	k="23" />
<hkern g1="one" 	g2="hyphen,endash,emdash" 	k="35" />
<hkern g1="two" 	g2="Y" 	k="33" />
<hkern g1="two" 	g2="hyphen,endash,emdash" 	k="33" />
<hkern g1="four" 	g2="quotedbl,quotesingle" 	k="29" />
<hkern g1="four" 	g2="W" 	k="23" />
<hkern g1="four" 	g2="Y" 	k="47" />
<hkern g1="seven" 	g2="A" 	k="92" />
<hkern g1="seven" 	g2="J" 	k="51" />
<hkern g1="seven" 	g2="comma,period,quotesinglbase,quotedblbase,ellipsis" 	k="150" />
<hkern g1="seven" 	g2="O,Q" 	k="20" />
<hkern g1="seven" 	g2="hyphen,endash,emdash" 	k="74" />
<hkern g1="eight" 	g2="Y" 	k="31" />
<hkern g1="nine" 	g2="A" 	k="31" />
<hkern g1="nine" 	g2="Y" 	k="45" />
<hkern g1="nine" 	g2="comma,period,quotesinglbase,quotedblbase,ellipsis" 	k="41" />
</font>
</defs></svg> 