<?xml version="1.0" standalone="no"?>
<!DOCTYPE svg PUBLIC "-//W3C//DTD SVG 1.1//EN" "http://www.w3.org/Graphics/SVG/1.1/DTD/svg11.dtd" >
<svg xmlns="http://www.w3.org/2000/svg">
<metadata></metadata>
<defs>
<font id="museo_sans_cyrl100" horiz-adv-x="1146" >
<font-face units-per-em="2048" ascent="1536" descent="-512" />
<missing-glyph horiz-adv-x="512" />
<glyph horiz-adv-x="2048" />
<glyph horiz-adv-x="2048" />
<glyph unicode="&#xd;" horiz-adv-x="2048" />
<glyph unicode=" "  horiz-adv-x="512" />
<glyph unicode="&#x09;" horiz-adv-x="512" />
<glyph unicode="&#xa0;" horiz-adv-x="512" />
<glyph unicode="!" horiz-adv-x="512" d="M197 0v125h120v-125h-120zM211 358v1076h88v-1076h-88z" />
<glyph unicode="&#x22;" horiz-adv-x="641" d="M170 1143v309h88v-309h-88zM383 1143v309h88v-309h-88z" />
<glyph unicode="#" horiz-adv-x="1497" d="M104 408l15 81h311l80 453h-311l14 82h311l72 410h88l-72 -410h387l72 410h88l-72 -410h306l-15 -82h-305l-80 -453h305l-14 -81h-305l-72 -408h-88l72 408h-387l-72 -408h-88l72 408h-312zM518 489h387l80 453h-387z" />
<glyph unicode="$" d="M147 154l60 67q68 -72 172 -116t211 -44q136 0 227.5 78t91.5 205q0 80 -41 142.5t-106 102.5t-143.5 75.5t-157.5 72t-144 80.5t-106 112.5t-41 157.5q0 136 103.5 242.5t269.5 124.5v195h88v-193q202 -10 334 -131l-50 -76q-59 56 -143.5 89.5t-169.5 33.5 q-152 0 -246 -85.5t-94 -196.5q0 -75 41 -132t106 -95t143.5 -71.5t157.5 -71.5t144 -84t106 -119.5t41 -168.5q0 -149 -100.5 -253.5t-269.5 -117.5v-190h-88v190q-111 6 -216.5 52t-179.5 125z" />
<glyph unicode="%" horiz-adv-x="1425" d="M119 0l1087 1434h107l-1088 -1434h-106zM123 1190q0 110 78 189t188 79t189 -79t79 -189t-79 -188t-189 -78t-188 78t-78 188zM211 1190q0 -77 51 -130.5t127 -53.5t128 53.5t52 130.5t-52 131.5t-128 54.5t-127 -54.5t-51 -131.5zM770 242q0 110 78 189t188 79 t189.5 -79t79.5 -189t-79.5 -188.5t-189.5 -78.5t-188 78.5t-78 188.5zM858 242q0 -77 51 -131t127 -54t128.5 54t52.5 131t-52.5 131.5t-128.5 54.5t-127 -54.5t-51 -131.5z" />
<glyph unicode="&#x26;" horiz-adv-x="1343" d="M131 391q0 132 71.5 241t198.5 144v4q-206 82 -206 322q0 158 111 257t306 99q70 0 152 -20l-29 -78q-70 16 -129 16q-138 0 -228.5 -74.5t-90.5 -197.5q0 -36 6 -69.5t28 -75.5t58 -72t102.5 -51t155.5 -21h334v209h88v-209h198v-82h-198v-229q0 -265 -122.5 -397 t-334.5 -132q-206 0 -338.5 118t-132.5 298zM223 395q0 -143 102 -238.5t277 -95.5q174 0 271.5 106t97.5 337v229h-330q-208 0 -313 -91t-105 -247z" />
<glyph unicode="'" horiz-adv-x="428" d="M170 1143v309h88v-309h-88z" />
<glyph unicode="(" horiz-adv-x="540" d="M127 686q0 425 225 799h90q-231 -390 -231 -801q0 -476 231 -879h-90q-106 186 -165.5 415.5t-59.5 465.5z" />
<glyph unicode=")" horiz-adv-x="540" d="M98 -195q232 405 232 879q0 410 -232 801h90q226 -376 226 -799q0 -235 -60 -465t-166 -416h-90z" />
<glyph unicode="*" horiz-adv-x="1015" d="M125 1122l27 86l317 -110l-10 336h96l-10 -336l319 108l29 -84l-322 -96v-4l201 -266l-72 -54l-190 275h-4l-191 -272l-73 51l202 266v4z" />
<glyph unicode="+" d="M45 539v82h485v538h88v-538h484v-82h-484v-539h-88v539h-485z" />
<glyph unicode="," horiz-adv-x="518" d="M106 -193l109 318h115l-137 -318h-87z" />
<glyph unicode="-" horiz-adv-x="884" d="M160 539v82h565v-82h-565z" />
<glyph unicode="." horiz-adv-x="444" d="M160 0v129h125v-129h-125z" />
<glyph unicode="/" horiz-adv-x="796" d="M94 -86l518 1602h90l-518 -1602h-90z" />
<glyph unicode="0" horiz-adv-x="1253" d="M143 717q0 129 15 236.5t50.5 202.5t90 160.5t138 103.5t190.5 38t190 -38t138 -103.5t90 -160.5t50 -202.5t15 -236.5t-15 -237t-50 -203.5t-90 -161t-138 -103t-190 -37.5q-133 0 -229 56.5t-150.5 160t-79.5 233t-25 292.5zM236 717q0 -147 19 -260.5t62 -205.5 t121 -141t189 -49t189 49t121 141t62 205.5t19 260.5q0 116 -11 210.5t-39 179t-71.5 142t-112 90.5t-157.5 33t-157.5 -33t-112 -90.5t-71.5 -142t-39 -179t-11 -210.5z" />
<glyph unicode="1" horiz-adv-x="925" d="M119 0v82h325v1167l2 72h-4q-14 -27 -75 -88l-170 -170l-62 59l309 312h88v-1352h318v-82h-731z" />
<glyph unicode="2" horiz-adv-x="1136" d="M125 76q0 80 26 150.5t70.5 125.5t101.5 105t120.5 94t127 86.5t120.5 89t101.5 95.5t70.5 111.5t26 131.5q0 132 -91 219.5t-243 87.5q-105 0 -197.5 -56t-150.5 -149l-66 45q62 109 174.5 177.5t241.5 68.5q103 0 185 -32.5t133.5 -87.5t78.5 -125t27 -148t-26 -148 t-70 -124t-101.5 -104t-120.5 -93.5t-126 -86.5t-120.5 -89t-101.5 -95.5t-70 -111.5t-26 -131h785v-82h-873q-6 40 -6 76z" />
<glyph unicode="3" horiz-adv-x="1140" d="M111 174l65 66q67 -75 170.5 -127t214.5 -52q142 0 250.5 100t108.5 253q0 107 -56 186.5t-141.5 117.5t-185.5 38h-99l-24 61l401 469q14 16 30 32.5t25 25.5l9 8v4q-39 -4 -111 -4h-588v82h821v-62l-462 -534q57 0 116 -11t124.5 -41.5t116 -76t83.5 -122t33 -173.5 q0 -183 -134 -311t-321 -128q-123 0 -240.5 53.5t-205.5 145.5z" />
<glyph unicode="4" horiz-adv-x="1214" d="M84 410v61l743 963h82v-942h213v-82h-213v-410h-88v410h-737zM207 492h614v671l6 129h-4q-34 -51 -71 -98l-545 -698v-4z" />
<glyph unicode="5" horiz-adv-x="1124" d="M119 182l71 56q48 -74 130.5 -125.5t201.5 -51.5q168 0 283 107.5t115 267.5q0 162 -115 270.5t-283 108.5q-71 0 -147 -23.5t-131 -62.5l-66 23l82 682h666v-82h-588l-51 -428l-15 -88h4q39 26 108 45.5t138 19.5q205 0 347.5 -135.5t142.5 -329.5q0 -127 -66 -233 t-178.5 -167t-245.5 -61q-122 0 -229.5 54.5t-173.5 152.5z" />
<glyph unicode="6" horiz-adv-x="1193" d="M135 643q0 91 15.5 183t46 184.5t81.5 172.5t116.5 142t157.5 97.5t198 35.5q134 0 251 -57l-43 -80q-88 51 -215 51q-95 0 -177 -38.5t-140.5 -103t-102 -150t-67 -178t-29.5 -189.5h4q60 90 170 143t236 53q193 0 316.5 -125t123.5 -338q0 -217 -127.5 -344 t-312.5 -127q-116 0 -212 53.5t-158.5 145t-97 212.5t-34.5 257zM236 518q0 -45 15 -102t48.5 -120t80 -115t116.5 -86t151 -34q151 0 244.5 110t93.5 280q0 172 -97 272t-255 100q-100 0 -190.5 -39t-148.5 -110t-58 -156z" />
<glyph unicode="7" horiz-adv-x="1060" d="M96 1352v82h908v-62l-680 -1372h-93l598 1219q16 32 35 65t30 50l11 18v4q-40 -4 -112 -4h-697z" />
<glyph unicode="8" horiz-adv-x="1206" d="M129 399q0 70 22 135t51.5 108.5t69 82.5t64 57t47.5 31q-184 115 -184 291q0 71 27 134t78.5 112.5t133.5 78.5t183 29q196 0 311 -100t115 -260q0 -71 -23 -142t-59.5 -125.5t-62.5 -86t-50 -54.5q101 -57 157 -129.5t56 -177.5q0 -169 -134 -288.5t-327 -119.5 q-89 0 -173.5 29t-152 82t-108.5 134.5t-41 178.5zM221 406q0 -101 56 -181.5t142 -122t181 -41.5q145 0 259 92t114 224q0 54 -23 99.5t-57 76.5t-90.5 62.5t-104 51.5t-117.5 50t-114 51q-22 -12 -47 -28.5t-62.5 -50.5t-66 -72t-49.5 -94.5t-21 -116.5zM291 1108 q0 -51 22 -95.5t52.5 -74.5t85.5 -62t97 -50.5t112.5 -48.5t109.5 -48q184 175 184 363q0 130 -92 205t-241 75q-151 0 -240.5 -75.5t-89.5 -188.5z" />
<glyph unicode="9" horiz-adv-x="1193" d="M117 981q0 113 35.5 205t96 150.5t140 90t168.5 31.5q154 0 269.5 -91.5t174 -242.5t58.5 -336q0 -109 -21 -219t-69.5 -218t-118 -191t-175.5 -134t-233 -51q-133 0 -249 58l43 80q36 -21 93.5 -36.5t116.5 -15.5q97 0 180 38.5t142 103t102.5 150t67 178.5t29.5 190h-4 q-60 -91 -170 -144t-236 -53q-192 0 -316 125.5t-124 331.5zM209 981q0 -170 97.5 -270.5t254.5 -100.5q159 0 278 91.5t119 193.5q0 76 -28.5 158.5t-78.5 154t-127.5 118t-164.5 46.5q-163 0 -256.5 -108.5t-93.5 -282.5z" />
<glyph unicode=":" horiz-adv-x="436" d="M160 0v121h116v-121h-116zM160 903v121h116v-121h-116z" />
<glyph unicode=";" horiz-adv-x="563" d="M160 -193l92 318h106l-114 -318h-84zM252 903v121h117v-121h-117z" />
<glyph unicode="&#x3c;" d="M98 543v73l899 404v-98l-772 -340v-4l772 -340v-99z" />
<glyph unicode="=" d="M106 375v82h934v-82h-934zM106 702v82h934v-82h-934z" />
<glyph unicode="&#x3e;" d="M150 139v99l772 340v4l-772 340v98l899 -404v-73z" />
<glyph unicode="?" horiz-adv-x="890" d="M92 1356q55 45 139 73.5t166 28.5q175 0 284.5 -99.5t109.5 -252.5q0 -69 -20.5 -127.5t-53 -100.5t-72 -80.5t-79.5 -74.5t-72.5 -74.5t-53 -89.5t-20.5 -110v-91h-88v91q0 68 20 126t52.5 100t71.5 80.5t78 75t71.5 75t52.5 90.5t20 112q0 112 -83.5 188t-215.5 76 q-67 0 -136.5 -23t-123.5 -63zM315 0v125h121v-125h-121z" />
<glyph unicode="@" horiz-adv-x="1558" d="M129 498q0 152 57 290.5t152 238.5t226 159t274 59q127 0 222 -30.5t148.5 -83t79 -114.5t25.5 -134v-705h143v-82h-543q-164 0 -279.5 116.5t-115.5 281.5t115.5 283t279.5 118h308q-2 54 -23 100t-63 85t-115 61t-170 22q-130 0 -247 -52.5t-200.5 -141.5t-132.5 -212 t-49 -259q0 -183 83 -335t227.5 -239.5t318.5 -87.5v-86q-196 0 -362 99.5t-262.5 271.5t-96.5 377zM610 494q0 -131 92 -223.5t222 -92.5h297v635h-293q-133 0 -225.5 -94t-92.5 -225z" />
<glyph unicode="A" horiz-adv-x="1277" d="M55 0l537 1434h94l537 -1434h-95l-186 496h-608l-184 -496h-95zM365 578h546l-217 581q-10 27 -23.5 70t-21.5 73l-8 29h-4q-30 -111 -53 -172z" />
<glyph unicode="B" horiz-adv-x="1245" d="M219 0v1434h481q159 0 261 -98.5t102 -260.5q0 -113 -49.5 -192.5t-136.5 -120.5v-4q108 -30 175.5 -128.5t67.5 -234.5q0 -178 -112.5 -286.5t-286.5 -108.5h-502zM307 82h406q145 0 230 83.5t85 229.5q0 144 -88.5 231t-228.5 87h-404v-631zM307 795h391q121 0 197 77 t76 203t-74.5 201.5t-200.5 75.5h-389v-557z" />
<glyph unicode="C" horiz-adv-x="1472" d="M123 727q0 154 53 289.5t146 232.5t226 153t286 56q144 0 280 -44.5t232 -135.5l-54 -66q-86 77 -209 119.5t-247 42.5q-180 0 -322 -84t-220.5 -231.5t-78.5 -331.5q0 -139 46 -261.5t127 -212.5t199 -142t255 -52q134 0 262 50.5t223 144.5l55 -61q-226 -218 -540 -218 q-127 0 -239.5 38t-199.5 107t-150.5 162t-96.5 207t-33 238z" />
<glyph unicode="D" horiz-adv-x="1511" d="M219 0v1434h451q324 0 519 -190.5t195 -526.5q0 -225 -90 -388t-250 -246t-374 -83h-451zM307 82h348q292 0 464.5 166t172.5 469q0 302 -173 468.5t-464 166.5h-348v-1270z" />
<glyph unicode="E" horiz-adv-x="1138" d="M219 0v1434h785v-82h-697v-588h572v-82h-572v-600h735v-82h-823z" />
<glyph unicode="F" horiz-adv-x="1019" d="M219 0v1434h723v-82h-635v-598h549v-82h-549v-672h-88z" />
<glyph unicode="G" horiz-adv-x="1544" d="M123 717q0 204 93.5 374t257.5 268.5t364 98.5q137 0 268.5 -41t230.5 -121l-53 -67q-80 65 -202.5 105t-243.5 40q-177 0 -320 -86.5t-223 -236.5t-80 -334q0 -185 78 -335t218 -236.5t314 -86.5q138 0 268.5 64t223.5 172v276h-256v82h344v-653h-88v125l2 61h-4 q-83 -94 -213 -152.5t-277 -58.5t-277.5 58t-223.5 157t-147 236t-54 291z" />
<glyph unicode="H" horiz-adv-x="1523" d="M219 0v1434h88v-674h910v674h88v-1434h-88v678h-910v-678h-88z" />
<glyph unicode="I" horiz-adv-x="526" d="M219 0v1434h88v-1434h-88z" />
<glyph unicode="J" horiz-adv-x="1042" d="M72 391v45h88v-47q0 -91 30 -163.5t98 -119.5t165 -47q58 0 108.5 17.5t94 54t69 103t25.5 155.5v963h-342v82h430v-1043q0 -110 -33 -193.5t-89.5 -130.5t-122 -69.5t-138.5 -22.5t-138.5 22.5t-122 69.5t-89.5 130.5t-33 193.5z" />
<glyph unicode="K" horiz-adv-x="1167" d="M219 0v1434h88v-639h266l410 639h107l-441 -676v-4l469 -754h-106l-439 713h-266v-713h-88z" />
<glyph unicode="L" horiz-adv-x="1040" d="M219 0v1434h88v-1352h684v-82h-772z" />
<glyph unicode="M" horiz-adv-x="1708" d="M164 0l115 1434h86l417 -902l70 -161h4q37 91 70 161l417 902h87l114 -1434h-88l-88 1094q-3 31 -4.5 78.5t-1.5 79.5v32h-4q-41 -120 -74 -190l-385 -818h-90l-383 818q-14 30 -33 78.5t-31 81.5l-12 34h-4q0 -124 -6 -194l-88 -1094h-88z" />
<glyph unicode="N" horiz-adv-x="1536" d="M219 0v1434h82l817 -1125q21 -29 50 -74t48 -75l19 -31h4q-10 108 -10 180v1125h88v-1434h-82l-817 1124q-21 29 -50 74.5t-48 75.5l-19 31h-4q10 -109 10 -181v-1124h-88z" />
<glyph unicode="O" horiz-adv-x="1691" d="M121 727q0 152 56 287.5t152 233t230.5 154t286.5 56.5t286.5 -56.5t230.5 -154t152 -233t56 -287.5q0 -208 -94.5 -380.5t-261 -272t-369.5 -99.5t-369.5 99.5t-261 272t-94.5 380.5zM213 727q0 -186 82 -339t227.5 -241t323.5 -88t323.5 88t227.5 241t82 339 q0 136 -48.5 256t-132 205.5t-201 135.5t-251.5 50t-251.5 -50t-201 -135.5t-132 -205.5t-48.5 -256z" />
<glyph unicode="P" horiz-adv-x="1206" d="M219 0v1434h471q191 0 313.5 -113.5t122.5 -304.5q0 -192 -122.5 -307t-313.5 -115h-383v-594h-88zM307 676h379q159 0 253.5 90.5t94.5 249.5t-94.5 247.5t-253.5 88.5h-379v-676z" />
<glyph unicode="Q" horiz-adv-x="1693" d="M123 725q0 204 94.5 372t260 264.5t366.5 96.5q207 0 374 -96.5t261 -264t94 -372.5q0 -146 -49 -279t-140 -231l185 -190l-58 -56l-182 189q-202 -183 -485 -183q-202 0 -368 100.5t-259.5 272t-93.5 377.5zM215 725q0 -184 83 -337t227.5 -241t318.5 -88q119 0 230 42 t196 118l-185 191l58 55l182 -189q73 89 114.5 206t41.5 243q0 183 -83 331.5t-229 233t-325 84.5q-131 0 -247.5 -49.5t-200 -135.5t-132.5 -206.5t-49 -257.5z" />
<glyph unicode="R" horiz-adv-x="1243" d="M219 0v1434h420q173 0 258 -43q92 -46 145.5 -135t53.5 -209q0 -152 -79.5 -260t-207.5 -136v-4q15 -16 33 -51l321 -596h-104l-340 635h-412v-635h-88zM307 717h389q140 0 224 91.5t84 238.5q0 95 -45 168t-123 108q-66 29 -201 29h-328v-635z" />
<glyph unicode="S" horiz-adv-x="1073" d="M106 154l60 67q72 -72 172 -116t205 -44q143 0 234 77.5t91 205.5q0 64 -25 116t-67.5 89t-97.5 68t-116 57.5t-121.5 53.5t-115.5 60.5t-97.5 74t-67.5 98.5t-25 129q0 165 123.5 266.5t308.5 101.5q100 0 198 -34.5t165 -98.5l-49 -76q-58 57 -144.5 90t-173.5 33 q-89 0 -165 -32t-123.5 -96t-47.5 -148q0 -61 25 -110.5t67.5 -84t97.5 -64t116 -55t122 -52.5t116 -62t97.5 -76.5t67.5 -102.5t25 -135q0 -165 -114 -272t-306 -107q-121 0 -235.5 47t-199.5 132z" />
<glyph unicode="T" horiz-adv-x="1230" d="M37 1352v82h1157v-82h-535v-1352h-88v1352h-534z" />
<glyph unicode="U" horiz-adv-x="1476" d="M203 492v942h88v-938q0 -202 121 -319.5t325 -117.5t326.5 118.5t122.5 322.5v934h88v-942q0 -234 -148.5 -375.5t-386.5 -141.5t-387 141.5t-149 375.5z" />
<glyph unicode="V" horiz-adv-x="1271" d="M51 1434h94l433 -1160l55 -172h4q30 104 55 172l434 1160h95l-537 -1434h-96z" />
<glyph unicode="W" horiz-adv-x="1871" d="M84 1434h92l303 -1168l35 -153h4q19 81 39 153l328 1168h98l328 -1168l39 -153h4q17 83 35 153l313 1168h92l-387 -1434h-111l-303 1081q-12 41 -25.5 98t-21.5 93l-8 37h-8q-29 -136 -56 -228l-303 -1081h-110z" />
<glyph unicode="X" horiz-adv-x="1136" d="M43 0l463 758l-412 676h107l274 -457l94 -160h4q46 90 89 160l276 457h106l-415 -676l465 -758h-105l-332 545l-92 153h-4q-43 -83 -86 -155l-328 -543h-104z" />
<glyph unicode="Y" horiz-adv-x="1161" d="M49 1434h101l339 -566l89 -161h4q45 91 88 161l340 566h100l-485 -811v-623h-88v623z" />
<glyph unicode="Z" horiz-adv-x="1157" d="M72 0v70l788 1151q22 33 46.5 65.5t37.5 49.5l14 16v4q-32 -4 -104 -4h-739v82h950v-70l-789 -1151q-22 -33 -46.5 -65.5t-37.5 -49.5l-14 -16v-4q33 4 105 4h788v-82h-999z" />
<glyph unicode="[" horiz-adv-x="542" d="M201 -195v1680h221v-82h-133v-1516h133v-82h-221z" />
<glyph unicode="\" horiz-adv-x="796" d="M94 1516h90l518 -1602h-90z" />
<glyph unicode="]" horiz-adv-x="542" d="M121 -113h133v1516h-133v82h221v-1680h-221v82z" />
<glyph unicode="^" horiz-adv-x="1228" d="M158 516l403 918h66l403 -918h-94l-342 795l-342 -795h-94z" />
<glyph unicode="_" horiz-adv-x="1191" d="M88 0h1016v-82h-1016v82z" />
<glyph unicode="`" horiz-adv-x="1042" d="M395 1763h115l137 -227h-90z" />
<glyph unicode="a" horiz-adv-x="1040" d="M84 272q0 56 16.5 103.5t42 81.5t66 61t79.5 44.5t92 30t93 18.5t93 9.5t82.5 4t70.5 0.5h67v34q0 306 -280 306q-161 0 -293 -99l-49 70q59 52 153.5 82.5t192.5 30.5q178 0 270 -98t92 -289v-662h-86v135q0 24 2 47t4 34l3 11h-4q-41 -107 -136.5 -179.5t-222.5 -72.5 q-64 0 -124.5 18t-111.5 53t-81.5 93.5t-30.5 132.5zM174 279q0 -89 69.5 -156.5t192.5 -67.5q80 0 148 39t111 102t67 139.5t24 153.5v56h-65q-41 0 -65.5 -0.5t-73 -2.5t-81 -6.5t-79.5 -14t-78 -22t-66 -33t-55.5 -46.5t-34.5 -62t-14 -79z" />
<glyph unicode="b" horiz-adv-x="1183" d="M178 0v1434h86v-533q0 -21 -2 -42t-4 -31l-2 -11h4q46 106 145 169t226 63q203 0 322.5 -148t119.5 -389q0 -242 -128 -389.5t-331 -147.5q-116 0 -211 63.5t-143 168.5h-4q8 -37 8 -90v-117h-86zM262 510q0 -69 13.5 -134t42.5 -123t70.5 -101t100.5 -68t129 -25 q156 0 260.5 122t104.5 331q0 205 -99 329t-257 124q-73 0 -137 -26.5t-116 -79.5t-82 -143t-30 -206z" />
<glyph unicode="c" horiz-adv-x="1105" d="M106 510q0 119 42.5 221t115 171t169 108t202.5 39q103 0 202 -37.5t164 -108.5l-53 -69q-56 59 -140.5 95t-172.5 36q-185 0 -311.5 -126.5t-126.5 -328.5q0 -200 127 -325.5t311 -125.5q96 0 188 39t154 109l45 -72q-65 -73 -169 -116.5t-218 -43.5q-108 0 -204.5 38 t-168.5 106.5t-114 170t-42 220.5z" />
<glyph unicode="d" horiz-adv-x="1183" d="M111 512q0 242 127.5 389.5t330.5 147.5q116 0 211.5 -63.5t143.5 -168.5h4q-8 37 -8 84v533h86v-1434h-86v129q0 21 2 40.5t4 28.5l2 9h-4q-45 -100 -141 -166t-230 -66q-203 0 -322.5 148t-119.5 389zM201 512q0 -205 99 -329t257 -124q73 0 137 26.5t116 79.5t82 143 t30 206q0 118 -38 218t-121 166.5t-198 66.5q-156 0 -260 -122t-104 -331z" />
<glyph unicode="e" horiz-adv-x="1124" d="M106 510q0 126 41 229.5t110 170.5t158.5 103t188.5 36q101 0 182.5 -38t132 -103t77 -148t26.5 -178q0 -20 -4 -56h-821q0 -215 126 -341t312 -126q87 0 171.5 34t145.5 95l47 -71q-68 -65 -167 -103.5t-197 -38.5q-108 0 -204.5 38t-168.5 106.5t-114 170t-42 220.5z M203 606h729q-7 178 -100 270.5t-230 92.5q-148 0 -260 -95t-139 -268z" />
<glyph unicode="f" horiz-adv-x="628" d="M80 940v78h129v47q0 96 24.5 168.5t59 111.5t82 62.5t84 30t73.5 6.5q22 0 54 -4v-80q-16 4 -47 4q-29 0 -57 -5t-63.5 -24t-61.5 -49.5t-44 -87t-18 -131.5v-49h280v-78h-280v-940h-86v940h-129z" />
<glyph unicode="g" horiz-adv-x="1169" d="M111 528q0 239 120 380t320 141q118 0 215.5 -50.5t140.5 -150.5h4q-6 14 -6 39v137h86v-1018q0 -113 -38.5 -199.5t-105 -136.5t-148.5 -75t-177 -25q-164 0 -321 80l41 76q59 -32 133 -52t141 -20q175 0 282 87.5t107 264.5v119q0 21 2 42t4 31l2 11h-4 q-48 -98 -134.5 -153.5t-209.5 -55.5q-201 0 -327.5 145t-126.5 383zM201 528q0 -205 102 -324.5t268 -119.5q71 0 129 23.5t106 73.5t74.5 138.5t26.5 208.5q0 437 -356 437q-165 0 -257.5 -115t-92.5 -322z" />
<glyph unicode="h" horiz-adv-x="1200" d="M178 0v1434h86v-590q0 -21 -2 -42t-4 -32l-2 -10h4q12 32 34 67.5t60.5 75.5t86 72t114 53t139.5 21q97 0 164.5 -27.5t104.5 -82.5t53 -124.5t16 -165.5v-649h-86v618q0 61 -4 105t-19 93t-41 79t-74 50t-114 20q-116 0 -214 -58.5t-157 -165t-59 -237.5v-504h-86z" />
<glyph unicode="i" horiz-adv-x="442" d="M170 1284v150h102v-150h-102zM178 0v1024h86v-1024h-86z" />
<glyph unicode="j" horiz-adv-x="442" d="M-113 -336q12 -4 45 -4q30 0 58 5t63.5 24t62 49.5t44.5 87t18 131.5v1067h86v-1065q0 -97 -24.5 -169.5t-59.5 -111t-82.5 -62t-84 -30t-74.5 -6.5q-16 0 -52 4v80zM170 1284v150h102v-150h-102z" />
<glyph unicode="k" horiz-adv-x="968" d="M178 0v1434h86v-813h182l332 403h113l-371 -440v-4l406 -580h-109l-371 541h-182v-541h-86z" />
<glyph unicode="l" horiz-adv-x="464" d="M178 207v1227h86v-1201q0 -159 121 -159q19 0 31 2v-80q-16 -4 -37 -4q-22 0 -44 3.5t-52 17t-52 35.5t-37.5 63t-15.5 96z" />
<glyph unicode="m" horiz-adv-x="1880" d="M178 0v1024h86v-180q0 -21 -2 -42t-4 -32l-2 -10h4q38 116 155.5 202.5t237.5 86.5q151 0 228.5 -69.5t95.5 -209.5h4q45 113 154 196t235 83q188 0 265 -102t77 -298v-649h-86v618q0 63 -5.5 111t-22 95t-44.5 77.5t-74.5 49t-109.5 18.5q-106 0 -195 -67.5 t-137.5 -172.5t-48.5 -219v-510h-86v618q0 60 -4 104.5t-19 94t-41.5 80.5t-73.5 51.5t-112 20.5q-80 0 -153.5 -40t-124.5 -105t-81 -147.5t-30 -166.5v-510h-86z" />
<glyph unicode="n" horiz-adv-x="1200" d="M178 0v1024h86v-180q0 -21 -2 -42t-4 -32l-2 -10h4q12 32 34 67.5t60.5 75.5t86 72t114 53t139.5 21q97 0 164.5 -27.5t104.5 -82.5t53 -124.5t16 -165.5v-649h-86v618q0 61 -4 105t-19 93t-41 79t-74 50t-114 20q-177 0 -303.5 -130.5t-126.5 -324.5v-510h-86z" />
<glyph unicode="o" horiz-adv-x="1269" d="M104 518q0 147 71 269t193 192t267 70t266.5 -70t192.5 -192t71 -269q0 -150 -71 -275t-192.5 -196.5t-266.5 -71.5q-108 0 -206 42.5t-169.5 114.5t-113.5 173t-42 213zM195 518q0 -194 128 -326.5t312 -132.5t312 132.5t128 326.5q0 189 -128 318t-312 129t-312 -129 t-128 -318z" />
<glyph unicode="p" horiz-adv-x="1183" d="M178 -410v1434h86v-123q0 -21 -1.5 -41.5t-2.5 -30.5l-2 -10h4q46 107 144.5 168.5t224.5 61.5q203 0 322.5 -148t119.5 -389q0 -242 -127.5 -389.5t-327.5 -147.5q-117 0 -213 62t-145 170h-4q8 -37 8 -90v-527h-86zM262 510q0 -86 24 -166.5t67.5 -144t112.5 -102 t152 -38.5q156 0 260.5 122t104.5 331q0 205 -99 329t-257 124q-73 0 -137 -26.5t-116 -79.5t-82 -143t-30 -206z" />
<glyph unicode="q" horiz-adv-x="1183" d="M111 512q0 242 127.5 389.5t330.5 147.5q116 0 210.5 -62.5t142.5 -167.5h4q-6 35 -6 82v123h86v-1434h-86v527q0 24 2 46.5t4 32.5l2 11h-4q-19 -43 -49 -81t-74 -73.5t-108.5 -56.5t-139.5 -21q-203 0 -322.5 148t-119.5 389zM201 512q0 -205 99 -329t257 -124 q73 0 137 26.5t116 79.5t82 143t30 206q0 118 -38 218t-121 166.5t-198 66.5q-156 0 -260 -122t-104 -331z" />
<glyph unicode="r" horiz-adv-x="696" d="M178 0v1024h86v-195q0 -21 -2 -42t-4 -31l-2 -11h4q41 126 126.5 206.5t201.5 80.5q32 0 59 -6v-86q-12 4 -47 4q-86 0 -153 -48.5t-105.5 -125t-58 -161t-19.5 -167.5v-442h-86z" />
<glyph unicode="s" horiz-adv-x="880" d="M84 123l55 65q58 -61 143.5 -95t174.5 -34q99 0 167 51t68 142q0 52 -31 92.5t-80.5 66.5t-109.5 49t-120.5 49.5t-110 58.5t-80.5 84t-31 120q0 131 95 204t233 73q86 0 167 -27t136 -84l-51 -70q-43 46 -114 71.5t-144 25.5q-97 0 -164.5 -47t-67.5 -140q0 -47 24 -85 t64 -61.5t90.5 -47t103 -41.5t103 -45t90.5 -57.5t64 -79t24 -109.5q0 -122 -92.5 -199.5t-234.5 -77.5q-104 0 -204 37.5t-167 110.5z" />
<glyph unicode="t" horiz-adv-x="622" d="M74 940v78h135v291h86v-291h268v-78h-268v-563q0 -77 18 -135t44 -89.5t61.5 -50.5t63.5 -24.5t57 -5.5q31 0 47 4v-80q-16 -4 -51 -4q-26 0 -51.5 3t-59 13t-62.5 26t-58 45t-49.5 67.5t-33 96.5t-12.5 128v569h-135z" />
<glyph unicode="u" horiz-adv-x="1187" d="M166 375v649h86v-618q0 -61 4 -105t19 -93t41 -79t74 -50t114 -20q124 0 221.5 66.5t148 172t50.5 226.5v500h86v-1024h-86v180q0 21 2 42t4 32l2 10h-4q-12 -32 -33.5 -67.5t-59.5 -75.5t-84 -72t-111 -53t-136 -21q-183 0 -260.5 98.5t-77.5 301.5z" />
<glyph unicode="v" horiz-adv-x="1015" d="M63 1024h93l315 -803l35 -110h4q17 61 35 110l315 803h90l-401 -1024h-82z" />
<glyph unicode="w" horiz-adv-x="1685" d="M70 1024h92l278 -803l35 -110h4q19 61 35 110l281 799h96l280 -799l35 -110h4q17 59 35 110l279 803h92l-361 -1024h-92l-284 795l-35 110h-4q-17 -61 -35 -110l-283 -795h-92z" />
<glyph unicode="x" horiz-adv-x="946" d="M45 0l369 541l-330 483h104l248 -373l35 -57h4q19 30 35 57l248 373h104l-330 -483l369 -541h-106l-283 424l-37 59h-4q-17 -28 -37 -59l-282 -424h-107z" />
<glyph unicode="y" horiz-adv-x="1058" d="M45 -373l39 74q6 -5 17.5 -13.5t45 -22t64.5 -13.5q122 0 201 184l73 170l-424 1018h93l338 -817l36 -96h4q15 47 35 96l338 817h92l-526 -1264q-36 -85 -102 -137.5t-158 -52.5q-44 0 -85.5 14t-61.5 28z" />
<glyph unicode="z" horiz-adv-x="997" d="M78 0v70l620 780l80 94v4q-36 -4 -104 -4h-570v80h791v-70l-623 -780q-16 -21 -36.5 -44.5t-33.5 -36.5l-12 -13v-4q39 4 107 4h621v-80h-840z" />
<glyph unicode="{" horiz-adv-x="667" d="M96 616v82q84 19 129 83.5t45 160.5v166q0 99 23.5 172.5t55 110.5t74.5 59.5t71 27.5t55 5h18v-80h-12q-19 0 -39 -4t-50 -21.5t-52.5 -46.5t-39 -86.5t-16.5 -134.5v-190q0 -86 -42 -156.5t-119 -104.5v-4q74 -30 117.5 -97t43.5 -163v-217q0 -77 16.5 -134.5t39 -86.5 t52.5 -46.5t50 -21.5t39 -4h12v-80q-6 -2 -18 -2q-27 0 -55 5t-71 27.5t-74.5 60t-55 111.5t-23.5 173v193q0 94 -44.5 158.5t-129.5 84.5z" />
<glyph unicode="|" horiz-adv-x="481" d="M197 -317v1925h88v-1925h-88z" />
<glyph unicode="}" horiz-adv-x="667" d="M100 -115h13q19 0 39 4t50 21.5t52 46.5t38.5 86.5t16.5 134.5v217q0 93 42.5 161t119.5 99v4q-70 29 -116 99t-46 162v190q0 77 -16.5 134.5t-38.5 86.5t-52 46.5t-50 21.5t-39 4h-13v80h19q27 0 55 -5t70.5 -27.5t74 -59.5t55 -110.5t23.5 -172.5v-166q0 -95 45 -160.5 t129 -83.5v-82q-84 -17 -129 -83t-45 -160v-193q0 -99 -23.5 -173t-55 -111.5t-74 -60t-70.5 -27.5t-55 -5l-19 2v80z" />
<glyph unicode="~" horiz-adv-x="1214" d="M162 436q0 152 64 223.5t171 71.5q54 0 98.5 -16.5t72 -41.5t56.5 -54.5t53 -54.5t61 -41.5t81 -16.5q39 0 68.5 16.5t45 39.5t25.5 55t12.5 56.5t2.5 49.5h82q0 -152 -64.5 -223.5t-171.5 -71.5q-54 0 -98.5 16.5t-72 41.5t-56.5 54.5t-53 54.5t-61 41.5t-81 16.5 q-48 0 -81 -23t-47.5 -60.5t-19.5 -69t-5 -64.5h-82z" />
<glyph unicode="&#xa2;" d="M123 717q0 114 26.5 212.5t78.5 175.5t134.5 125.5t188.5 57.5v170h88v-170q250 -22 379 -291l-84 -32q-114 237 -334 237q-99 0 -174.5 -37.5t-120.5 -105t-67.5 -153.5t-22.5 -189t22.5 -189.5t67.5 -153.5t120.5 -105t174.5 -38q219 0 334 238l84 -33 q-131 -271 -379 -291v-172h-88v172q-140 12 -238.5 93t-144 203.5t-45.5 275.5z" />
<glyph unicode="&#xa3;" d="M102 0v82h134v600h-93v82h93v332q0 154 114 258t289 104q172 0 301 -104l-59 -68q-46 38 -113.5 62t-130.5 24q-147 0 -230 -82.5t-83 -202.5v-323h405v-82h-405v-600h718v-82h-940z" />
<glyph unicode="&#xa5;" d="M43 1434h100l340 -566l88 -161h4q46 91 89 161l340 566h100l-379 -631h221v-82h-270l-58 -98v-86h328v-82h-328v-455h-88v455h-333v82h333v86l-59 98h-274v82h225z" />
<glyph unicode="&#xa8;" horiz-adv-x="1042" d="M334 1614v149h94v-149h-94zM614 1614v149h95v-149h-95z" />
<glyph unicode="&#xa9;" horiz-adv-x="1710" d="M131 717q0 152 57 289.5t153.5 236.5t230 157t280.5 58q150 0 285 -58t232.5 -157t154.5 -236t57 -290t-57 -291t-154.5 -236.5t-232.5 -156.5t-285 -58q-197 0 -362.5 98t-262 269t-96.5 375zM223 717q0 -183 83 -333.5t227.5 -236.5t318.5 -86q177 0 323.5 86 t230 236.5t83.5 333.5q0 136 -49.5 257.5t-134 208.5t-202.5 138t-251 51q-174 0 -318.5 -86t-227.5 -236.5t-83 -332.5zM436 715q0 82 28.5 158.5t82 138t139.5 98.5t191 37q96 0 185.5 -49.5t147.5 -130.5l-67 -60q-44 65 -115 108.5t-149 43.5q-165 0 -258 -101.5 t-93 -240.5q0 -65 22.5 -125.5t65 -109t111 -78t152.5 -29.5q78 0 148 41.5t116 109.5l67 -59q-52 -77 -144.5 -128.5t-188.5 -51.5q-106 0 -192 36.5t-139 97.5t-81.5 136.5t-28.5 157.5z" />
<glyph unicode="&#xab;" horiz-adv-x="1011" d="M113 578l336 421h108l-336 -421l336 -420h-108zM440 578l336 421h109l-336 -421l336 -420h-109z" />
<glyph unicode="&#xad;" horiz-adv-x="884" d="M160 539v82h565v-82h-565z" />
<glyph unicode="&#xae;" horiz-adv-x="1710" d="M131 717q0 152 57 289.5t153.5 236.5t230 157t280.5 58q150 0 285 -58t232.5 -157t154.5 -236t57 -290t-57 -291t-154.5 -236.5t-232.5 -156.5t-285 -58q-197 0 -362.5 98t-262 269t-96.5 375zM223 717q0 -183 83 -333.5t227.5 -236.5t318.5 -86q177 0 323.5 86 t230 236.5t83.5 333.5q0 136 -49.5 257.5t-134 208.5t-202.5 138t-251 51q-174 0 -318.5 -86t-227.5 -236.5t-83 -332.5zM614 307v819h273q105 0 171 -65t66 -172q0 -87 -45 -145t-112 -74v-4q8 -10 26 -45l162 -314h-100l-174 342h-176v-342h-91zM705 727h172 q71 0 113 43.5t42 118.5q0 73 -42 114t-113 41h-172v-317z" />
<glyph unicode="&#xb4;" horiz-adv-x="1042" d="M395 1536l137 227h115l-162 -227h-90z" />
<glyph unicode="&#xb8;" horiz-adv-x="1042" d="M383 -332q33 -10 84 -10q111 0 111 76q0 36 -33 57t-92 21l-25 -2l49 227l66 -10v-17l-25 -133q64 -9 102.5 -46.5t38.5 -92.5q0 -79 -53 -117.5t-133 -38.5q-51 0 -90 8v78z" />
<glyph unicode="&#xbb;" horiz-adv-x="1011" d="M127 158l336 420l-336 421h109l335 -421l-335 -420h-109zM455 158l336 420l-336 421h108l336 -421l-336 -420h-108z" />
<glyph unicode="&#x2c6;" horiz-adv-x="1040" d="M303 1536l164 227h106l164 -227h-100l-115 164h-4l-115 -164h-100z" />
<glyph unicode="&#x2da;" horiz-adv-x="1044" d="M385 1653q0 59 39.5 98t97.5 39t97.5 -39t39.5 -98t-39.5 -98t-97.5 -39t-97.5 39t-39.5 98zM457 1653q0 -29 18 -47.5t47 -18.5t47.5 18.5t18.5 47.5q0 31 -18 49t-48 18q-29 0 -47 -18t-18 -49z" />
<glyph unicode="&#x2dc;" horiz-adv-x="1042" d="M225 1542q0 221 170 221q38 0 69.5 -15.5t53.5 -37.5t41.5 -44.5t43.5 -38t50 -15.5q25 0 43 15.5t25.5 40.5t10.5 46t3 43h82q0 -221 -170 -221q-38 0 -69.5 15.5t-53.5 38t-41.5 45t-43.5 38t-50 15.5q-33 0 -53 -28.5t-24.5 -57.5t-4.5 -60h-82z" />
<glyph unicode="&#x2000;" horiz-adv-x="895" />
<glyph unicode="&#x2001;" horiz-adv-x="1790" />
<glyph unicode="&#x2002;" horiz-adv-x="895" />
<glyph unicode="&#x2003;" horiz-adv-x="1790" />
<glyph unicode="&#x2004;" horiz-adv-x="596" />
<glyph unicode="&#x2005;" horiz-adv-x="447" />
<glyph unicode="&#x2006;" horiz-adv-x="298" />
<glyph unicode="&#x2007;" horiz-adv-x="298" />
<glyph unicode="&#x2008;" horiz-adv-x="223" />
<glyph unicode="&#x2009;" horiz-adv-x="358" />
<glyph unicode="&#x200a;" horiz-adv-x="99" />
<glyph unicode="&#x2010;" horiz-adv-x="884" d="M160 539v82h565v-82h-565z" />
<glyph unicode="&#x2011;" horiz-adv-x="884" d="M160 539v82h565v-82h-565z" />
<glyph unicode="&#x2012;" horiz-adv-x="884" d="M160 539v82h565v-82h-565z" />
<glyph unicode="&#x2013;" horiz-adv-x="1294" d="M160 539v82h975v-82h-975z" />
<glyph unicode="&#x2014;" horiz-adv-x="1703" d="M160 539v82h1384v-82h-1384z" />
<glyph unicode="&#x2018;" horiz-adv-x="466" d="M152 1141l98 309h80l-72 -309h-106z" />
<glyph unicode="&#x2019;" horiz-adv-x="458" d="M156 1141l71 309h107l-98 -309h-80z" />
<glyph unicode="&#x201a;" horiz-adv-x="499" d="M137 -184l72 309h106l-98 -309h-80z" />
<glyph unicode="&#x201c;" horiz-adv-x="671" d="M152 1141l98 309h80l-72 -309h-106zM356 1141l99 309h80l-72 -309h-107z" />
<glyph unicode="&#x201d;" horiz-adv-x="663" d="M156 1141l71 309h107l-98 -309h-80zM360 1141l72 309h107l-99 -309h-80z" />
<glyph unicode="&#x201e;" horiz-adv-x="704" d="M137 -184l72 309h106l-98 -309h-80zM342 -184l72 309h106l-98 -309h-80z" />
<glyph unicode="&#x2022;" horiz-adv-x="909" d="M184 596q0 112 79 191t192 79t191.5 -79t78.5 -191t-78.5 -191t-191.5 -79t-192 79t-79 191z" />
<glyph unicode="&#x2026;" horiz-adv-x="1316" d="M160 0v129h125v-129h-125zM596 0v129h125v-129h-125zM1032 0v129h125v-129h-125z" />
<glyph unicode="&#x202f;" horiz-adv-x="358" />
<glyph unicode="&#x2039;" horiz-adv-x="684" d="M113 578l336 421h108l-336 -421l336 -420h-108z" />
<glyph unicode="&#x203a;" horiz-adv-x="684" d="M127 158l336 420l-336 421h109l335 -421l-335 -420h-109z" />
<glyph unicode="&#x205f;" horiz-adv-x="447" />
<glyph unicode="&#x20ac;" d="M55 559v82h111q-5 28 -4.5 86.5t6.5 95.5h-113v82h127q58 245 244.5 399t437.5 154q102 0 183 -22l-21 -86q-74 22 -162 22q-217 0 -375 -128.5t-213 -338.5h672l-16 -82h-672q-15 -81 -4 -182h643l-14 -82h-617q46 -222 208.5 -360t387.5 -138q98 0 180 27l25 -84 q-89 -29 -205 -29q-259 0 -448.5 163.5t-239.5 420.5h-121z" />
<glyph unicode="&#x2122;" horiz-adv-x="1986" d="M135 1356v78h737v-78h-329v-815h-80v815h-328zM956 541l72 893h72l258 -553q8 -18 15 -38.5t10 -32.5l3 -11h5q10 41 28 82l258 553h72l72 -893h-78l-57 671l2 58h-5l-260 -561h-69l-260 561h-4l2 -58l-58 -671h-78z" />
<glyph unicode="&#x25fc;" horiz-adv-x="1024" d="M0 0v1024h1024v-1024h-1024z" />
<hkern u1="&#x20;" u2="v" k="53" />
<hkern u1="&#x20;" u2="X" k="20" />
<hkern u1="&#x20;" u2="V" k="66" />
<hkern u1="&#x23;" u2="&#x37;" k="41" />
<hkern u1="&#x23;" u2="&#x33;" k="43" />
<hkern u1="&#x26;" u2="X" k="41" />
<hkern u1="&#x26;" u2="V" k="31" />
<hkern u1="&#x28;" u2="&#x7b;" k="33" />
<hkern u1="&#x28;" u2="v" k="31" />
<hkern u1="&#x28;" u2="&#x38;" k="20" />
<hkern u1="&#x28;" u2="&#x36;" k="33" />
<hkern u1="&#x28;" u2="&#x34;" k="35" />
<hkern u1="&#x28;" u2="&#x30;" k="25" />
<hkern u1="&#x2f;" u2="&#x36;" k="20" />
<hkern u1="&#x2f;" u2="&#x34;" k="55" />
<hkern u1="&#x2f;" u2="&#x2f;" k="229" />
<hkern u1="&#x30;" u2="&#x7d;" k="29" />
<hkern u1="&#x30;" u2="V" k="23" />
<hkern u1="&#x30;" u2="&#x29;" k="25" />
<hkern u1="&#x31;" u2="\" k="55" />
<hkern u1="&#x31;" u2="V" k="63" />
<hkern u1="&#x31;" u2="&#x36;" k="20" />
<hkern u1="&#x31;" u2="&#x34;" k="43" />
<hkern u1="&#x31;" u2="&#x23;" k="33" />
<hkern u1="&#x32;" u2="&#x34;" k="45" />
<hkern u1="&#x34;" u2="&#x7d;" k="23" />
<hkern u1="&#x34;" u2="\" k="23" />
<hkern u1="&#x34;" u2="V" k="33" />
<hkern u1="&#x34;" u2="&#x29;" k="23" />
<hkern u1="&#x37;" u2="&#x36;" k="25" />
<hkern u1="&#x37;" u2="&#x34;" k="84" />
<hkern u1="&#x37;" u2="&#x2f;" k="82" />
<hkern u1="&#x37;" u2="&#x23;" k="39" />
<hkern u1="&#x39;" u2="&#x7d;" k="35" />
<hkern u1="&#x39;" u2="V" k="23" />
<hkern u1="&#x39;" u2="&#x37;" k="20" />
<hkern u1="&#x39;" u2="&#x2f;" k="20" />
<hkern u1="&#x39;" u2="&#x29;" k="31" />
<hkern u1="&#x40;" u2="V" k="59" />
<hkern u1="B" u2="&#x2122;" k="25" />
<hkern u1="B" u2="&#x7d;" k="27" />
<hkern u1="B" u2="x" k="20" />
<hkern u1="B" u2="v" k="16" />
<hkern u1="B" u2="X" k="10" />
<hkern u1="B" u2="V" k="25" />
<hkern u1="B" u2="&#x37;" k="29" />
<hkern u1="F" u2="x" k="63" />
<hkern u1="F" u2="v" k="35" />
<hkern u1="F" u2="&#x2f;" k="43" />
<hkern u1="F" u2="&#x20;" k="43" />
<hkern u1="M" u2="v" k="20" />
<hkern u1="M" u2="V" k="16" />
<hkern u1="P" u2="X" k="20" />
<hkern u1="P" u2="&#x34;" k="39" />
<hkern u1="P" u2="&#x2f;" k="49" />
<hkern u1="P" u2="&#x20;" k="53" />
<hkern u1="V" u2="&#xae;" k="29" />
<hkern u1="V" u2="&#xa9;" k="29" />
<hkern u1="V" u2="x" k="37" />
<hkern u1="V" u2="v" k="20" />
<hkern u1="V" u2="M" k="16" />
<hkern u1="V" u2="&#x40;" k="57" />
<hkern u1="V" u2="&#x38;" k="23" />
<hkern u1="V" u2="&#x36;" k="29" />
<hkern u1="V" u2="&#x34;" k="70" />
<hkern u1="V" u2="&#x31;" k="20" />
<hkern u1="V" u2="&#x30;" k="23" />
<hkern u1="V" u2="&#x2f;" k="76" />
<hkern u1="V" u2="&#x26;" k="23" />
<hkern u1="V" u2="&#x20;" k="66" />
<hkern u1="X" u2="&#xae;" k="25" />
<hkern u1="X" u2="&#xa9;" k="25" />
<hkern u1="X" u2="v" k="74" />
<hkern u1="X" u2="&#x20;" k="20" />
<hkern u1="\" u2="v" k="43" />
<hkern u1="\" u2="V" k="76" />
<hkern u1="v" u2="&#x2122;" k="39" />
<hkern u1="v" u2="&#x7d;" k="41" />
<hkern u1="v" u2="X" k="76" />
<hkern u1="v" u2="V" k="20" />
<hkern u1="v" u2="M" k="20" />
<hkern u1="v" u2="&#x3f;" k="23" />
<hkern u1="v" u2="&#x2f;" k="43" />
<hkern u1="v" u2="&#x29;" k="31" />
<hkern u1="v" u2="&#x20;" k="53" />
<hkern u1="x" u2="&#x2122;" k="41" />
<hkern u1="x" u2="V" k="37" />
<hkern u1="&#x7b;" u2="&#x7b;" k="35" />
<hkern u1="&#x7b;" u2="v" k="41" />
<hkern u1="&#x7b;" u2="&#x38;" k="23" />
<hkern u1="&#x7b;" u2="&#x36;" k="39" />
<hkern u1="&#x7b;" u2="&#x34;" k="39" />
<hkern u1="&#x7b;" u2="&#x30;" k="29" />
<hkern u1="&#x7d;" u2="&#x7d;" k="35" />
<hkern u1="&#x7d;" u2="&#x29;" k="35" />
<hkern g1="ampersand" 	g2="quotedbl,quotesingle" 	k="57" />
<hkern g1="ampersand" 	g2="A" 	k="39" />
<hkern g1="ampersand" 	g2="J" 	k="20" />
<hkern g1="ampersand" 	g2="T" 	k="100" />
<hkern g1="ampersand" 	g2="Y" 	k="70" />
<hkern g1="ampersand" 	g2="quoteright,quotedblright" 	k="55" />
<hkern g1="ampersand" 	g2="Z" 	k="47" />
<hkern g1="quotedbl,quotesingle" 	g2="A" 	k="111" />
<hkern g1="quotedbl,quotesingle" 	g2="J" 	k="66" />
<hkern g1="quotedbl,quotesingle" 	g2="space" 	k="53" />
<hkern g1="quotedbl,quotesingle" 	g2="comma,period,quotesinglbase,quotedblbase,ellipsis" 	k="281" />
<hkern g1="quotedbl,quotesingle" 	g2="slash" 	k="94" />
<hkern g1="quotedbl,quotesingle" 	g2="four" 	k="133" />
<hkern g1="quotedbl,quotesingle" 	g2="at" 	k="66" />
<hkern g1="quotedbl,quotesingle" 	g2="d,g,q" 	k="70" />
<hkern g1="quotedbl,quotesingle" 	g2="e" 	k="33" />
<hkern g1="quotedbl,quotesingle" 	g2="c,o" 	k="37" />
<hkern g1="quotedbl,quotesingle" 	g2="guillemotleft,guilsinglleft" 	k="49" />
<hkern g1="asterisk" 	g2="A" 	k="84" />
<hkern g1="asterisk" 	g2="J" 	k="78" />
<hkern g1="asterisk" 	g2="d,g,q" 	k="25" />
<hkern g1="asterisk" 	g2="e" 	k="18" />
<hkern g1="asterisk" 	g2="c,o" 	k="20" />
<hkern g1="asterisk" 	g2="a" 	k="23" />
<hkern g1="hyphen,endash,emdash" 	g2="A" 	k="23" />
<hkern g1="hyphen,endash,emdash" 	g2="T" 	k="135" />
<hkern g1="hyphen,endash,emdash" 	g2="W" 	k="37" />
<hkern g1="hyphen,endash,emdash" 	g2="Y" 	k="139" />
<hkern g1="hyphen,endash,emdash" 	g2="t" 	k="18" />
<hkern g1="hyphen,endash,emdash" 	g2="w" 	k="27" />
<hkern g1="hyphen,endash,emdash" 	g2="y" 	k="37" />
<hkern g1="hyphen,endash,emdash" 	g2="Z" 	k="43" />
<hkern g1="hyphen,endash,emdash" 	g2="one" 	k="55" />
<hkern g1="hyphen,endash,emdash" 	g2="two" 	k="39" />
<hkern g1="hyphen,endash,emdash" 	g2="three" 	k="41" />
<hkern g1="hyphen,endash,emdash" 	g2="seven" 	k="90" />
<hkern g1="hyphen,endash,emdash" 	g2="S" 	k="29" />
<hkern g1="hyphen,endash,emdash" 	g2="V" 	k="66" />
<hkern g1="hyphen,endash,emdash" 	g2="X" 	k="49" />
<hkern g1="hyphen,endash,emdash" 	g2="v" 	k="33" />
<hkern g1="hyphen,endash,emdash" 	g2="x" 	k="55" />
<hkern g1="hyphen,endash,emdash" 	g2="z" 	k="70" />
<hkern g1="comma,period,quotesinglbase,quotedblbase" 	g2="quotedbl,quotesingle" 	k="281" />
<hkern g1="comma,period,quotesinglbase,quotedblbase" 	g2="T" 	k="131" />
<hkern g1="comma,period,quotesinglbase,quotedblbase" 	g2="W" 	k="78" />
<hkern g1="comma,period,quotesinglbase,quotedblbase" 	g2="Y" 	k="139" />
<hkern g1="comma,period,quotesinglbase,quotedblbase" 	g2="t" 	k="23" />
<hkern g1="comma,period,quotesinglbase,quotedblbase" 	g2="w" 	k="72" />
<hkern g1="comma,period,quotesinglbase,quotedblbase" 	g2="y" 	k="92" />
<hkern g1="comma,period,quotesinglbase,quotedblbase" 	g2="quoteright,quotedblright" 	k="279" />
<hkern g1="comma,period,quotesinglbase,quotedblbase" 	g2="V" 	k="125" />
<hkern g1="comma,period,quotesinglbase,quotedblbase" 	g2="v" 	k="86" />
<hkern g1="comma,period,quotesinglbase,quotedblbase" 	g2="zero" 	k="20" />
<hkern g1="comma,period,quotesinglbase,quotedblbase" 	g2="six" 	k="20" />
<hkern g1="comma,period,quotesinglbase,quotedblbase" 	g2="C,G" 	k="45" />
<hkern g1="comma,period,quotesinglbase,quotedblbase" 	g2="O,Q" 	k="47" />
<hkern g1="comma,period,quotesinglbase,quotedblbase" 	g2="U" 	k="25" />
<hkern g1="comma,period,quotesinglbase,quotedblbase" 	g2="quoteleft,quotedblleft" 	k="276" />
<hkern g1="slash" 	g2="A" 	k="76" />
<hkern g1="slash" 	g2="J" 	k="43" />
<hkern g1="slash" 	g2="d,g,q" 	k="51" />
<hkern g1="slash" 	g2="e" 	k="53" />
<hkern g1="slash" 	g2="c,o" 	k="53" />
<hkern g1="slash" 	g2="a" 	k="41" />
<hkern g1="slash" 	g2="m,n,p,r" 	k="29" />
<hkern g1="slash" 	g2="s" 	k="41" />
<hkern g1="slash" 	g2="u" 	k="27" />
<hkern g1="colon,semicolon" 	g2="T" 	k="111" />
<hkern g1="colon,semicolon" 	g2="Y" 	k="43" />
<hkern g1="at" 	g2="quotedbl,quotesingle" 	k="43" />
<hkern g1="at" 	g2="T" 	k="100" />
<hkern g1="at" 	g2="W" 	k="43" />
<hkern g1="at" 	g2="Y" 	k="90" />
<hkern g1="at" 	g2="quoteright,quotedblright" 	k="41" />
<hkern g1="backslash" 	g2="quotedbl,quotesingle" 	k="94" />
<hkern g1="backslash" 	g2="T" 	k="76" />
<hkern g1="backslash" 	g2="W" 	k="55" />
<hkern g1="backslash" 	g2="Y" 	k="94" />
<hkern g1="backslash" 	g2="t" 	k="20" />
<hkern g1="backslash" 	g2="w" 	k="41" />
<hkern g1="backslash" 	g2="y" 	k="43" />
<hkern g1="backslash" 	g2="quoteright,quotedblright" 	k="94" />
<hkern g1="backslash" 	g2="C,G" 	k="20" />
<hkern g1="backslash" 	g2="O,Q" 	k="20" />
<hkern g1="quoteleft,quotedblleft" 	g2="A" 	k="119" />
<hkern g1="quoteleft,quotedblleft" 	g2="J" 	k="66" />
<hkern g1="quoteleft,quotedblleft" 	g2="comma,period,quotesinglbase,quotedblbase,ellipsis" 	k="289" />
<hkern g1="quoteleft,quotedblleft" 	g2="d,g,q" 	k="76" />
<hkern g1="quoteleft,quotedblleft" 	g2="e" 	k="39" />
<hkern g1="quoteleft,quotedblleft" 	g2="c,o" 	k="43" />
<hkern g1="quoteleft,quotedblleft" 	g2="a" 	k="16" />
<hkern g1="quoteleft,quotedblleft" 	g2="C,G" 	k="20" />
<hkern g1="quoteleft,quotedblleft" 	g2="O,Q" 	k="23" />
<hkern g1="quoteleft,quotedblleft" 	g2="s" 	k="20" />
<hkern g1="quoteright,quotedblright" 	g2="A" 	k="121" />
<hkern g1="quoteright,quotedblright" 	g2="J" 	k="63" />
<hkern g1="quoteright,quotedblright" 	g2="space" 	k="66" />
<hkern g1="quoteright,quotedblright" 	g2="comma,period,quotesinglbase,quotedblbase,ellipsis" 	k="291" />
<hkern g1="quoteright,quotedblright" 	g2="slash" 	k="102" />
<hkern g1="quoteright,quotedblright" 	g2="at" 	k="80" />
<hkern g1="quoteright,quotedblright" 	g2="d,g,q" 	k="80" />
<hkern g1="quoteright,quotedblright" 	g2="e" 	k="43" />
<hkern g1="quoteright,quotedblright" 	g2="c,o" 	k="47" />
<hkern g1="quoteright,quotedblright" 	g2="guillemotleft,guilsinglleft" 	k="66" />
<hkern g1="quoteright,quotedblright" 	g2="a" 	k="18" />
<hkern g1="quoteright,quotedblright" 	g2="C,G" 	k="25" />
<hkern g1="quoteright,quotedblright" 	g2="O,Q" 	k="27" />
<hkern g1="quoteright,quotedblright" 	g2="s" 	k="23" />
<hkern g1="guillemotleft,guilsinglleft" 	g2="T" 	k="127" />
<hkern g1="guillemotleft,guilsinglleft" 	g2="Y" 	k="53" />
<hkern g1="guillemotleft,guilsinglleft" 	g2="V" 	k="23" />
<hkern g1="guillemotright,guilsinglright" 	g2="quotedbl,quotesingle" 	k="49" />
<hkern g1="guillemotright,guilsinglright" 	g2="A" 	k="33" />
<hkern g1="guillemotright,guilsinglright" 	g2="T" 	k="143" />
<hkern g1="guillemotright,guilsinglright" 	g2="W" 	k="45" />
<hkern g1="guillemotright,guilsinglright" 	g2="Y" 	k="117" />
<hkern g1="guillemotright,guilsinglright" 	g2="w" 	k="29" />
<hkern g1="guillemotright,guilsinglright" 	g2="y" 	k="39" />
<hkern g1="guillemotright,guilsinglright" 	g2="quoteright,quotedblright" 	k="45" />
<hkern g1="guillemotright,guilsinglright" 	g2="Z" 	k="31" />
<hkern g1="guillemotright,guilsinglright" 	g2="V" 	k="68" />
<hkern g1="guillemotright,guilsinglright" 	g2="X" 	k="41" />
<hkern g1="guillemotright,guilsinglright" 	g2="v" 	k="35" />
<hkern g1="guillemotright,guilsinglright" 	g2="x" 	k="47" />
<hkern g1="guillemotright,guilsinglright" 	g2="z" 	k="49" />
<hkern g1="parenleft" 	g2="t" 	k="20" />
<hkern g1="parenleft" 	g2="w" 	k="31" />
<hkern g1="parenleft" 	g2="y" 	k="29" />
<hkern g1="parenleft" 	g2="d,g,q" 	k="41" />
<hkern g1="parenleft" 	g2="e" 	k="41" />
<hkern g1="parenleft" 	g2="c,o" 	k="43" />
<hkern g1="parenleft" 	g2="a" 	k="23" />
<hkern g1="parenleft" 	g2="C,G" 	k="35" />
<hkern g1="parenleft" 	g2="O,Q" 	k="35" />
<hkern g1="parenleft" 	g2="m,n,p,r" 	k="20" />
<hkern g1="parenleft" 	g2="u" 	k="31" />
<hkern g1="bracketleft" 	g2="d,g,q" 	k="25" />
<hkern g1="bracketleft" 	g2="e" 	k="25" />
<hkern g1="bracketleft" 	g2="c,o" 	k="27" />
<hkern g1="bracketleft" 	g2="u" 	k="23" />
<hkern g1="braceleft" 	g2="J" 	k="23" />
<hkern g1="braceleft" 	g2="t" 	k="23" />
<hkern g1="braceleft" 	g2="w" 	k="39" />
<hkern g1="braceleft" 	g2="y" 	k="37" />
<hkern g1="braceleft" 	g2="d,g,q" 	k="45" />
<hkern g1="braceleft" 	g2="e" 	k="47" />
<hkern g1="braceleft" 	g2="c,o" 	k="47" />
<hkern g1="braceleft" 	g2="a" 	k="33" />
<hkern g1="braceleft" 	g2="C,G" 	k="39" />
<hkern g1="braceleft" 	g2="O,Q" 	k="39" />
<hkern g1="braceleft" 	g2="m,n,p,r" 	k="27" />
<hkern g1="braceleft" 	g2="s" 	k="33" />
<hkern g1="braceleft" 	g2="u" 	k="35" />
<hkern g1="braceleft" 	g2="f" 	k="20" />
<hkern g1="A" 	g2="quotedbl,quotesingle" 	k="111" />
<hkern g1="A" 	g2="T" 	k="127" />
<hkern g1="A" 	g2="W" 	k="57" />
<hkern g1="A" 	g2="Y" 	k="109" />
<hkern g1="A" 	g2="t" 	k="41" />
<hkern g1="A" 	g2="w" 	k="43" />
<hkern g1="A" 	g2="y" 	k="53" />
<hkern g1="A" 	g2="quoteright,quotedblright" 	k="109" />
<hkern g1="A" 	g2="space" 	k="61" />
<hkern g1="A" 	g2="d,g,q" 	k="20" />
<hkern g1="A" 	g2="e" 	k="23" />
<hkern g1="A" 	g2="c,o" 	k="25" />
<hkern g1="A" 	g2="guillemotleft,guilsinglleft" 	k="33" />
<hkern g1="A" 	g2="a" 	k="10" />
<hkern g1="A" 	g2="seven" 	k="25" />
<hkern g1="A" 	g2="V" 	k="74" />
<hkern g1="A" 	g2="v" 	k="49" />
<hkern g1="A" 	g2="zero" 	k="25" />
<hkern g1="A" 	g2="six" 	k="25" />
<hkern g1="A" 	g2="C,G" 	k="35" />
<hkern g1="A" 	g2="O,Q" 	k="35" />
<hkern g1="A" 	g2="U" 	k="25" />
<hkern g1="A" 	g2="quoteleft,quotedblleft" 	k="106" />
<hkern g1="A" 	g2="s" 	k="10" />
<hkern g1="A" 	g2="u" 	k="14" />
<hkern g1="A" 	g2="f" 	k="18" />
<hkern g1="A" 	g2="asterisk" 	k="84" />
<hkern g1="A" 	g2="hyphen,endash,emdash" 	k="23" />
<hkern g1="A" 	g2="question" 	k="37" />
<hkern g1="A" 	g2="backslash" 	k="76" />
<hkern g1="A" 	g2="copyright" 	k="31" />
<hkern g1="A" 	g2="registered" 	k="31" />
<hkern g1="A" 	g2="trademark" 	k="109" />
<hkern g1="B" 	g2="A" 	k="20" />
<hkern g1="B" 	g2="T" 	k="63" />
<hkern g1="B" 	g2="W" 	k="16" />
<hkern g1="B" 	g2="Y" 	k="47" />
<hkern g1="B" 	g2="t" 	k="12" />
<hkern g1="B" 	g2="w" 	k="16" />
<hkern g1="B" 	g2="y" 	k="18" />
<hkern g1="B" 	g2="z" 	k="10" />
<hkern g1="B" 	g2="m,n,p,r" 	k="10" />
<hkern g1="B" 	g2="s" 	k="16" />
<hkern g1="B" 	g2="u" 	k="10" />
<hkern g1="B" 	g2="f" 	k="14" />
<hkern g1="B" 	g2="i,j" 	k="10" />
<hkern g1="C" 	g2="t" 	k="12" />
<hkern g1="C" 	g2="w" 	k="37" />
<hkern g1="C" 	g2="y" 	k="43" />
<hkern g1="C" 	g2="four" 	k="23" />
<hkern g1="C" 	g2="d,g,q" 	k="14" />
<hkern g1="C" 	g2="e" 	k="16" />
<hkern g1="C" 	g2="c,o" 	k="18" />
<hkern g1="C" 	g2="guillemotleft,guilsinglleft" 	k="20" />
<hkern g1="C" 	g2="S" 	k="10" />
<hkern g1="C" 	g2="v" 	k="39" />
<hkern g1="C" 	g2="C,G" 	k="37" />
<hkern g1="C" 	g2="O,Q" 	k="39" />
<hkern g1="C" 	g2="m,n,p,r" 	k="10" />
<hkern g1="C" 	g2="u" 	k="14" />
<hkern g1="C" 	g2="f" 	k="12" />
<hkern g1="C" 	g2="hyphen,endash,emdash" 	k="33" />
<hkern g1="D" 	g2="A" 	k="35" />
<hkern g1="D" 	g2="T" 	k="84" />
<hkern g1="D" 	g2="W" 	k="20" />
<hkern g1="D" 	g2="Y" 	k="72" />
<hkern g1="D" 	g2="Z" 	k="31" />
<hkern g1="D" 	g2="comma,period,quotesinglbase,quotedblbase,ellipsis" 	k="39" />
<hkern g1="D" 	g2="a" 	k="14" />
<hkern g1="D" 	g2="three" 	k="20" />
<hkern g1="D" 	g2="seven" 	k="41" />
<hkern g1="D" 	g2="V" 	k="33" />
<hkern g1="D" 	g2="X" 	k="35" />
<hkern g1="D" 	g2="x" 	k="20" />
<hkern g1="D" 	g2="z" 	k="10" />
<hkern g1="D" 	g2="m,n,p,r" 	k="12" />
<hkern g1="D" 	g2="s" 	k="10" />
<hkern g1="D" 	g2="u" 	k="10" />
<hkern g1="D" 	g2="b,h,k" 	k="10" />
<hkern g1="D" 	g2="i,j" 	k="10" />
<hkern g1="D" 	g2="question" 	k="29" />
<hkern g1="D" 	g2="trademark" 	k="41" />
<hkern g1="D" 	g2="parenright" 	k="35" />
<hkern g1="D" 	g2="braceright" 	k="39" />
<hkern g1="E" 	g2="J" 	k="12" />
<hkern g1="E" 	g2="t" 	k="29" />
<hkern g1="E" 	g2="w" 	k="53" />
<hkern g1="E" 	g2="y" 	k="59" />
<hkern g1="E" 	g2="four" 	k="39" />
<hkern g1="E" 	g2="d,g,q" 	k="27" />
<hkern g1="E" 	g2="e" 	k="31" />
<hkern g1="E" 	g2="c,o" 	k="33" />
<hkern g1="E" 	g2="guillemotleft,guilsinglleft" 	k="29" />
<hkern g1="E" 	g2="v" 	k="57" />
<hkern g1="E" 	g2="C,G" 	k="29" />
<hkern g1="E" 	g2="O,Q" 	k="31" />
<hkern g1="E" 	g2="m,n,p,r" 	k="14" />
<hkern g1="E" 	g2="u" 	k="29" />
<hkern g1="E" 	g2="f" 	k="25" />
<hkern g1="E" 	g2="asterisk" 	k="16" />
<hkern g1="E" 	g2="hyphen,endash,emdash" 	k="37" />
<hkern g1="F" 	g2="A" 	k="80" />
<hkern g1="F" 	g2="J" 	k="86" />
<hkern g1="F" 	g2="t" 	k="16" />
<hkern g1="F" 	g2="w" 	k="33" />
<hkern g1="F" 	g2="y" 	k="35" />
<hkern g1="F" 	g2="comma,period,quotesinglbase,quotedblbase,ellipsis" 	k="162" />
<hkern g1="F" 	g2="d,g,q" 	k="39" />
<hkern g1="F" 	g2="e" 	k="39" />
<hkern g1="F" 	g2="c,o" 	k="39" />
<hkern g1="F" 	g2="a" 	k="88" />
<hkern g1="F" 	g2="S" 	k="33" />
<hkern g1="F" 	g2="z" 	k="45" />
<hkern g1="F" 	g2="C,G" 	k="25" />
<hkern g1="F" 	g2="O,Q" 	k="25" />
<hkern g1="F" 	g2="m,n,p,r" 	k="49" />
<hkern g1="F" 	g2="s" 	k="49" />
<hkern g1="F" 	g2="u" 	k="43" />
<hkern g1="F" 	g2="f" 	k="27" />
<hkern g1="F" 	g2="guillemotright,guilsinglright" 	k="23" />
<hkern g1="G" 	g2="T" 	k="20" />
<hkern g1="G" 	g2="W" 	k="16" />
<hkern g1="G" 	g2="Y" 	k="39" />
<hkern g1="G" 	g2="t" 	k="16" />
<hkern g1="G" 	g2="w" 	k="27" />
<hkern g1="G" 	g2="y" 	k="33" />
<hkern g1="G" 	g2="V" 	k="25" />
<hkern g1="G" 	g2="v" 	k="31" />
<hkern g1="G" 	g2="f" 	k="14" />
<hkern g1="H,I,N" 	g2="t" 	k="10" />
<hkern g1="H,I,N" 	g2="d,g,q" 	k="14" />
<hkern g1="H,I,N" 	g2="e" 	k="18" />
<hkern g1="H,I,N" 	g2="c,o" 	k="20" />
<hkern g1="H,I,N" 	g2="a" 	k="14" />
<hkern g1="H,I,N" 	g2="z" 	k="10" />
<hkern g1="H,I,N" 	g2="m,n,p,r" 	k="12" />
<hkern g1="H,I,N" 	g2="s" 	k="14" />
<hkern g1="H,I,N" 	g2="u" 	k="12" />
<hkern g1="H,I,N" 	g2="l" 	k="10" />
<hkern g1="H,I,N" 	g2="f" 	k="16" />
<hkern g1="H,I,N" 	g2="b,h,k" 	k="12" />
<hkern g1="H,I,N" 	g2="i,j" 	k="10" />
<hkern g1="J" 	g2="A" 	k="12" />
<hkern g1="J" 	g2="d,g,q" 	k="18" />
<hkern g1="J" 	g2="e" 	k="18" />
<hkern g1="J" 	g2="c,o" 	k="20" />
<hkern g1="J" 	g2="a" 	k="16" />
<hkern g1="J" 	g2="x" 	k="14" />
<hkern g1="J" 	g2="z" 	k="14" />
<hkern g1="J" 	g2="m,n,p,r" 	k="12" />
<hkern g1="J" 	g2="s" 	k="20" />
<hkern g1="J" 	g2="u" 	k="12" />
<hkern g1="J" 	g2="l" 	k="10" />
<hkern g1="J" 	g2="f" 	k="14" />
<hkern g1="J" 	g2="b,h,k" 	k="10" />
<hkern g1="J" 	g2="i,j" 	k="10" />
<hkern g1="K" 	g2="t" 	k="29" />
<hkern g1="K" 	g2="w" 	k="66" />
<hkern g1="K" 	g2="y" 	k="72" />
<hkern g1="K" 	g2="d,g,q" 	k="41" />
<hkern g1="K" 	g2="e" 	k="47" />
<hkern g1="K" 	g2="c,o" 	k="49" />
<hkern g1="K" 	g2="guillemotleft,guilsinglleft" 	k="41" />
<hkern g1="K" 	g2="v" 	k="72" />
<hkern g1="K" 	g2="C,G" 	k="39" />
<hkern g1="K" 	g2="O,Q" 	k="39" />
<hkern g1="K" 	g2="m,n,p,r" 	k="12" />
<hkern g1="K" 	g2="u" 	k="35" />
<hkern g1="K" 	g2="f" 	k="25" />
<hkern g1="K" 	g2="hyphen,endash,emdash" 	k="53" />
<hkern g1="K" 	g2="copyright" 	k="25" />
<hkern g1="K" 	g2="registered" 	k="25" />
<hkern g1="L" 	g2="quotedbl,quotesingle" 	k="178" />
<hkern g1="L" 	g2="T" 	k="211" />
<hkern g1="L" 	g2="W" 	k="90" />
<hkern g1="L" 	g2="Y" 	k="176" />
<hkern g1="L" 	g2="t" 	k="70" />
<hkern g1="L" 	g2="w" 	k="123" />
<hkern g1="L" 	g2="y" 	k="168" />
<hkern g1="L" 	g2="quoteright,quotedblright" 	k="178" />
<hkern g1="L" 	g2="space" 	k="57" />
<hkern g1="L" 	g2="four" 	k="70" />
<hkern g1="L" 	g2="d,g,q" 	k="41" />
<hkern g1="L" 	g2="e" 	k="63" />
<hkern g1="L" 	g2="c,o" 	k="68" />
<hkern g1="L" 	g2="guillemotleft,guilsinglleft" 	k="80" />
<hkern g1="L" 	g2="V" 	k="154" />
<hkern g1="L" 	g2="v" 	k="154" />
<hkern g1="L" 	g2="C,G" 	k="78" />
<hkern g1="L" 	g2="O,Q" 	k="78" />
<hkern g1="L" 	g2="U" 	k="59" />
<hkern g1="L" 	g2="quoteleft,quotedblleft" 	k="178" />
<hkern g1="L" 	g2="u" 	k="27" />
<hkern g1="L" 	g2="l" 	k="12" />
<hkern g1="L" 	g2="f" 	k="18" />
<hkern g1="L" 	g2="asterisk" 	k="178" />
<hkern g1="L" 	g2="hyphen,endash,emdash" 	k="174" />
<hkern g1="L" 	g2="question" 	k="23" />
<hkern g1="L" 	g2="backslash" 	k="82" />
<hkern g1="L" 	g2="copyright" 	k="47" />
<hkern g1="L" 	g2="registered" 	k="47" />
<hkern g1="L" 	g2="trademark" 	k="176" />
<hkern g1="M" 	g2="T" 	k="12" />
<hkern g1="M" 	g2="W" 	k="12" />
<hkern g1="M" 	g2="Y" 	k="29" />
<hkern g1="M" 	g2="t" 	k="14" />
<hkern g1="M" 	g2="w" 	k="18" />
<hkern g1="M" 	g2="y" 	k="18" />
<hkern g1="M" 	g2="d,g,q" 	k="14" />
<hkern g1="M" 	g2="e" 	k="14" />
<hkern g1="M" 	g2="c,o" 	k="14" />
<hkern g1="M" 	g2="m,n,p,r" 	k="10" />
<hkern g1="M" 	g2="u" 	k="10" />
<hkern g1="M" 	g2="l" 	k="10" />
<hkern g1="M" 	g2="f" 	k="16" />
<hkern g1="M" 	g2="b,h,k" 	k="10" />
<hkern g1="M" 	g2="i,j" 	k="10" />
<hkern g1="O,Q" 	g2="A" 	k="35" />
<hkern g1="O,Q" 	g2="T" 	k="84" />
<hkern g1="O,Q" 	g2="W" 	k="18" />
<hkern g1="O,Q" 	g2="Y" 	k="72" />
<hkern g1="O,Q" 	g2="Z" 	k="33" />
<hkern g1="O,Q" 	g2="comma,period,quotesinglbase,quotedblbase,ellipsis" 	k="47" />
<hkern g1="O,Q" 	g2="a" 	k="14" />
<hkern g1="O,Q" 	g2="three" 	k="23" />
<hkern g1="O,Q" 	g2="seven" 	k="41" />
<hkern g1="O,Q" 	g2="V" 	k="33" />
<hkern g1="O,Q" 	g2="X" 	k="37" />
<hkern g1="O,Q" 	g2="x" 	k="20" />
<hkern g1="O,Q" 	g2="z" 	k="10" />
<hkern g1="O,Q" 	g2="m,n,p,r" 	k="12" />
<hkern g1="O,Q" 	g2="s" 	k="10" />
<hkern g1="O,Q" 	g2="b,h,k" 	k="10" />
<hkern g1="O,Q" 	g2="i,j" 	k="10" />
<hkern g1="O,Q" 	g2="question" 	k="31" />
<hkern g1="O,Q" 	g2="trademark" 	k="41" />
<hkern g1="O,Q" 	g2="parenright" 	k="35" />
<hkern g1="O,Q" 	g2="braceright" 	k="39" />
<hkern g1="P" 	g2="A" 	k="82" />
<hkern g1="P" 	g2="J" 	k="84" />
<hkern g1="P" 	g2="Y" 	k="23" />
<hkern g1="P" 	g2="Z" 	k="18" />
<hkern g1="P" 	g2="comma,period,quotesinglbase,quotedblbase,ellipsis" 	k="174" />
<hkern g1="P" 	g2="d,g,q" 	k="31" />
<hkern g1="P" 	g2="e" 	k="33" />
<hkern g1="P" 	g2="c,o" 	k="35" />
<hkern g1="P" 	g2="guillemotleft,guilsinglleft" 	k="20" />
<hkern g1="P" 	g2="a" 	k="25" />
<hkern g1="P" 	g2="m,n,p,r" 	k="10" />
<hkern g1="P" 	g2="s" 	k="14" />
<hkern g1="P" 	g2="hyphen,endash,emdash" 	k="18" />
<hkern g1="R" 	g2="T" 	k="18" />
<hkern g1="R" 	g2="W" 	k="12" />
<hkern g1="R" 	g2="Y" 	k="35" />
<hkern g1="R" 	g2="four" 	k="20" />
<hkern g1="R" 	g2="d,g,q" 	k="29" />
<hkern g1="R" 	g2="e" 	k="33" />
<hkern g1="R" 	g2="c,o" 	k="37" />
<hkern g1="R" 	g2="guillemotleft,guilsinglleft" 	k="41" />
<hkern g1="R" 	g2="V" 	k="20" />
<hkern g1="R" 	g2="m,n,p,r" 	k="10" />
<hkern g1="R" 	g2="u" 	k="16" />
<hkern g1="R" 	g2="i,j" 	k="10" />
<hkern g1="R" 	g2="hyphen,endash,emdash" 	k="18" />
<hkern g1="S" 	g2="A" 	k="16" />
<hkern g1="S" 	g2="W" 	k="10" />
<hkern g1="S" 	g2="Y" 	k="16" />
<hkern g1="S" 	g2="t" 	k="20" />
<hkern g1="S" 	g2="w" 	k="37" />
<hkern g1="S" 	g2="y" 	k="45" />
<hkern g1="S" 	g2="V" 	k="16" />
<hkern g1="S" 	g2="v" 	k="41" />
<hkern g1="S" 	g2="x" 	k="14" />
<hkern g1="S" 	g2="z" 	k="12" />
<hkern g1="S" 	g2="m,n,p,r" 	k="14" />
<hkern g1="S" 	g2="s" 	k="10" />
<hkern g1="S" 	g2="u" 	k="12" />
<hkern g1="S" 	g2="f" 	k="20" />
<hkern g1="S" 	g2="b,h,k" 	k="10" />
<hkern g1="T" 	g2="A" 	k="127" />
<hkern g1="T" 	g2="J" 	k="109" />
<hkern g1="T" 	g2="t" 	k="80" />
<hkern g1="T" 	g2="w" 	k="170" />
<hkern g1="T" 	g2="y" 	k="178" />
<hkern g1="T" 	g2="space" 	k="63" />
<hkern g1="T" 	g2="comma,period,quotesinglbase,quotedblbase,ellipsis" 	k="131" />
<hkern g1="T" 	g2="slash" 	k="76" />
<hkern g1="T" 	g2="four" 	k="115" />
<hkern g1="T" 	g2="at" 	k="117" />
<hkern g1="T" 	g2="d,g,q" 	k="217" />
<hkern g1="T" 	g2="e" 	k="217" />
<hkern g1="T" 	g2="c,o" 	k="219" />
<hkern g1="T" 	g2="guillemotleft,guilsinglleft" 	k="143" />
<hkern g1="T" 	g2="a" 	k="207" />
<hkern g1="T" 	g2="v" 	k="176" />
<hkern g1="T" 	g2="x" 	k="166" />
<hkern g1="T" 	g2="z" 	k="188" />
<hkern g1="T" 	g2="six" 	k="31" />
<hkern g1="T" 	g2="C,G" 	k="82" />
<hkern g1="T" 	g2="O,Q" 	k="84" />
<hkern g1="T" 	g2="m,n,p,r" 	k="215" />
<hkern g1="T" 	g2="s" 	k="207" />
<hkern g1="T" 	g2="u" 	k="213" />
<hkern g1="T" 	g2="f" 	k="76" />
<hkern g1="T" 	g2="hyphen,endash,emdash" 	k="135" />
<hkern g1="T" 	g2="copyright" 	k="43" />
<hkern g1="T" 	g2="registered" 	k="43" />
<hkern g1="T" 	g2="guillemotright,guilsinglright" 	k="127" />
<hkern g1="T" 	g2="colon,semicolon" 	k="111" />
<hkern g1="U" 	g2="A" 	k="25" />
<hkern g1="U" 	g2="comma,period,quotesinglbase,quotedblbase,ellipsis" 	k="25" />
<hkern g1="U" 	g2="d,g,q" 	k="20" />
<hkern g1="U" 	g2="e" 	k="18" />
<hkern g1="U" 	g2="c,o" 	k="20" />
<hkern g1="U" 	g2="a" 	k="20" />
<hkern g1="U" 	g2="x" 	k="16" />
<hkern g1="U" 	g2="z" 	k="18" />
<hkern g1="U" 	g2="m,n,p,r" 	k="12" />
<hkern g1="U" 	g2="s" 	k="27" />
<hkern g1="U" 	g2="u" 	k="14" />
<hkern g1="U" 	g2="l" 	k="12" />
<hkern g1="U" 	g2="f" 	k="14" />
<hkern g1="U" 	g2="b,h,k" 	k="10" />
<hkern g1="U" 	g2="i,j" 	k="10" />
<hkern g1="V" 	g2="A" 	k="74" />
<hkern g1="V" 	g2="J" 	k="82" />
<hkern g1="V" 	g2="t" 	k="12" />
<hkern g1="V" 	g2="w" 	k="23" />
<hkern g1="V" 	g2="y" 	k="18" />
<hkern g1="V" 	g2="comma,period,quotesinglbase,quotedblbase,ellipsis" 	k="125" />
<hkern g1="V" 	g2="d,g,q" 	k="98" />
<hkern g1="V" 	g2="e" 	k="100" />
<hkern g1="V" 	g2="c,o" 	k="102" />
<hkern g1="V" 	g2="guillemotleft,guilsinglleft" 	k="68" />
<hkern g1="V" 	g2="a" 	k="88" />
<hkern g1="V" 	g2="S" 	k="18" />
<hkern g1="V" 	g2="z" 	k="37" />
<hkern g1="V" 	g2="C,G" 	k="31" />
<hkern g1="V" 	g2="O,Q" 	k="33" />
<hkern g1="V" 	g2="m,n,p,r" 	k="74" />
<hkern g1="V" 	g2="s" 	k="88" />
<hkern g1="V" 	g2="u" 	k="76" />
<hkern g1="V" 	g2="f" 	k="23" />
<hkern g1="V" 	g2="hyphen,endash,emdash" 	k="66" />
<hkern g1="V" 	g2="guillemotright,guilsinglright" 	k="23" />
<hkern g1="W" 	g2="A" 	k="57" />
<hkern g1="W" 	g2="J" 	k="49" />
<hkern g1="W" 	g2="space" 	k="59" />
<hkern g1="W" 	g2="comma,period,quotesinglbase,quotedblbase,ellipsis" 	k="80" />
<hkern g1="W" 	g2="slash" 	k="55" />
<hkern g1="W" 	g2="four" 	k="37" />
<hkern g1="W" 	g2="at" 	k="33" />
<hkern g1="W" 	g2="d,g,q" 	k="63" />
<hkern g1="W" 	g2="e" 	k="70" />
<hkern g1="W" 	g2="c,o" 	k="72" />
<hkern g1="W" 	g2="guillemotleft,guilsinglleft" 	k="47" />
<hkern g1="W" 	g2="a" 	k="68" />
<hkern g1="W" 	g2="S" 	k="12" />
<hkern g1="W" 	g2="x" 	k="18" />
<hkern g1="W" 	g2="z" 	k="18" />
<hkern g1="W" 	g2="C,G" 	k="18" />
<hkern g1="W" 	g2="O,Q" 	k="18" />
<hkern g1="W" 	g2="m,n,p,r" 	k="49" />
<hkern g1="W" 	g2="s" 	k="63" />
<hkern g1="W" 	g2="u" 	k="49" />
<hkern g1="W" 	g2="f" 	k="12" />
<hkern g1="W" 	g2="hyphen,endash,emdash" 	k="35" />
<hkern g1="X" 	g2="t" 	k="33" />
<hkern g1="X" 	g2="w" 	k="68" />
<hkern g1="X" 	g2="y" 	k="76" />
<hkern g1="X" 	g2="d,g,q" 	k="37" />
<hkern g1="X" 	g2="e" 	k="43" />
<hkern g1="X" 	g2="c,o" 	k="45" />
<hkern g1="X" 	g2="guillemotleft,guilsinglleft" 	k="39" />
<hkern g1="X" 	g2="C,G" 	k="35" />
<hkern g1="X" 	g2="O,Q" 	k="37" />
<hkern g1="X" 	g2="m,n,p,r" 	k="12" />
<hkern g1="X" 	g2="u" 	k="31" />
<hkern g1="X" 	g2="l" 	k="10" />
<hkern g1="X" 	g2="f" 	k="23" />
<hkern g1="X" 	g2="hyphen,endash,emdash" 	k="49" />
<hkern g1="Y" 	g2="A" 	k="106" />
<hkern g1="Y" 	g2="J" 	k="88" />
<hkern g1="Y" 	g2="t" 	k="39" />
<hkern g1="Y" 	g2="w" 	k="78" />
<hkern g1="Y" 	g2="y" 	k="76" />
<hkern g1="Y" 	g2="space" 	k="74" />
<hkern g1="Y" 	g2="comma,period,quotesinglbase,quotedblbase,ellipsis" 	k="139" />
<hkern g1="Y" 	g2="slash" 	k="94" />
<hkern g1="Y" 	g2="four" 	k="113" />
<hkern g1="Y" 	g2="at" 	k="100" />
<hkern g1="Y" 	g2="d,g,q" 	k="150" />
<hkern g1="Y" 	g2="e" 	k="152" />
<hkern g1="Y" 	g2="c,o" 	k="156" />
<hkern g1="Y" 	g2="guillemotleft,guilsinglleft" 	k="117" />
<hkern g1="Y" 	g2="a" 	k="152" />
<hkern g1="Y" 	g2="one" 	k="37" />
<hkern g1="Y" 	g2="two" 	k="20" />
<hkern g1="Y" 	g2="S" 	k="27" />
<hkern g1="Y" 	g2="v" 	k="76" />
<hkern g1="Y" 	g2="x" 	k="88" />
<hkern g1="Y" 	g2="z" 	k="86" />
<hkern g1="Y" 	g2="zero" 	k="43" />
<hkern g1="Y" 	g2="six" 	k="59" />
<hkern g1="Y" 	g2="C,G" 	k="70" />
<hkern g1="Y" 	g2="O,Q" 	k="72" />
<hkern g1="Y" 	g2="m,n,p,r" 	k="127" />
<hkern g1="Y" 	g2="s" 	k="158" />
<hkern g1="Y" 	g2="u" 	k="121" />
<hkern g1="Y" 	g2="f" 	k="59" />
<hkern g1="Y" 	g2="hyphen,endash,emdash" 	k="139" />
<hkern g1="Y" 	g2="copyright" 	k="61" />
<hkern g1="Y" 	g2="registered" 	k="61" />
<hkern g1="Y" 	g2="guillemotright,guilsinglright" 	k="53" />
<hkern g1="Y" 	g2="colon,semicolon" 	k="43" />
<hkern g1="Z" 	g2="t" 	k="20" />
<hkern g1="Z" 	g2="w" 	k="49" />
<hkern g1="Z" 	g2="y" 	k="53" />
<hkern g1="Z" 	g2="four" 	k="43" />
<hkern g1="Z" 	g2="d,g,q" 	k="29" />
<hkern g1="Z" 	g2="e" 	k="31" />
<hkern g1="Z" 	g2="c,o" 	k="33" />
<hkern g1="Z" 	g2="guillemotleft,guilsinglleft" 	k="31" />
<hkern g1="Z" 	g2="v" 	k="51" />
<hkern g1="Z" 	g2="C,G" 	k="31" />
<hkern g1="Z" 	g2="O,Q" 	k="33" />
<hkern g1="Z" 	g2="m,n,p,r" 	k="16" />
<hkern g1="Z" 	g2="u" 	k="29" />
<hkern g1="Z" 	g2="f" 	k="18" />
<hkern g1="Z" 	g2="hyphen,endash,emdash" 	k="45" />
<hkern g1="Z" 	g2="copyright" 	k="27" />
<hkern g1="Z" 	g2="registered" 	k="27" />
<hkern g1="a" 	g2="quotedbl,quotesingle" 	k="20" />
<hkern g1="a" 	g2="T" 	k="225" />
<hkern g1="a" 	g2="W" 	k="51" />
<hkern g1="a" 	g2="Y" 	k="143" />
<hkern g1="a" 	g2="t" 	k="8" />
<hkern g1="a" 	g2="w" 	k="14" />
<hkern g1="a" 	g2="y" 	k="20" />
<hkern g1="a" 	g2="quoteright,quotedblright" 	k="18" />
<hkern g1="a" 	g2="Z" 	k="12" />
<hkern g1="a" 	g2="S" 	k="14" />
<hkern g1="a" 	g2="V" 	k="84" />
<hkern g1="a" 	g2="v" 	k="18" />
<hkern g1="a" 	g2="C,G" 	k="12" />
<hkern g1="a" 	g2="O,Q" 	k="12" />
<hkern g1="a" 	g2="U" 	k="12" />
<hkern g1="a" 	g2="quoteleft,quotedblleft" 	k="16" />
<hkern g1="a" 	g2="B,D,E,F,H,I,K,L,N,P,R" 	k="12" />
<hkern g1="a" 	g2="asterisk" 	k="16" />
<hkern g1="a" 	g2="question" 	k="37" />
<hkern g1="a" 	g2="backslash" 	k="47" />
<hkern g1="a" 	g2="trademark" 	k="49" />
<hkern g1="a" 	g2="parenright" 	k="20" />
<hkern g1="a" 	g2="braceright" 	k="29" />
<hkern g1="b,p" 	g2="quotedbl,quotesingle" 	k="68" />
<hkern g1="b,p" 	g2="A" 	k="20" />
<hkern g1="b,p" 	g2="T" 	k="217" />
<hkern g1="b,p" 	g2="W" 	k="63" />
<hkern g1="b,p" 	g2="Y" 	k="145" />
<hkern g1="b,p" 	g2="t" 	k="12" />
<hkern g1="b,p" 	g2="w" 	k="27" />
<hkern g1="b,p" 	g2="y" 	k="33" />
<hkern g1="b,p" 	g2="quoteright,quotedblright" 	k="66" />
<hkern g1="b,p" 	g2="Z" 	k="31" />
<hkern g1="b,p" 	g2="S" 	k="18" />
<hkern g1="b,p" 	g2="V" 	k="96" />
<hkern g1="b,p" 	g2="X" 	k="37" />
<hkern g1="b,p" 	g2="v" 	k="31" />
<hkern g1="b,p" 	g2="x" 	k="27" />
<hkern g1="b,p" 	g2="z" 	k="18" />
<hkern g1="b,p" 	g2="U" 	k="18" />
<hkern g1="b,p" 	g2="quoteleft,quotedblleft" 	k="63" />
<hkern g1="b,p" 	g2="B,D,E,F,H,I,K,L,N,P,R" 	k="14" />
<hkern g1="b,p" 	g2="f" 	k="10" />
<hkern g1="b,p" 	g2="asterisk" 	k="23" />
<hkern g1="b,p" 	g2="question" 	k="45" />
<hkern g1="b,p" 	g2="backslash" 	k="49" />
<hkern g1="b,p" 	g2="trademark" 	k="51" />
<hkern g1="b,p" 	g2="parenright" 	k="41" />
<hkern g1="b,p" 	g2="braceright" 	k="45" />
<hkern g1="c" 	g2="T" 	k="227" />
<hkern g1="c" 	g2="W" 	k="39" />
<hkern g1="c" 	g2="Y" 	k="150" />
<hkern g1="c" 	g2="y" 	k="10" />
<hkern g1="c" 	g2="d,g,q" 	k="18" />
<hkern g1="c" 	g2="e" 	k="23" />
<hkern g1="c" 	g2="c,o" 	k="25" />
<hkern g1="c" 	g2="guillemotleft,guilsinglleft" 	k="41" />
<hkern g1="c" 	g2="a" 	k="8" />
<hkern g1="c" 	g2="S" 	k="12" />
<hkern g1="c" 	g2="V" 	k="72" />
<hkern g1="c" 	g2="v" 	k="10" />
<hkern g1="c" 	g2="C,G" 	k="14" />
<hkern g1="c" 	g2="O,Q" 	k="16" />
<hkern g1="c" 	g2="U" 	k="16" />
<hkern g1="c" 	g2="s" 	k="8" />
<hkern g1="c" 	g2="hyphen,endash,emdash" 	k="61" />
<hkern g1="c" 	g2="question" 	k="29" />
<hkern g1="c" 	g2="backslash" 	k="27" />
<hkern g1="c" 	g2="trademark" 	k="47" />
<hkern g1="c" 	g2="braceright" 	k="31" />
<hkern g1="d" 	g2="Z" 	k="12" />
<hkern g1="d" 	g2="C,G" 	k="10" />
<hkern g1="d" 	g2="O,Q" 	k="10" />
<hkern g1="d" 	g2="U" 	k="10" />
<hkern g1="d" 	g2="B,D,E,F,H,I,K,L,N,P,R" 	k="12" />
<hkern g1="e" 	g2="quotedbl,quotesingle" 	k="25" />
<hkern g1="e" 	g2="A" 	k="10" />
<hkern g1="e" 	g2="T" 	k="207" />
<hkern g1="e" 	g2="W" 	k="66" />
<hkern g1="e" 	g2="Y" 	k="178" />
<hkern g1="e" 	g2="t" 	k="8" />
<hkern g1="e" 	g2="w" 	k="20" />
<hkern g1="e" 	g2="y" 	k="27" />
<hkern g1="e" 	g2="quoteright,quotedblright" 	k="23" />
<hkern g1="e" 	g2="Z" 	k="10" />
<hkern g1="e" 	g2="S" 	k="10" />
<hkern g1="e" 	g2="V" 	k="90" />
<hkern g1="e" 	g2="v" 	k="25" />
<hkern g1="e" 	g2="x" 	k="8" />
<hkern g1="e" 	g2="U" 	k="18" />
<hkern g1="e" 	g2="quoteleft,quotedblleft" 	k="20" />
<hkern g1="e" 	g2="B,D,E,F,H,I,K,L,N,P,R" 	k="14" />
<hkern g1="e" 	g2="question" 	k="37" />
<hkern g1="e" 	g2="backslash" 	k="43" />
<hkern g1="e" 	g2="trademark" 	k="49" />
<hkern g1="e" 	g2="parenright" 	k="25" />
<hkern g1="e" 	g2="braceright" 	k="39" />
<hkern g1="f" 	g2="A" 	k="70" />
<hkern g1="f" 	g2="J" 	k="76" />
<hkern g1="f" 	g2="space" 	k="45" />
<hkern g1="f" 	g2="comma,period,quotesinglbase,quotedblbase,ellipsis" 	k="47" />
<hkern g1="f" 	g2="slash" 	k="35" />
<hkern g1="f" 	g2="d,g,q" 	k="29" />
<hkern g1="f" 	g2="e" 	k="33" />
<hkern g1="f" 	g2="c,o" 	k="39" />
<hkern g1="f" 	g2="guillemotleft,guilsinglleft" 	k="41" />
<hkern g1="f" 	g2="a" 	k="8" />
<hkern g1="f" 	g2="hyphen,endash,emdash" 	k="59" />
<hkern g1="i,j" 	g2="Z" 	k="12" />
<hkern g1="i,j" 	g2="C,G" 	k="10" />
<hkern g1="i,j" 	g2="O,Q" 	k="10" />
<hkern g1="i,j" 	g2="U" 	k="10" />
<hkern g1="i,j" 	g2="B,D,E,F,H,I,K,L,N,P,R" 	k="10" />
<hkern g1="k" 	g2="T" 	k="158" />
<hkern g1="k" 	g2="W" 	k="12" />
<hkern g1="k" 	g2="Y" 	k="80" />
<hkern g1="k" 	g2="d,g,q" 	k="37" />
<hkern g1="k" 	g2="e" 	k="41" />
<hkern g1="k" 	g2="c,o" 	k="43" />
<hkern g1="k" 	g2="guillemotleft,guilsinglleft" 	k="53" />
<hkern g1="k" 	g2="a" 	k="12" />
<hkern g1="k" 	g2="V" 	k="29" />
<hkern g1="k" 	g2="C,G" 	k="25" />
<hkern g1="k" 	g2="O,Q" 	k="27" />
<hkern g1="k" 	g2="U" 	k="12" />
<hkern g1="k" 	g2="hyphen,endash,emdash" 	k="68" />
<hkern g1="k" 	g2="trademark" 	k="41" />
<hkern g1="l" 	g2="T" 	k="14" />
<hkern g1="l" 	g2="W" 	k="14" />
<hkern g1="l" 	g2="Y" 	k="23" />
<hkern g1="l" 	g2="w" 	k="12" />
<hkern g1="l" 	g2="y" 	k="16" />
<hkern g1="l" 	g2="V" 	k="14" />
<hkern g1="l" 	g2="v" 	k="14" />
<hkern g1="l" 	g2="C,G" 	k="14" />
<hkern g1="l" 	g2="O,Q" 	k="14" />
<hkern g1="l" 	g2="U" 	k="14" />
<hkern g1="h,m,n" 	g2="quotedbl,quotesingle" 	k="18" />
<hkern g1="h,m,n" 	g2="T" 	k="225" />
<hkern g1="h,m,n" 	g2="W" 	k="51" />
<hkern g1="h,m,n" 	g2="Y" 	k="137" />
<hkern g1="h,m,n" 	g2="w" 	k="12" />
<hkern g1="h,m,n" 	g2="y" 	k="16" />
<hkern g1="h,m,n" 	g2="quoteright,quotedblright" 	k="16" />
<hkern g1="h,m,n" 	g2="Z" 	k="12" />
<hkern g1="h,m,n" 	g2="S" 	k="14" />
<hkern g1="h,m,n" 	g2="V" 	k="84" />
<hkern g1="h,m,n" 	g2="v" 	k="16" />
<hkern g1="h,m,n" 	g2="C,G" 	k="12" />
<hkern g1="h,m,n" 	g2="O,Q" 	k="12" />
<hkern g1="h,m,n" 	g2="U" 	k="12" />
<hkern g1="h,m,n" 	g2="B,D,E,F,H,I,K,L,N,P,R" 	k="12" />
<hkern g1="h,m,n" 	g2="asterisk" 	k="16" />
<hkern g1="h,m,n" 	g2="question" 	k="37" />
<hkern g1="h,m,n" 	g2="backslash" 	k="45" />
<hkern g1="h,m,n" 	g2="trademark" 	k="49" />
<hkern g1="h,m,n" 	g2="parenright" 	k="20" />
<hkern g1="h,m,n" 	g2="braceright" 	k="29" />
<hkern g1="o" 	g2="quotedbl,quotesingle" 	k="37" />
<hkern g1="o" 	g2="A" 	k="25" />
<hkern g1="o" 	g2="T" 	k="219" />
<hkern g1="o" 	g2="W" 	k="70" />
<hkern g1="o" 	g2="Y" 	k="156" />
<hkern g1="o" 	g2="t" 	k="14" />
<hkern g1="o" 	g2="w" 	k="29" />
<hkern g1="o" 	g2="y" 	k="37" />
<hkern g1="o" 	g2="quoteright,quotedblright" 	k="35" />
<hkern g1="o" 	g2="Z" 	k="35" />
<hkern g1="o" 	g2="S" 	k="20" />
<hkern g1="o" 	g2="V" 	k="102" />
<hkern g1="o" 	g2="X" 	k="45" />
<hkern g1="o" 	g2="v" 	k="35" />
<hkern g1="o" 	g2="x" 	k="33" />
<hkern g1="o" 	g2="z" 	k="27" />
<hkern g1="o" 	g2="U" 	k="20" />
<hkern g1="o" 	g2="quoteleft,quotedblleft" 	k="33" />
<hkern g1="o" 	g2="B,D,E,F,H,I,K,L,N,P,R" 	k="20" />
<hkern g1="o" 	g2="f" 	k="12" />
<hkern g1="o" 	g2="asterisk" 	k="18" />
<hkern g1="o" 	g2="question" 	k="43" />
<hkern g1="o" 	g2="backslash" 	k="53" />
<hkern g1="o" 	g2="trademark" 	k="49" />
<hkern g1="o" 	g2="parenright" 	k="43" />
<hkern g1="o" 	g2="braceright" 	k="47" />
<hkern g1="r" 	g2="A" 	k="82" />
<hkern g1="r" 	g2="J" 	k="96" />
<hkern g1="r" 	g2="T" 	k="162" />
<hkern g1="r" 	g2="Y" 	k="59" />
<hkern g1="r" 	g2="Z" 	k="61" />
<hkern g1="r" 	g2="space" 	k="47" />
<hkern g1="r" 	g2="comma,period,quotesinglbase,quotedblbase,ellipsis" 	k="84" />
<hkern g1="r" 	g2="slash" 	k="45" />
<hkern g1="r" 	g2="d,g,q" 	k="37" />
<hkern g1="r" 	g2="e" 	k="43" />
<hkern g1="r" 	g2="c,o" 	k="51" />
<hkern g1="r" 	g2="guillemotleft,guilsinglleft" 	k="47" />
<hkern g1="r" 	g2="a" 	k="10" />
<hkern g1="r" 	g2="V" 	k="14" />
<hkern g1="r" 	g2="X" 	k="72" />
<hkern g1="r" 	g2="hyphen,endash,emdash" 	k="88" />
<hkern g1="r" 	g2="trademark" 	k="31" />
<hkern g1="r" 	g2="parenright" 	k="23" />
<hkern g1="r" 	g2="braceright" 	k="31" />
<hkern g1="s" 	g2="A" 	k="10" />
<hkern g1="s" 	g2="T" 	k="205" />
<hkern g1="s" 	g2="W" 	k="47" />
<hkern g1="s" 	g2="Y" 	k="117" />
<hkern g1="s" 	g2="w" 	k="14" />
<hkern g1="s" 	g2="y" 	k="18" />
<hkern g1="s" 	g2="guillemotleft,guilsinglleft" 	k="25" />
<hkern g1="s" 	g2="V" 	k="78" />
<hkern g1="s" 	g2="v" 	k="16" />
<hkern g1="s" 	g2="C,G" 	k="12" />
<hkern g1="s" 	g2="O,Q" 	k="12" />
<hkern g1="s" 	g2="U" 	k="18" />
<hkern g1="s" 	g2="B,D,E,F,H,I,K,L,N,P,R" 	k="14" />
<hkern g1="s" 	g2="hyphen,endash,emdash" 	k="33" />
<hkern g1="s" 	g2="question" 	k="25" />
<hkern g1="s" 	g2="backslash" 	k="27" />
<hkern g1="s" 	g2="trademark" 	k="47" />
<hkern g1="s" 	g2="parenright" 	k="23" />
<hkern g1="s" 	g2="braceright" 	k="31" />
<hkern g1="t" 	g2="T" 	k="139" />
<hkern g1="t" 	g2="Y" 	k="53" />
<hkern g1="t" 	g2="e" 	k="12" />
<hkern g1="t" 	g2="c,o" 	k="14" />
<hkern g1="t" 	g2="guillemotleft,guilsinglleft" 	k="33" />
<hkern g1="t" 	g2="V" 	k="14" />
<hkern g1="t" 	g2="trademark" 	k="27" />
<hkern g1="g,q,u" 	g2="T" 	k="215" />
<hkern g1="g,q,u" 	g2="W" 	k="49" />
<hkern g1="g,q,u" 	g2="Y" 	k="127" />
<hkern g1="g,q,u" 	g2="Z" 	k="12" />
<hkern g1="g,q,u" 	g2="S" 	k="10" />
<hkern g1="g,q,u" 	g2="V" 	k="74" />
<hkern g1="g,q,u" 	g2="X" 	k="12" />
<hkern g1="g,q,u" 	g2="C,G" 	k="12" />
<hkern g1="g,q,u" 	g2="O,Q" 	k="10" />
<hkern g1="g,q,u" 	g2="U" 	k="12" />
<hkern g1="g,q,u" 	g2="B,D,E,F,H,I,K,L,N,P,R" 	k="12" />
<hkern g1="g,q,u" 	g2="question" 	k="29" />
<hkern g1="g,q,u" 	g2="backslash" 	k="29" />
<hkern g1="g,q,u" 	g2="trademark" 	k="45" />
<hkern g1="g,q,u" 	g2="parenright" 	k="20" />
<hkern g1="g,q,u" 	g2="braceright" 	k="27" />
<hkern g1="v" 	g2="A" 	k="49" />
<hkern g1="v" 	g2="J" 	k="49" />
<hkern g1="v" 	g2="T" 	k="176" />
<hkern g1="v" 	g2="Y" 	k="78" />
<hkern g1="v" 	g2="Z" 	k="57" />
<hkern g1="v" 	g2="comma,period,quotesinglbase,quotedblbase,ellipsis" 	k="86" />
<hkern g1="v" 	g2="d,g,q" 	k="31" />
<hkern g1="v" 	g2="e" 	k="33" />
<hkern g1="v" 	g2="c,o" 	k="33" />
<hkern g1="v" 	g2="guillemotleft,guilsinglleft" 	k="35" />
<hkern g1="v" 	g2="a" 	k="25" />
<hkern g1="v" 	g2="s" 	k="23" />
<hkern g1="v" 	g2="hyphen,endash,emdash" 	k="33" />
<hkern g1="w" 	g2="A" 	k="43" />
<hkern g1="w" 	g2="J" 	k="39" />
<hkern g1="w" 	g2="T" 	k="170" />
<hkern g1="w" 	g2="Y" 	k="78" />
<hkern g1="w" 	g2="Z" 	k="53" />
<hkern g1="w" 	g2="space" 	k="51" />
<hkern g1="w" 	g2="comma,period,quotesinglbase,quotedblbase,ellipsis" 	k="72" />
<hkern g1="w" 	g2="slash" 	k="41" />
<hkern g1="w" 	g2="d,g,q" 	k="27" />
<hkern g1="w" 	g2="e" 	k="27" />
<hkern g1="w" 	g2="c,o" 	k="29" />
<hkern g1="w" 	g2="guillemotleft,guilsinglleft" 	k="29" />
<hkern g1="w" 	g2="a" 	k="23" />
<hkern g1="w" 	g2="V" 	k="23" />
<hkern g1="w" 	g2="X" 	k="70" />
<hkern g1="w" 	g2="s" 	k="18" />
<hkern g1="w" 	g2="hyphen,endash,emdash" 	k="27" />
<hkern g1="w" 	g2="question" 	k="20" />
<hkern g1="w" 	g2="trademark" 	k="39" />
<hkern g1="w" 	g2="parenright" 	k="31" />
<hkern g1="w" 	g2="braceright" 	k="39" />
<hkern g1="x" 	g2="T" 	k="166" />
<hkern g1="x" 	g2="W" 	k="18" />
<hkern g1="x" 	g2="Y" 	k="88" />
<hkern g1="x" 	g2="d,g,q" 	k="27" />
<hkern g1="x" 	g2="e" 	k="31" />
<hkern g1="x" 	g2="c,o" 	k="33" />
<hkern g1="x" 	g2="guillemotleft,guilsinglleft" 	k="47" />
<hkern g1="x" 	g2="C,G" 	k="18" />
<hkern g1="x" 	g2="O,Q" 	k="20" />
<hkern g1="x" 	g2="U" 	k="16" />
<hkern g1="x" 	g2="hyphen,endash,emdash" 	k="55" />
<hkern g1="y" 	g2="A" 	k="53" />
<hkern g1="y" 	g2="J" 	k="55" />
<hkern g1="y" 	g2="T" 	k="178" />
<hkern g1="y" 	g2="Y" 	k="76" />
<hkern g1="y" 	g2="Z" 	k="59" />
<hkern g1="y" 	g2="space" 	k="55" />
<hkern g1="y" 	g2="comma,period,quotesinglbase,quotedblbase,ellipsis" 	k="92" />
<hkern g1="y" 	g2="slash" 	k="43" />
<hkern g1="y" 	g2="d,g,q" 	k="33" />
<hkern g1="y" 	g2="e" 	k="35" />
<hkern g1="y" 	g2="c,o" 	k="37" />
<hkern g1="y" 	g2="guillemotleft,guilsinglleft" 	k="39" />
<hkern g1="y" 	g2="a" 	k="25" />
<hkern g1="y" 	g2="V" 	k="18" />
<hkern g1="y" 	g2="X" 	k="76" />
<hkern g1="y" 	g2="s" 	k="23" />
<hkern g1="y" 	g2="hyphen,endash,emdash" 	k="37" />
<hkern g1="y" 	g2="question" 	k="23" />
<hkern g1="y" 	g2="trademark" 	k="39" />
<hkern g1="y" 	g2="parenright" 	k="29" />
<hkern g1="y" 	g2="braceright" 	k="39" />
<hkern g1="z" 	g2="T" 	k="193" />
<hkern g1="z" 	g2="W" 	k="25" />
<hkern g1="z" 	g2="Y" 	k="98" />
<hkern g1="z" 	g2="d,g,q" 	k="18" />
<hkern g1="z" 	g2="e" 	k="23" />
<hkern g1="z" 	g2="c,o" 	k="27" />
<hkern g1="z" 	g2="guillemotleft,guilsinglleft" 	k="49" />
<hkern g1="z" 	g2="V" 	k="43" />
<hkern g1="z" 	g2="C,G" 	k="10" />
<hkern g1="z" 	g2="O,Q" 	k="10" />
<hkern g1="z" 	g2="U" 	k="18" />
<hkern g1="z" 	g2="B,D,E,F,H,I,K,L,N,P,R" 	k="10" />
<hkern g1="z" 	g2="hyphen,endash,emdash" 	k="63" />
<hkern g1="z" 	g2="trademark" 	k="45" />
<hkern g1="zero" 	g2="A" 	k="25" />
<hkern g1="zero" 	g2="Y" 	k="43" />
<hkern g1="zero" 	g2="comma,period,quotesinglbase,quotedblbase,ellipsis" 	k="20" />
<hkern g1="one" 	g2="quotedbl,quotesingle" 	k="61" />
<hkern g1="one" 	g2="T" 	k="43" />
<hkern g1="one" 	g2="W" 	k="53" />
<hkern g1="one" 	g2="Y" 	k="78" />
<hkern g1="one" 	g2="C,G" 	k="39" />
<hkern g1="one" 	g2="O,Q" 	k="41" />
<hkern g1="one" 	g2="U" 	k="25" />
<hkern g1="one" 	g2="hyphen,endash,emdash" 	k="43" />
<hkern g1="two" 	g2="Y" 	k="33" />
<hkern g1="two" 	g2="hyphen,endash,emdash" 	k="39" />
<hkern g1="four" 	g2="quotedbl,quotesingle" 	k="31" />
<hkern g1="four" 	g2="A" 	k="20" />
<hkern g1="four" 	g2="W" 	k="25" />
<hkern g1="four" 	g2="Y" 	k="49" />
<hkern g1="seven" 	g2="A" 	k="94" />
<hkern g1="seven" 	g2="J" 	k="55" />
<hkern g1="seven" 	g2="comma,period,quotesinglbase,quotedblbase,ellipsis" 	k="156" />
<hkern g1="seven" 	g2="C,G" 	k="20" />
<hkern g1="seven" 	g2="O,Q" 	k="23" />
<hkern g1="seven" 	g2="hyphen,endash,emdash" 	k="80" />
<hkern g1="eight" 	g2="A" 	k="20" />
<hkern g1="eight" 	g2="Y" 	k="31" />
<hkern g1="nine" 	g2="A" 	k="33" />
<hkern g1="nine" 	g2="Y" 	k="45" />
<hkern g1="nine" 	g2="comma,period,quotesinglbase,quotedblbase,ellipsis" 	k="43" />
</font>
</defs></svg> 